  0
SECTION
  2
HEADER
  9
$ACADVER
  1
AC1009
  9
$DWGCODEPAGE
  3
ansi_1252
  9
$INSBASE
 10
0.0
 20
0.0
 30
0.0
  9
$EXTMIN
 10
-19.5825
 20
-17.25
 30
0.0
  9
$EXTMAX
 10
114.3207027850014
 20
84.56420365243368
 30
0.0
  9
$LIMMIN
 10
0.0
 20
0.0
  9
$LIMMAX
 10
420.0
 20
297.0
  9
$ORTHOMODE
 70
     1
  9
$REGENMODE
 70
     1
  9
$FILLMODE
 70
     1
  9
$QTEXTMODE
 70
     0
  9
$MIRRTEXT
 70
     0
  9
$DRAGMODE
 70
     2
  9
$LTSCALE
 40
1.0
  9
$OSMODE
 70
   511
  9
$ATTMODE
 70
     1
  9
$TEXTSIZE
 40
2.5
  9
$TRACEWID
 40
1.0
  9
$TEXTSTYLE
  7
STANDARD
  9
$CLAYER
  8
0
  9
$CELTYPE
  6
BYLAYER
  9
$CECOLOR
 62
   256
  9
$DIMSCALE
 40
1.0
  9
$DIMASZ
 40
2.5
  9
$DIMEXO
 40
0.625
  9
$DIMDLI
 40
3.75
  9
$DIMRND
 40
0.0
  9
$DIMDLE
 40
0.0
  9
$DIMEXE
 40
1.25
  9
$DIMTP
 40
0.0
  9
$DIMTM
 40
0.0
  9
$DIMTXT
 40
2.5
  9
$DIMCEN
 40
2.5
  9
$DIMTSZ
 40
0.0
  9
$DIMTOL
 70
     0
  9
$DIMLIM
 70
     0
  9
$DIMTIH
 70
     0
  9
$DIMTOH
 70
     0
  9
$DIMSE1
 70
     0
  9
$DIMSE2
 70
     0
  9
$DIMTAD
 70
     1
  9
$DIMZIN
 70
     8
  9
$DIMBLK
  1

  9
$DIMASO
 70
     1
  9
$DIMSHO
 70
     1
  9
$DIMPOST
  1

  9
$DIMAPOST
  1

  9
$DIMALT
 70
     0
  9
$DIMALTD
 70
     3
  9
$DIMALTF
 40
0.03937007874016
  9
$DIMLFAC
 40
1.0
  9
$DIMTOFL
 70
     1
  9
$DIMTVP
 40
0.0
  9
$DIMTIX
 70
     0
  9
$DIMSOXD
 70
     0
  9
$DIMSAH
 70
     0
  9
$DIMBLK1
  1

  9
$DIMBLK2
  1

  9
$DIMSTYLE
  2
ISO-25
  9
$DIMCLRD
 70
     0
  9
$DIMCLRE
 70
     0
  9
$DIMCLRT
 70
     0
  9
$DIMTFAC
 40
1.0
  9
$DIMGAP
 40
0.625
  9
$LUNITS
 70
     2
  9
$LUPREC
 70
     3
  9
$SKETCHINC
 40
1.0
  9
$FILLETRAD
 40
1.0
  9
$AUNITS
 70
     0
  9
$AUPREC
 70
     0
  9
$MENU
  1
.
  9
$ELEVATION
 40
0.0
  9
$PELEVATION
 40
0.0
  9
$THICKNESS
 40
0.0
  9
$LIMCHECK
 70
     0
  9
$CHAMFERA
 40
10.0
  9
$CHAMFERB
 40
10.0
  9
$SKPOLY
 70
     0
  9
$TDCREATE
 40
2455022.720692836
  9
$TDUPDATE
 40
2458051.703336065
  9
$TDINDWG
 40
0.0200877662
  9
$TDUSRTIMER
 40
0.0050045255
  9
$USRTIMER
 70
     1
  9
$ANGBASE
 50
0.0
  9
$ANGDIR
 70
     0
  9
$PDMODE
 70
     0
  9
$PDSIZE
 40
0.0
  9
$PLINEWID
 40
0.0
  9
$COORDS
 70
     1
  9
$SPLFRAME
 70
     0
  9
$SPLINETYPE
 70
     6
  9
$SPLINESEGS
 70
     8
  9
$ATTDIA
 70
     0
  9
$ATTREQ
 70
     1
  9
$HANDLING
 70
     1
  9
$HANDSEED
  5
754
  9
$SURFTAB1
 70
     6
  9
$SURFTAB2
 70
     6
  9
$SURFTYPE
 70
     6
  9
$SURFU
 70
     6
  9
$SURFV
 70
     6
  9
$UCSNAME
  2

  9
$UCSORG
 10
0.0
 20
0.0
 30
0.0
  9
$UCSXDIR
 10
1.0
 20
0.0
 30
0.0
  9
$UCSYDIR
 10
0.0
 20
1.0
 30
0.0
  9
$PUCSNAME
  2

  9
$PUCSORG
 10
0.0
 20
0.0
 30
0.0
  9
$PUCSXDIR
 10
1.0
 20
0.0
 30
0.0
  9
$PUCSYDIR
 10
0.0
 20
1.0
 30
0.0
  9
$USERI1
 70
     0
  9
$USERI2
 70
     0
  9
$USERI3
 70
     0
  9
$USERI4
 70
     0
  9
$USERI5
 70
     0
  9
$USERR1
 40
0.0
  9
$USERR2
 40
0.0
  9
$USERR3
 40
0.0
  9
$USERR4
 40
0.0
  9
$USERR5
 40
0.0
  9
$WORLDVIEW
 70
     1
  9
$SHADEDGE
 70
     3
  9
$SHADEDIF
 70
    70
  9
$TILEMODE
 70
     1
  9
$MAXACTVP
 70
    64
  9
$PLIMCHECK
 70
     0
  9
$PEXTMIN
 10
1.000000000000000E+20
 20
1.000000000000000E+20
 30
1.000000000000000E+20
  9
$PEXTMAX
 10
-1.000000000000000E+20
 20
-1.000000000000000E+20
 30
-1.000000000000000E+20
  9
$PLIMMIN
 10
0.0
 20
0.0
  9
$PLIMMAX
 10
0.0
 20
0.0
  9
$UNITMODE
 70
     0
  9
$VISRETAIN
 70
     1
  9
$PLINEGEN
 70
     0
  9
$PSLTSCALE
 70
     1
  0
ENDSEC
  0
SECTION
  2
TABLES
  0
TABLE
  2
VPORT
 70
     1
  0
VPORT
  2
*ACTIVE
 70
     0
 10
0.0
 20
0.0
 11
1.0
 21
1.0
 12
125.9435596152454
 22
31.20607913972558
 13
0.0
 23
0.0
 14
0.1
 24
0.1
 15
0.1
 25
0.1
 16
0.0
 26
0.0
 36
1.0
 17
-134.1869158878503
 27
0.0
 37
0.0
 40
129.1407715144505
 41
2.753315649867374
 42
50.0
 43
0.0
 44
0.0
 50
0.0
 51
0.0
 71
    16
 72
  1000
 73
     1
 74
     3
 75
     1
 76
     1
 77
     0
 78
     0
  0
ENDTAB
  0
TABLE
  2
LTYPE
 70
     1
  0
LTYPE
  2
CONTINUOUS
 70
     0
  3
Solid line
 72
    65
 73
     0
 40
0.0
  0
ENDTAB
  0
TABLE
  2
LAYER
 70
     2
  0
LAYER
  2
0
 70
     0
 62
     7
  6
CONTINUOUS
  0
LAYER
  2
DEFPOINTS
 70
     0
 62
     7
  6
CONTINUOUS
  0
ENDTAB
  0
TABLE
  2
STYLE
 70
     2
  0
STYLE
  2
STANDARD
 70
     0
 40
0.0
 41
1.0
 50
0.0
 71
     0
 42
2.5
  3
arial.ttf
  4

  0
STYLE
  2
ANNOTATIVE
 70
     0
 40
0.0
 41
1.0
 50
0.0
 71
     0
 42
2.5
  3
arial.ttf
  4

  0
ENDTAB
  0
TABLE
  2
VIEW
 70
     0
  0
ENDTAB
  0
TABLE
  2
UCS
 70
     0
  0
ENDTAB
  0
TABLE
  2
APPID
 70
     2
  0
APPID
  2
ACAD
 70
     0
  0
APPID
  2
ACADANNOTATIVE
 70
     0
  0
ENDTAB
  0
TABLE
  2
DIMSTYLE
 70
     2
  0
DIMSTYLE
  2
ISO-25
 70
     0
  3

  4

  5

  6

  7

 40
1.0
 41
2.5
 42
0.625
 43
3.75
 44
1.25
 45
0.0
 46
0.0
 47
0.0
 48
0.0
140
2.5
141
2.5
142
0.0
143
0.03937007874016
144
1.0
145
0.0
146
1.0
147
0.625
 71
     0
 72
     0
 73
     0
 74
     0
 75
     0
 76
     0
 77
     1
 78
     8
170
     0
171
     3
172
     1
173
     0
174
     0
175
     0
176
     0
177
     0
178
     0
  0
DIMSTYLE
  2
ANNOTATIVE
 70
     0
  3

  4

  5

  6

  7

 40
0.0
 41
2.5
 42
0.625
 43
3.75
 44
1.25
 45
0.0
 46
0.0
 47
0.0
 48
0.0
140
2.5
141
2.5
142
0.0
143
0.03937007874016
144
1.0
145
0.0
146
1.0
147
0.625
 71
     0
 72
     0
 73
     0
 74
     0
 75
     0
 76
     0
 77
     1
 78
     8
170
     0
171
     3
172
     1
173
     0
174
     0
175
     0
176
     0
177
     0
178
     0
  0
ENDTAB
  0
ENDSEC
  0
SECTION
  2
BLOCKS
  0
BLOCK
  8
0
  2
$MODEL_SPACE
 70
     0
 10
0.0
 20
0.0
 30
0.0
  3
$MODEL_SPACE
  1

  0
ENDBLK
  5
21
  8
0
  0
BLOCK
 67
     1
  8
0
  2
$PAPER_SPACE
 70
     0
 10
0.0
 20
0.0
 30
0.0
  3
$PAPER_SPACE
  1

  0
ENDBLK
  5
1D
 67
     1
  8
0
  0
BLOCK
  8
0
  2
*D0
 70
     1
 10
0.0
 20
0.0
 30
0.0
  3
*D0
  1

  0
LINE
  5
49B
  8
0
 62
     0
 10
9.0
 20
31.62500000000001
 30
0.0
 11
9.0
 21
66.35000000000002
 31
0.0
  0
LINE
  5
49C
  8
0
 62
     0
 10
53.49999999999996
 20
31.62500000000001
 30
0.0
 11
53.49999999999996
 21
66.35000000000002
 31
0.0
  0
LINE
  5
49D
  8
0
 62
     0
 10
11.5
 20
65.10000000000002
 30
0.0
 11
50.99999999999996
 21
65.10000000000002
 31
0.0
  0
SOLID
  5
49E
  8
0
 62
     0
 10
11.5
 20
65.5166666666667
 30
0.0
 11
11.5
 21
64.68333333333335
 31
0.0
 12
9.0
 22
65.10000000000002
 32
0.0
 13
9.0
 23
65.10000000000002
 33
0.0
  0
SOLID
  5
49F
  8
0
 62
     0
 10
50.99999999999996
 20
64.68333333333335
 30
0.0
 11
50.99999999999996
 21
65.5166666666667
 31
0.0
 12
53.49999999999996
 22
65.10000000000002
 32
0.0
 13
53.49999999999996
 23
65.10000000000002
 33
0.0
  0
TEXT
  5
4A0
  8
0
  6
CONTINUOUS
 62
     0
 10
27.90249999999998
 20
65.76750000000001
 30
0.0
 40
2.5
  1
44.5
  0
POINT
  5
4A1
  8
DEFPOINTS
 62
     0
 10
9.0
 20
31.00000000000001
 30
0.0
  0
POINT
  5
4A2
  8
DEFPOINTS
 62
     0
 10
53.49999999999996
 20
31.00000000000001
 30
0.0
  0
POINT
  5
4A3
  8
DEFPOINTS
 62
     0
 10
53.49999999999996
 20
65.10000000000002
 30
0.0
  0
ENDBLK
  5
49A
  8
0
  0
BLOCK
  8
0
  2
*D1
 70
     1
 10
0.0
 20
0.0
 30
0.0
  3
*D1
  1

  0
LINE
  5
4AA
  8
0
 62
     0
 10
31.24999999999998
 20
29.62500000000001
 30
0.0
 11
31.24999999999998
 21
73.95
 31
0.0
  0
LINE
  5
4AB
  8
0
 62
     0
 10
9.0
 20
29.62500000000001
 30
0.0
 11
9.0
 21
73.95
 31
0.0
  0
LINE
  5
4AC
  8
0
 62
     0
 10
28.74999999999998
 20
72.7
 30
0.0
 11
11.5
 21
72.7
 31
0.0
  0
SOLID
  5
4AD
  8
0
 62
     0
 10
28.74999999999998
 20
72.28333333333333
 30
0.0
 11
28.74999999999998
 21
73.11666666666667
 31
0.0
 12
31.24999999999998
 22
72.7
 32
0.0
 13
31.24999999999998
 23
72.7
 33
0.0
  0
SOLID
  5
4AE
  8
0
 62
     0
 10
11.5
 20
73.11666666666667
 30
0.0
 11
11.5
 21
72.28333333333333
 31
0.0
 12
9.0
 22
72.7
 32
0.0
 13
9.0
 23
72.7
 33
0.0
  0
TEXT
  5
4AF
  8
0
  6
CONTINUOUS
 62
     0
 10
15.77874999999999
 20
73.3725
 30
0.0
 40
2.5
  1
22.25
  0
POINT
  5
4B0
  8
DEFPOINTS
 62
     0
 10
31.24999999999998
 20
29.00000000000001
 30
0.0
  0
POINT
  5
4B1
  8
DEFPOINTS
 62
     0
 10
9.0
 20
29.00000000000001
 30
0.0
  0
POINT
  5
4B2
  8
DEFPOINTS
 62
     0
 10
9.0
 20
72.7
 30
0.0
  0
ENDBLK
  5
4A9
  8
0
  0
BLOCK
  8
0
  2
*D2
 70
     1
 10
0.0
 20
0.0
 30
0.0
  3
*D2
  1

  0
LINE
  5
4B9
  8
0
 62
     0
 10
1.097930474921704
 20
31.62499657364338
 30
0.0
 11
0.9294007777037284
 21
82.52096513347175
 31
0.0
  0
LINE
  5
4BA
  8
0
 62
     0
 10
61.49793047492171
 20
31.82499657364338
 30
0.0
 11
61.32940077770373
 21
82.72096513347175
 31
0.0
  0
LINE
  5
4BB
  8
0
 62
     0
 10
3.433526122433781
 20
81.27925008649818
 30
0.0
 11
58.83355353328684
 21
81.46269388587186
 31
0.0
  0
SOLID
  5
4BC
  8
0
 62
     0
 10
3.432146439048254
 20
81.69591446892709
 30
0.0
 11
3.434905805819307
 21
80.86258570406928
 31
0.0
 12
0.9335398278603071
 22
81.27097198618502
 32
0.0
 13
0.9335398278603071
 23
81.27097198618502
 33
0.0
  0
SOLID
  5
4BD
  8
0
 62
     0
 10
58.83493321667237
 20
81.04602950344295
 30
0.0
 11
58.83217384990131
 21
81.87935826830076
 31
0.0
 12
61.33353982786031
 22
81.47097198618502
 32
0.0
 13
61.33353982786031
 23
81.47097198618502
 33
0.0
  0
TEXT
  5
4BE
  8
0
  6
CONTINUOUS
 62
     0
 10
27.7550815280546
 20
82.03228872495237
 30
0.0
 40
2.5
  1
60.4
 50
0.1897204308253157
  0
POINT
  5
4BF
  8
DEFPOINTS
 62
     0
 10
1.099999999999993
 20
31.00000000000001
 30
0.0
  0
POINT
  5
4C0
  8
DEFPOINTS
 62
     0
 10
61.5
 20
31.20000000000001
 30
0.0
  0
POINT
  5
4C1
  8
DEFPOINTS
 62
     0
 10
61.33353982786031
 20
81.47097198618502
 30
0.0
  0
ENDBLK
  5
4B8
  8
0
  0
BLOCK
  8
0
  2
*D3
 70
     1
 10
0.0
 20
0.0
 30
0.0
  3
*D3
  1

  0
LINE
  5
4C8
  8
0
 62
     0
 10
31.87499999999998
 20
29.00000000000001
 30
0.0
 11
114.3207027850014
 21
28.99999999999992
 31
0.0
  0
LINE
  5
4C9
  8
0
 62
     0
 10
31.87499999999996
 20
15.0
 30
0.0
 11
114.3207027850014
 21
14.99999999999992
 31
0.0
  0
LINE
  5
4CA
  8
0
 62
     0
 10
113.0707027850014
 20
26.49999999999992
 30
0.0
 11
113.0707027850014
 21
17.49999999999992
 31
0.0
  0
SOLID
  5
4CB
  8
0
 62
     0
 10
113.487369451668
 20
26.49999999999992
 30
0.0
 11
112.6540361183347
 21
26.49999999999992
 31
0.0
 12
113.0707027850014
 22
28.99999999999992
 32
0.0
 13
113.0707027850014
 23
28.99999999999992
 33
0.0
  0
SOLID
  5
4CC
  8
0
 62
     0
 10
112.6540361183347
 20
17.49999999999992
 30
0.0
 11
113.487369451668
 21
17.49999999999992
 31
0.0
 12
113.0707027850014
 22
14.99999999999992
 32
0.0
 13
113.0707027850014
 23
14.99999999999992
 33
0.0
  0
TEXT
  5
4CD
  8
0
  6
CONTINUOUS
 62
     0
 10
112.4407027850014
 20
19.95374999999991
 30
0.0
 40
2.5
  1
14
 50
89.99999999999994
  0
POINT
  5
4CE
  8
DEFPOINTS
 62
     0
 10
31.24999999999998
 20
29.00000000000001
 30
0.0
  0
POINT
  5
4CF
  8
DEFPOINTS
 62
     0
 10
31.24999999999996
 20
15.0
 30
0.0
  0
POINT
  5
4D0
  8
DEFPOINTS
 62
     0
 10
113.0707027850014
 20
14.99999999999992
 30
0.0
  0
ENDBLK
  5
4C7
  8
0
  0
BLOCK
  8
0
  2
*D4
 70
     1
 10
0.0
 20
0.0
 30
0.0
  3
*D4
  1

  0
LINE
  5
4D7
  8
0
 62
     0
 10
41.24999999999996
 20
11.075
 30
0.0
 11
41.24999999999996
 21
-17.24999999999999
 31
0.0
  0
LINE
  5
4D8
  8
0
 62
     0
 10
21.24999999999996
 20
11.075
 30
0.0
 11
21.24999999999996
 21
-17.24999999999999
 31
0.0
  0
LINE
  5
4D9
  8
0
 62
     0
 10
38.74999999999996
 20
-15.99999999999999
 30
0.0
 11
23.74999999999996
 21
-15.99999999999999
 31
0.0
  0
SOLID
  5
4DA
  8
0
 62
     0
 10
38.74999999999996
 20
-16.41666666666666
 30
0.0
 11
38.74999999999996
 21
-15.58333333333333
 31
0.0
 12
41.24999999999996
 22
-15.99999999999999
 32
0.0
 13
41.24999999999996
 23
-15.99999999999999
 33
0.0
  0
SOLID
  5
4DB
  8
0
 62
     0
 10
23.74999999999996
 20
-15.58333333333333
 30
0.0
 11
23.74999999999996
 21
-16.41666666666666
 31
0.0
 12
21.24999999999996
 22
-15.99999999999999
 32
0.0
 13
21.24999999999996
 23
-15.99999999999999
 33
0.0
  0
TEXT
  5
4DC
  8
0
  6
CONTINUOUS
 62
     0
 10
29.34249999999997
 20
-15.32749999999999
 30
0.0
 40
2.5
  1
20
  0
POINT
  5
4DD
  8
DEFPOINTS
 62
     0
 10
41.24999999999996
 20
11.7
 30
0.0
  0
POINT
  5
4DE
  8
DEFPOINTS
 62
     0
 10
21.24999999999996
 20
11.7
 30
0.0
  0
POINT
  5
4DF
  8
DEFPOINTS
 62
     0
 10
21.24999999999996
 20
-15.99999999999999
 30
0.0
  0
ENDBLK
  5
4D6
  8
0
  0
BLOCK
  8
0
  2
*D5
 70
     1
 10
0.0
 20
0.0
 30
0.0
  3
*D5
  1

  0
LINE
  5
4E6
  8
0
 62
     0
 10
41.87499999999996
 20
15.00000000000001
 30
0.0
 11
89.14999999999999
 21
15.00000000000012
 31
0.0
  0
LINE
  5
4E7
  8
0
 62
     0
 10
41.87499999999997
 20
8.900000000000004
 30
0.0
 11
89.15
 21
8.900000000000114
 31
0.0
  0
LINE
  5
4E8
  8
0
 62
     0
 10
87.89999999999999
 20
15.00000000000012
 30
0.0
 11
87.9
 21
8.90000000000011
 31
0.0
  0
LINE
  5
4E9
  8
0
 62
     0
 10
87.89999999999999
 20
17.50000000000012
 30
0.0
 11
87.89999999999999
 21
20.00000000000012
 31
0.0
  0
LINE
  5
4EA
  8
0
 62
     0
 10
87.9
 20
6.40000000000011
 30
0.0
 11
87.9
 21
3.90000000000011
 31
0.0
  0
SOLID
  5
4EB
  8
0
 62
     0
 10
87.48333333333332
 20
17.50000000000012
 30
0.0
 11
88.31666666666666
 21
17.50000000000012
 31
0.0
 12
87.89999999999999
 22
15.00000000000012
 32
0.0
 13
87.89999999999999
 23
15.00000000000012
 33
0.0
  0
SOLID
  5
4EC
  8
0
 62
     0
 10
88.31666666666668
 20
6.400000000000111
 30
0.0
 11
87.48333333333333
 21
6.40000000000011
 31
0.0
 12
87.9
 22
8.90000000000011
 32
0.0
 13
87.9
 23
8.90000000000011
 33
0.0
  0
TEXT
  5
4ED
  8
0
  6
CONTINUOUS
 62
     0
 10
87.2275
 20
9.780000000000115
 30
0.0
 40
2.5
  1
6.1
 50
90.00000000000014
  0
POINT
  5
4EE
  8
DEFPOINTS
 62
     0
 10
41.24999999999996
 20
15.00000000000001
 30
0.0
  0
POINT
  5
6B5
  8
DEFPOINTS
 62
     0
 10
41.24999999999997
 20
8.900000000000002
 30
0.0
  0
POINT
  5
6B6
  8
DEFPOINTS
 62
     0
 10
87.9
 20
8.90000000000011
 30
0.0
  0
ENDBLK
  5
4E5
  8
0
  0
BLOCK
  8
0
  2
*D6
 70
     1
 10
0.0
 20
0.0
 30
0.0
  3
*D6
  1

  0
LINE
  5
528
  8
0
 62
     0
 10
3.475
 20
32.00000000000001
 30
0.0
 11
-2.25
 21
32.00000000000001
 31
0.0
  0
LINE
  5
529
  8
0
 62
     0
 10
3.475
 20
30.00000000000001
 30
0.0
 11
-2.25
 21
30.00000000000001
 31
0.0
  0
LINE
  5
52A
  8
0
 62
     0
 10
-1.0
 20
32.00000000000001
 30
0.0
 11
-1.0
 21
30.00000000000001
 31
0.0
  0
LINE
  5
52B
  8
0
 62
     0
 10
-1.0
 20
34.50000000000001
 30
0.0
 11
-1.0
 21
37.00000000000001
 31
0.0
  0
LINE
  5
52C
  8
0
 62
     0
 10
-1.0
 20
27.50000000000001
 30
0.0
 11
-1.0
 21
25.00000000000001
 31
0.0
  0
SOLID
  5
52D
  8
0
 62
     0
 10
-1.416666666666667
 20
34.50000000000001
 30
0.0
 11
-0.5833333333333333
 21
34.50000000000001
 31
0.0
 12
-1.0
 22
32.00000000000001
 32
0.0
 13
-1.0
 23
32.00000000000001
 33
0.0
  0
SOLID
  5
52E
  8
0
 62
     0
 10
-0.5833333333333333
 20
27.50000000000001
 30
0.0
 11
-1.416666666666667
 21
27.50000000000001
 31
0.0
 12
-1.0
 22
30.00000000000001
 32
0.0
 13
-1.0
 23
30.00000000000001
 33
0.0
  0
TEXT
  5
52F
  8
0
  6
CONTINUOUS
 62
     0
 10
-5.702500000000001
 20
30.07125000000001
 30
0.0
 40
2.5
  1
2
 50
90.0
  0
POINT
  5
530
  8
DEFPOINTS
 62
     0
 10
4.1
 20
32.00000000000001
 30
0.0
  0
POINT
  5
531
  8
DEFPOINTS
 62
     0
 10
4.1
 20
30.00000000000001
 30
0.0
  0
POINT
  5
532
  8
DEFPOINTS
 62
     0
 10
-1.0
 20
30.00000000000001
 30
0.0
  0
ENDBLK
  5
527
  8
0
  0
BLOCK
  8
0
  2
*D7
 70
     1
 10
0.0
 20
0.0
 30
0.0
  3
*D7
  1

  0
LINE
  5
54A
  8
0
 62
     0
 10
4.424999999999979
 20
32.5
 30
0.0
 11
-10.75
 21
32.5
 31
0.0
  0
LINE
  5
54B
  8
0
 62
     0
 10
4.424999999999979
 20
29.50000000000001
 30
0.0
 11
-10.75
 21
29.50000000000001
 31
0.0
  0
LINE
  5
54C
  8
0
 62
     0
 10
-9.500000000000004
 20
32.5
 30
0.0
 11
-9.500000000000004
 21
29.50000000000001
 31
0.0
  0
LINE
  5
54D
  8
0
 62
     0
 10
-9.500000000000004
 20
35.0
 30
0.0
 11
-9.500000000000004
 21
37.5
 31
0.0
  0
LINE
  5
54E
  8
0
 62
     0
 10
-9.500000000000004
 20
27.00000000000001
 30
0.0
 11
-9.500000000000004
 21
24.50000000000001
 31
0.0
  0
SOLID
  5
54F
  8
0
 62
     0
 10
-9.91666666666667
 20
35.0
 30
0.0
 11
-9.083333333333337
 21
35.0
 31
0.0
 12
-9.500000000000004
 22
32.5
 32
0.0
 13
-9.500000000000004
 23
32.5
 33
0.0
  0
SOLID
  5
550
  8
0
 62
     0
 10
-9.083333333333337
 20
27.00000000000001
 30
0.0
 11
-9.91666666666667
 21
27.00000000000001
 31
0.0
 12
-9.500000000000004
 22
29.50000000000001
 32
0.0
 13
-9.500000000000004
 23
29.50000000000001
 33
0.0
  0
TEXT
  5
551
  8
0
  6
CONTINUOUS
 62
     0
 10
-10.1725
 20
30.035
 30
0.0
 40
2.5
  1
3
 50
90.0
  0
POINT
  5
552
  8
DEFPOINTS
 62
     0
 10
5.049999999999979
 20
32.5
 30
0.0
  0
POINT
  5
553
  8
DEFPOINTS
 62
     0
 10
5.049999999999979
 20
29.50000000000001
 30
0.0
  0
POINT
  5
554
  8
DEFPOINTS
 62
     0
 10
-9.500000000000004
 20
29.50000000000001
 30
0.0
  0
ENDBLK
  5
549
  8
0
  0
BLOCK
  8
0
  2
*D8
 70
     1
 10
0.0
 20
0.0
 30
0.0
  3
*D8
  1

  0
LINE
  5
55B
  8
0
 62
     0
 10
3.475000000000001
 20
34.00000000000001
 30
0.0
 11
-17.65
 21
34.00000000000001
 31
0.0
  0
LINE
  5
55C
  8
0
 62
     0
 10
3.475
 20
28.0
 30
0.0
 11
-17.65
 21
28.00000000000001
 31
0.0
  0
LINE
  5
55D
  8
0
 62
     0
 10
-16.4
 20
34.00000000000001
 30
0.0
 11
-16.4
 21
28.00000000000001
 31
0.0
  0
LINE
  5
55E
  8
0
 62
     0
 10
-16.4
 20
36.50000000000001
 30
0.0
 11
-16.4
 21
39.00000000000001
 31
0.0
  0
LINE
  5
55F
  8
0
 62
     0
 10
-16.4
 20
25.50000000000001
 30
0.0
 11
-16.4
 21
23.00000000000001
 31
0.0
  0
SOLID
  5
560
  8
0
 62
     0
 10
-16.81666666666667
 20
36.50000000000001
 30
0.0
 11
-15.98333333333333
 21
36.50000000000001
 31
0.0
 12
-16.4
 22
34.00000000000001
 32
0.0
 13
-16.4
 23
34.00000000000001
 33
0.0
  0
SOLID
  5
561
  8
0
 62
     0
 10
-15.98333333333333
 20
25.50000000000001
 30
0.0
 11
-16.81666666666667
 21
25.50000000000001
 31
0.0
 12
-16.4
 22
28.00000000000001
 32
0.0
 13
-16.4
 23
28.00000000000001
 33
0.0
  0
TEXT
  5
562
  8
0
  6
CONTINUOUS
 62
     0
 10
-17.0725
 20
30.04375000000002
 30
0.0
 40
2.5
  1
6
 50
90.0
  0
POINT
  5
563
  8
DEFPOINTS
 62
     0
 10
4.100000000000001
 20
34.00000000000001
 30
0.0
  0
POINT
  5
564
  8
DEFPOINTS
 62
     0
 10
4.1
 20
28.0
 30
0.0
  0
POINT
  5
565
  8
DEFPOINTS
 62
     0
 10
-16.4
 20
28.00000000000001
 30
0.0
  0
ENDBLK
  5
55A
  8
0
  0
BLOCK
  8
0
  2
*D9
 70
     1
 10
0.0
 20
0.0
 30
0.0
  3
*D9
  1

  0
LINE
  5
56C
  8
0
 62
     0
 10
53.49999999999996
 20
34.62500000000001
 30
0.0
 11
53.49999999999993
 21
39.45
 31
0.0
  0
LINE
  5
56D
  8
0
 62
     0
 10
54.99999999999999
 20
34.62500000000001
 30
0.0
 11
54.99999999999996
 21
39.45
 31
0.0
  0
LINE
  5
56E
  8
0
 62
     0
 10
53.49999999999994
 20
38.2
 30
0.0
 11
54.99999999999997
 21
38.2
 31
0.0
  0
LINE
  5
56F
  8
0
 62
     0
 10
50.99999999999994
 20
38.19999999999998
 30
0.0
 11
48.49999999999994
 21
38.19999999999997
 31
0.0
  0
LINE
  5
570
  8
0
 62
     0
 10
57.49999999999997
 20
38.20000000000002
 30
0.0
 11
59.99999999999997
 21
38.20000000000003
 31
0.0
  0
SOLID
  5
571
  8
0
 62
     0
 10
50.99999999999994
 20
37.78333333333332
 30
0.0
 11
50.99999999999994
 21
38.61666666666665
 31
0.0
 12
53.49999999999994
 22
38.2
 32
0.0
 13
53.49999999999994
 23
38.2
 33
0.0
  0
SOLID
  5
572
  8
0
 62
     0
 10
57.49999999999997
 20
38.61666666666668
 30
0.0
 11
57.49999999999997
 21
37.78333333333335
 31
0.0
 12
54.99999999999997
 22
38.2
 32
0.0
 13
54.99999999999997
 23
38.2
 33
0.0
  0
TEXT
  5
573
  8
0
  6
CONTINUOUS
 62
     0
 10
51.70499999999994
 20
40.435
 30
0.0
 40
2.5
  1
1.5
 50
0.0000000000002714
  0
POINT
  5
574
  8
DEFPOINTS
 62
     0
 10
53.49999999999996
 20
34.00000000000001
 30
0.0
  0
POINT
  5
575
  8
DEFPOINTS
 62
     0
 10
54.99999999999999
 20
34.00000000000001
 30
0.0
  0
POINT
  5
576
  8
DEFPOINTS
 62
     0
 10
54.99999999999997
 20
38.2
 30
0.0
  0
ENDBLK
  5
56B
  8
0
  0
BLOCK
  8
0
  2
*D10
 70
     1
 10
0.0
 20
0.0
 30
0.0
  3
*D10
  1

  0
LINE
  5
57D
  8
0
 62
     0
 10
38.87500000000001
 20
7.940000000000002
 30
0.0
 11
60.95000000000005
 21
7.939999999999848
 31
0.0
  0
LINE
  5
57E
  8
0
 62
     0
 10
38.87499999999996
 20
1.839999999999995
 30
0.0
 11
60.95
 21
1.839999999999841
 31
0.0
  0
LINE
  5
57F
  8
0
 62
     0
 10
59.70000000000005
 20
7.939999999999857
 30
0.0
 11
59.7
 21
1.83999999999985
 31
0.0
  0
LINE
  5
580
  8
0
 62
     0
 10
59.70000000000006
 20
10.43999999999986
 30
0.0
 11
59.70000000000007
 21
12.93999999999986
 31
0.0
  0
LINE
  5
581
  8
0
 62
     0
 10
59.69999999999999
 20
-0.6600000000001505
 30
0.0
 11
59.69999999999997
 21
-3.16000000000015
 31
0.0
  0
SOLID
  5
582
  8
0
 62
     0
 10
59.2833333333334
 20
10.43999999999986
 30
0.0
 11
60.11666666666672
 21
10.43999999999985
 31
0.0
 12
59.70000000000005
 22
7.939999999999857
 32
0.0
 13
59.70000000000005
 23
7.939999999999857
 33
0.0
  0
SOLID
  5
583
  8
0
 62
     0
 10
60.11666666666665
 20
-0.6600000000001534
 30
0.0
 11
59.28333333333332
 21
-0.6600000000001476
 31
0.0
 12
59.7
 22
1.83999999999985
 32
0.0
 13
59.7
 23
1.83999999999985
 33
0.0
  0
TEXT
  5
584
  8
0
  6
CONTINUOUS
 62
     0
 10
59.02750000000001
 20
2.719999999999857
 30
0.0
 40
2.5
  1
6.1
 50
89.99999999999962
  0
POINT
  5
585
  8
DEFPOINTS
 62
     0
 10
38.25000000000001
 20
7.940000000000007
 30
0.0
  0
POINT
  5
586
  8
DEFPOINTS
 62
     0
 10
38.24999999999996
 20
1.839999999999999
 30
0.0
  0
POINT
  5
587
  8
DEFPOINTS
 62
     0
 10
59.7
 20
1.83999999999985
 30
0.0
  0
ENDBLK
  5
57C
  8
0
  0
BLOCK
  8
0
  2
*D11
 70
     1
 10
0.0
 20
0.0
 30
0.0
  3
*D11
  1

  0
LINE
  5
58E
  8
0
 62
     0
 10
23.62500000000004
 20
7.970000000000006
 30
0.0
 11
12.64999999999998
 21
7.969999999999994
 31
0.0
  0
LINE
  5
58F
  8
0
 62
     0
 10
23.62500000000005
 20
1.869999999999999
 30
0.0
 11
12.64999999999999
 21
1.869999999999986
 31
0.0
  0
LINE
  5
590
  8
0
 62
     0
 10
13.89999999999998
 20
7.969999999999995
 30
0.0
 11
13.89999999999999
 21
1.869999999999988
 31
0.0
  0
LINE
  5
591
  8
0
 62
     0
 10
13.89999999999998
 20
10.47
 30
0.0
 11
13.89999999999998
 21
12.97
 31
0.0
  0
LINE
  5
592
  8
0
 62
     0
 10
13.9
 20
-0.6300000000000121
 30
0.0
 11
13.9
 21
-3.130000000000012
 31
0.0
  0
SOLID
  5
593
  8
0
 62
     0
 10
13.48333333333331
 20
10.47
 30
0.0
 11
14.31666666666665
 21
10.47
 31
0.0
 12
13.89999999999998
 22
7.969999999999995
 32
0.0
 13
13.89999999999998
 23
7.969999999999995
 33
0.0
  0
SOLID
  5
594
  8
0
 62
     0
 10
14.31666666666666
 20
-0.6300000000000117
 30
0.0
 11
13.48333333333333
 21
-0.6300000000000125
 31
0.0
 12
13.89999999999999
 22
1.869999999999988
 32
0.0
 13
13.89999999999999
 23
1.869999999999988
 33
0.0
  0
TEXT
  5
595
  8
0
  6
CONTINUOUS
 62
     0
 10
13.22749999999999
 20
2.749999999999992
 30
0.0
 40
2.5
  1
6.1
 50
90.00000000000009
  0
POINT
  5
596
  8
DEFPOINTS
 62
     0
 10
24.25000000000004
 20
7.970000000000007
 30
0.0
  0
POINT
  5
597
  8
DEFPOINTS
 62
     0
 10
24.25000000000005
 20
1.87
 30
0.0
  0
POINT
  5
598
  8
DEFPOINTS
 62
     0
 10
13.89999999999999
 20
1.869999999999988
 30
0.0
  0
ENDBLK
  5
58D
  8
0
  0
BLOCK
  8
0
  2
*D12
 70
     1
 10
0.0
 20
0.0
 30
0.0
  3
*D12
  1

  0
LINE
  5
59F
  8
0
 62
     0
 10
38.875
 20
5.100000000000001
 30
0.0
 11
51.75
 21
5.100000000000001
 31
0.0
  0
LINE
  5
5A0
  8
0
 62
     0
 10
38.875
 20
4.800000000000001
 30
0.0
 11
51.75
 21
4.800000000000001
 31
0.0
  0
LINE
  5
5A1
  8
0
 62
     0
 10
50.5
 20
5.100000000000001
 30
0.0
 11
50.5
 21
4.800000000000001
 31
0.0
  0
LINE
  5
5A2
  8
0
 62
     0
 10
50.5
 20
7.600000000000001
 30
0.0
 11
50.5
 21
10.1
 31
0.0
  0
LINE
  5
5A3
  8
0
 62
     0
 10
50.5
 20
2.300000000000001
 30
0.0
 11
50.5
 21
-0.1999999999999993
 31
0.0
  0
SOLID
  5
5A4
  8
0
 62
     0
 10
50.08333333333334
 20
7.600000000000001
 30
0.0
 11
50.91666666666666
 21
7.600000000000001
 31
0.0
 12
50.5
 22
5.100000000000001
 32
0.0
 13
50.5
 23
5.100000000000001
 33
0.0
  0
SOLID
  5
5A5
  8
0
 62
     0
 10
50.91666666666666
 20
2.300000000000001
 30
0.0
 11
50.08333333333334
 21
2.300000000000001
 31
0.0
 12
50.5
 22
4.800000000000001
 32
0.0
 13
50.5
 23
4.800000000000001
 33
0.0
  0
TEXT
  5
5A6
  8
0
  6
CONTINUOUS
 62
     0
 10
54.12875000000001
 20
2.53125
 30
0.0
 40
2.5
  1
0.3
 50
90.0
  0
POINT
  5
5A7
  8
DEFPOINTS
 62
     0
 10
38.25
 20
5.100000000000001
 30
0.0
  0
POINT
  5
5A8
  8
DEFPOINTS
 62
     0
 10
38.25
 20
4.800000000000001
 30
0.0
  0
POINT
  5
5A9
  8
DEFPOINTS
 62
     0
 10
50.5
 20
4.800000000000001
 30
0.0
  0
ENDBLK
  5
59E
  8
0
  0
BLOCK
  8
0
  2
*D13
 70
     1
 10
0.0
 20
0.0
 30
0.0
  3
*D13
  1

  0
LINE
  5
5B0
  8
0
 62
     0
 10
25.25000000000004
 20
4.325000000000001
 30
0.0
 11
25.25000000000004
 21
-3.15
 31
0.0
  0
LINE
  5
5B1
  8
0
 62
     0
 10
23.25000000000004
 20
4.325000000000001
 30
0.0
 11
23.25000000000004
 21
-3.15
 31
0.0
  0
LINE
  5
5B2
  8
0
 62
     0
 10
25.25000000000004
 20
-1.9
 30
0.0
 11
23.25000000000004
 21
-1.9
 31
0.0
  0
LINE
  5
5B3
  8
0
 62
     0
 10
27.75000000000004
 20
-1.9
 30
0.0
 11
30.25000000000004
 21
-1.9
 31
0.0
  0
LINE
  5
5B4
  8
0
 62
     0
 10
20.75000000000004
 20
-1.9
 30
0.0
 11
18.25000000000004
 21
-1.9
 31
0.0
  0
SOLID
  5
5B5
  8
0
 62
     0
 10
27.75000000000004
 20
-1.483333333333334
 30
0.0
 11
27.75000000000004
 21
-2.316666666666667
 31
0.0
 12
25.25000000000004
 22
-1.9
 32
0.0
 13
25.25000000000004
 23
-1.9
 33
0.0
  0
SOLID
  5
5B6
  8
0
 62
     0
 10
20.75000000000004
 20
-2.316666666666667
 30
0.0
 11
20.75000000000004
 21
-1.483333333333334
 31
0.0
 12
23.25000000000004
 22
-1.9
 32
0.0
 13
23.25000000000004
 23
-1.9
 33
0.0
  0
TEXT
  5
5B7
  8
0
  6
CONTINUOUS
 62
     0
 10
23.32125000000004
 20
-6.649999999999996
 30
0.0
 40
2.5
  1
2
  0
POINT
  5
5B8
  8
DEFPOINTS
 62
     0
 10
25.25000000000004
 20
4.950000000000001
 30
0.0
  0
POINT
  5
5B9
  8
DEFPOINTS
 62
     0
 10
23.25000000000004
 20
4.950000000000001
 30
0.0
  0
POINT
  5
5BA
  8
DEFPOINTS
 62
     0
 10
23.25000000000004
 20
-1.9
 30
0.0
  0
ENDBLK
  5
5AF
  8
0
  0
BLOCK
  8
0
  2
*D14
 70
     1
 10
0.0
 20
0.0
 30
0.0
  3
*D14
  1

  0
LINE
  5
5C1
  8
0
 62
     0
 10
37.24999999999996
 20
3.375000000000007
 30
0.0
 11
37.24999999999996
 21
-0.6499999999999999
 31
0.0
  0
LINE
  5
5C2
  8
0
 62
     0
 10
36.74999999999996
 20
3.375000000000007
 30
0.0
 11
36.74999999999996
 21
-0.6499999999999999
 31
0.0
  0
LINE
  5
5C3
  8
0
 62
     0
 10
37.24999999999996
 20
0.6000000000000001
 30
0.0
 11
36.74999999999996
 21
0.6000000000000001
 31
0.0
  0
LINE
  5
5C4
  8
0
 62
     0
 10
39.74999999999996
 20
0.6000000000000001
 30
0.0
 11
42.24999999999996
 21
0.6000000000000001
 31
0.0
  0
LINE
  5
5C5
  8
0
 62
     0
 10
34.24999999999996
 20
0.6000000000000001
 30
0.0
 11
31.74999999999996
 21
0.6000000000000001
 31
0.0
  0
SOLID
  5
5C6
  8
0
 62
     0
 10
39.74999999999996
 20
1.016666666666667
 30
0.0
 11
39.74999999999996
 21
0.1833333333333334
 31
0.0
 12
37.24999999999996
 22
0.6000000000000001
 32
0.0
 13
37.24999999999996
 23
0.6000000000000001
 33
0.0
  0
SOLID
  5
5C7
  8
0
 62
     0
 10
34.24999999999996
 20
0.1833333333333334
 30
0.0
 11
34.24999999999996
 21
1.016666666666667
 31
0.0
 12
36.74999999999996
 22
0.6000000000000001
 32
0.0
 13
36.74999999999996
 23
0.6000000000000001
 33
0.0
  0
TEXT
  5
5C8
  8
0
  6
CONTINUOUS
 62
     0
 10
34.57249999999996
 20
-3.328749999999999
 30
0.0
 40
2.5
  1
0.5
  0
POINT
  5
5C9
  8
DEFPOINTS
 62
     0
 10
37.24999999999996
 20
4.000000000000007
 30
0.0
  0
POINT
  5
5CA
  8
DEFPOINTS
 62
     0
 10
36.74999999999996
 20
4.000000000000007
 30
0.0
  0
POINT
  5
5CB
  8
DEFPOINTS
 62
     0
 10
36.74999999999996
 20
0.6000000000000001
 30
0.0
  0
ENDBLK
  5
5C0
  8
0
  0
BLOCK
  8
0
  2
*D15
 70
     1
 10
0.0
 20
0.0
 30
0.0
  3
*D15
  1

  0
LINE
  5
6E0
  8
0
 62
     0
 10
40.625
 20
8.9
 30
0.0
 11
70.3700341140893
 21
8.899999999999999
 31
0.0
  0
LINE
  5
6E1
  8
0
 62
     0
 10
40.625
 20
8.4
 30
0.0
 11
70.3700341140893
 21
8.399999999999999
 31
0.0
  0
LINE
  5
6E2
  8
0
 62
     0
 10
69.1200341140893
 20
8.899999999999999
 30
0.0
 11
69.1200341140893
 21
8.399999999999999
 31
0.0
  0
LINE
  5
6E3
  8
0
 62
     0
 10
69.1200341140893
 20
11.4
 30
0.0
 11
69.1200341140893
 21
13.9
 31
0.0
  0
LINE
  5
6E4
  8
0
 62
     0
 10
69.1200341140893
 20
5.899999999999999
 30
0.0
 11
69.1200341140893
 21
3.399999999999999
 31
0.0
  0
SOLID
  5
6E5
  8
0
 62
     0
 10
68.70336744742262
 20
11.4
 30
0.0
 11
69.53670078075596
 21
11.4
 31
0.0
 12
69.1200341140893
 22
8.899999999999999
 32
0.0
 13
69.1200341140893
 23
8.899999999999999
 33
0.0
  0
SOLID
  5
6E6
  8
0
 62
     0
 10
69.53670078075596
 20
5.899999999999999
 30
0.0
 11
68.70336744742262
 21
5.899999999999999
 31
0.0
 12
69.1200341140893
 22
8.399999999999999
 32
0.0
 13
69.1200341140893
 23
8.399999999999999
 33
0.0
  0
TEXT
  5
6E7
  8
0
  6
CONTINUOUS
 62
     0
 10
76.36503411408928
 20
6.222499999999997
 30
0.0
 40
2.5
  1
0.5
 50
90.0
  0
POINT
  5
6E8
  8
DEFPOINTS
 62
     0
 10
40.0
 20
8.9
 30
0.0
  0
POINT
  5
6E9
  8
DEFPOINTS
 62
     0
 10
40.0
 20
8.4
 30
0.0
  0
POINT
  5
6EA
  8
DEFPOINTS
 62
     0
 10
69.1200341140893
 20
8.399999999999999
 30
0.0
  0
ENDBLK
  5
6DF
  8
0
  0
ENDSEC
  0
SECTION
  2
ENTITIES
  0
CIRCLE
  5
241
  8
0
 10
31.29999999999995
 20
31.20000000000001
 30
0.0
 40
30.20000000000005
  0
CIRCLE
  5
244
  8
0
 10
4.100000000000001
 20
31.00000000000001
 30
0.0
 40
3.000000000000007
  0
POLYLINE
  5
26D
  8
0
 66
     1
 10
0.0
 20
0.0
 30
0.0
 70
     1
  0
VERTEX
  5
6F2
  8
0
 10
9.0
 20
33.00000000000001
 30
0.0
  0
VERTEX
  5
6F3
  8
0
 10
9.0
 20
29.00000000000001
 30
0.0
  0
VERTEX
  5
6F4
  8
0
 10
53.49999999999996
 20
29.00000000000001
 30
0.0
  0
VERTEX
  5
6F5
  8
0
 10
53.49999999999996
 20
33.00000000000001
 30
0.0
  0
SEQEND
  5
742
  8
0
  0
POLYLINE
  5
26E
  8
0
 66
     1
 10
0.0
 20
0.0
 30
0.0
 70
     1
  0
VERTEX
  5
6F6
  8
0
 10
7.6
 20
34.0
 30
0.0
  0
VERTEX
  5
6F7
  8
0
 10
7.6
 20
28.0
 30
0.0
  0
VERTEX
  5
6F8
  8
0
 10
9.0
 20
28.00000000000001
 30
0.0
  0
VERTEX
  5
6F9
  8
0
 10
9.0
 20
34.00000000000001
 30
0.0
  0
SEQEND
  5
743
  8
0
  0
POLYLINE
  5
295
  8
0
 66
     1
 10
0.0
 20
0.0
 30
0.0
 70
     1
  0
VERTEX
  5
6FA
  8
0
 10
53.49999999999996
 20
34.00000000000001
 30
0.0
  0
VERTEX
  5
6FB
  8
0
 10
53.49999999999996
 20
28.00000000000001
 30
0.0
  0
VERTEX
  5
6FC
  8
0
 10
54.99999999999999
 20
28.00000000000001
 30
0.0
  0
VERTEX
  5
6FD
  8
0
 10
54.99999999999999
 20
34.00000000000001
 30
0.0
  0
SEQEND
  5
744
  8
0
  0
POLYLINE
  5
297
  8
0
 66
     1
 10
0.0
 20
0.0
 30
0.0
 70
     1
  0
VERTEX
  5
6FE
  8
0
 10
29.24999999999997
 20
29.00000000000001
 30
0.0
  0
VERTEX
  5
6FF
  8
0
 10
29.24999999999996
 20
15.0
 30
0.0
  0
VERTEX
  5
700
  8
0
 10
33.24999999999997
 20
15.0
 30
0.0
  0
VERTEX
  5
701
  8
0
 10
33.24999999999999
 20
29.00000000000001
 30
0.0
  0
SEQEND
  5
745
  8
0
  0
POLYLINE
  5
298
  8
0
 66
     1
 10
0.0
 20
0.0
 30
0.0
 70
     1
  0
VERTEX
  5
702
  8
0
 10
21.24999999999996
 20
15.00000000000001
 30
0.0
  0
VERTEX
  5
703
  8
0
 10
21.24999999999997
 20
8.899999999999999
 30
0.0
  0
VERTEX
  5
704
  8
0
 10
41.24999999999997
 20
8.899999999999999
 30
0.0
  0
VERTEX
  5
705
  8
0
 10
41.24999999999996
 20
15.00000000000001
 30
0.0
  0
SEQEND
  5
746
  8
0
  0
CIRCLE
  5
2C0
  8
0
 10
58.49999999999996
 20
31.00000000000001
 30
0.0
 40
3.000000000000007
  0
POLYLINE
  5
2C5
  8
0
 66
     1
 10
0.0
 20
0.0
 30
0.0
 70
     1
  0
VERTEX
  5
706
  8
0
 10
39.24999999999996
 20
8.000000000000007
 30
0.0
  0
VERTEX
  5
707
  8
0
 10
39.24999999999996
 20
8.000000000000007
 30
0.0
  0
VERTEX
  5
708
  8
0
 10
39.24999999999996
 20
8.000000000000007
 30
0.0
  0
VERTEX
  5
709
  8
0
 10
39.24999999999996
 20
8.000000000000007
 30
0.0
  0
SEQEND
  5
747
  8
0
  0
POLYLINE
  5
2C7
  8
0
 66
     1
 10
0.0
 20
0.0
 30
0.0
 70
     1
  0
VERTEX
  5
70A
  8
0
 10
25.24999999999996
 20
8.400000000000002
 30
0.0
  0
VERTEX
  5
70B
  8
0
 10
25.24999999999996
 20
4.000000000000007
 30
0.0
  0
VERTEX
  5
70C
  8
0
 10
25.74999999999996
 20
4.000000000000007
 30
0.0
  0
VERTEX
  5
70D
  8
0
 10
25.74999999999996
 20
8.400000000000002
 30
0.0
  0
SEQEND
  5
748
  8
0
  0
POLYLINE
  5
2C8
  8
0
 66
     1
 10
0.0
 20
0.0
 30
0.0
 70
     1
  0
VERTEX
  5
70E
  8
0
 10
22.74999999999996
 20
8.400000000000002
 30
0.0
  0
VERTEX
  5
70F
  8
0
 10
22.74999999999996
 20
4.000000000000007
 30
0.0
  0
VERTEX
  5
710
  8
0
 10
23.24999999999996
 20
4.000000000000007
 30
0.0
  0
VERTEX
  5
711
  8
0
 10
23.24999999999996
 20
8.400000000000002
 30
0.0
  0
SEQEND
  5
749
  8
0
  0
POLYLINE
  5
2F1
  8
0
 66
     1
 10
0.0
 20
0.0
 30
0.0
 70
     1
  0
VERTEX
  5
712
  8
0
 10
37.25
 20
5.100000000000001
 30
0.0
  0
VERTEX
  5
713
  8
0
 10
37.25
 20
4.800000000000001
 30
0.0
  0
VERTEX
  5
714
  8
0
 10
39.25
 20
4.800000000000001
 30
0.0
  0
VERTEX
  5
715
  8
0
 10
39.25
 20
5.100000000000001
 30
0.0
  0
SEQEND
  5
74A
  8
0
  0
POLYLINE
  5
364
  8
0
 66
     1
 10
0.0
 20
0.0
 30
0.0
 70
     1
  0
VERTEX
  5
716
  8
0
 10
36.74999999999996
 20
8.400000000000002
 30
0.0
  0
VERTEX
  5
717
  8
0
 10
36.74999999999996
 20
4.000000000000007
 30
0.0
  0
VERTEX
  5
718
  8
0
 10
37.24999999999996
 20
4.000000000000007
 30
0.0
  0
VERTEX
  5
719
  8
0
 10
37.24999999999996
 20
8.400000000000002
 30
0.0
  0
SEQEND
  5
74B
  8
0
  0
POLYLINE
  5
38B
  8
0
 66
     1
 10
0.0
 20
0.0
 30
0.0
 70
     1
  0
VERTEX
  5
71A
  8
0
 10
39.24999999999996
 20
8.4
 30
0.0
  0
VERTEX
  5
71B
  8
0
 10
39.24999999999996
 20
4.000000000000007
 30
0.0
  0
VERTEX
  5
71C
  8
0
 10
39.74999999999996
 20
4.000000000000007
 30
0.0
  0
VERTEX
  5
71D
  8
0
 10
39.74999999999996
 20
8.4
 30
0.0
  0
SEQEND
  5
74C
  8
0
  0
POLYLINE
  5
38C
  8
0
 66
     1
 10
0.0
 20
0.0
 30
0.0
 70
     1
  0
VERTEX
  5
71E
  8
0
 10
7.6
 20
32.5
 30
0.0
  0
VERTEX
  5
71F
  8
0
 10
7.6
 20
29.5
 30
0.0
  0
VERTEX
  5
720
  8
0
 10
2.499999999999957
 20
29.50000000000001
 30
0.0
  0
VERTEX
  5
721
  8
0
 10
2.499999999999957
 20
32.50000000000001
 30
0.0
  0
SEQEND
  5
74D
  8
0
  0
CIRCLE
  5
38D
  8
0
 10
4.1
 20
31.00000000000001
 30
0.0
 40
1.0
  0
POLYLINE
  5
3B5
  8
0
 66
     1
 10
0.0
 20
0.0
 30
0.0
 70
     1
  0
VERTEX
  5
722
  8
0
 10
60.49999999999996
 20
32.50000000000001
 30
0.0
  0
VERTEX
  5
723
  8
0
 10
60.49999999999996
 20
29.50000000000001
 30
0.0
  0
VERTEX
  5
724
  8
0
 10
54.99999999999999
 20
29.50000000000001
 30
0.0
  0
VERTEX
  5
725
  8
0
 10
54.99999999999999
 20
32.50000000000001
 30
0.0
  0
SEQEND
  5
74E
  8
0
  0
CIRCLE
  5
3B6
  8
0
 10
58.49999999999996
 20
31.00000000000001
 30
0.0
 40
1.0
  0
POLYLINE
  5
3ED
  8
0
 66
     1
 10
0.0
 20
0.0
 30
0.0
 70
     1
  0
VERTEX
  5
726
  8
0
 10
37.24999999999996
 20
6.940000000000002
 30
0.0
  0
VERTEX
  5
727
  8
0
 10
37.24999999999998
 20
2.839999999999996
 30
0.0
 42
0.4142135623730941
  0
VERTEX
  5
728
  8
0
 10
38.24999999999997
 20
1.84
 30
0.0
  0
VERTEX
  5
729
  8
0
 10
38.25000000000001
 20
1.84
 30
0.0
 42
0.4142135623730962
  0
VERTEX
  5
72A
  8
0
 10
39.25000000000002
 20
2.840000000000003
 30
0.0
  0
VERTEX
  5
72B
  8
0
 10
39.25000000000001
 20
6.940000000000011
 30
0.0
 42
0.4142135623730939
  0
VERTEX
  5
72C
  8
0
 10
38.25000000000001
 20
7.940000000000007
 30
0.0
  0
VERTEX
  5
72D
  8
0
 10
38.24999999999996
 20
7.940000000000007
 30
0.0
 42
0.4142135623730964
  0
SEQEND
  5
74F
  8
0
  0
POLYLINE
  5
491
  8
0
 66
     1
 10
0.0
 20
0.0
 30
0.0
 70
     1
  0
VERTEX
  5
72E
  8
0
 10
23.25
 20
6.970000000000002
 30
0.0
  0
VERTEX
  5
72F
  8
0
 10
23.25000000000001
 20
2.869999999999997
 30
0.0
 42
0.4142135623730941
  0
VERTEX
  5
730
  8
0
 10
24.25000000000001
 20
1.87
 30
0.0
  0
VERTEX
  5
731
  8
0
 10
24.25000000000005
 20
1.87
 30
0.0
 42
0.4142135623730962
  0
VERTEX
  5
732
  8
0
 10
25.25000000000006
 20
2.870000000000004
 30
0.0
  0
VERTEX
  5
733
  8
0
 10
25.25000000000004
 20
6.970000000000011
 30
0.0
 42
0.4142135623730939
  0
VERTEX
  5
734
  8
0
 10
24.25000000000004
 20
7.970000000000007
 30
0.0
  0
VERTEX
  5
735
  8
0
 10
24.25
 20
7.970000000000007
 30
0.0
 42
0.4142135623730964
  0
SEQEND
  5
750
  8
0
  0
POLYLINE
  5
492
  8
0
 66
     1
 10
0.0
 20
0.0
 30
0.0
 70
     1
  0
VERTEX
  5
736
  8
0
 10
23.25000000000004
 20
5.100000000000001
 30
0.0
  0
VERTEX
  5
737
  8
0
 10
23.25000000000004
 20
4.800000000000001
 30
0.0
  0
VERTEX
  5
738
  8
0
 10
25.25000000000004
 20
4.800000000000001
 30
0.0
  0
VERTEX
  5
739
  8
0
 10
25.25000000000004
 20
5.100000000000001
 30
0.0
  0
SEQEND
  5
751
  8
0
  0
DIMENSION
  5
495
  8
0
  2
*D0
 10
53.49999999999996
 20
65.10000000000002
 30
0.0
 11
31.24999999999998
 21
66.99625000000002
 31
0.0
 70
    33
  3
ISO-25
 13
9.0
 23
31.00000000000001
 33
0.0
 14
53.49999999999996
 24
31.00000000000001
 34
0.0
1001
ACAD
1000
DSTYLE
1002
{
1070
   287
1070
     5
1070
   144
1040
1.0
1070
   271
1070
     3
1070
   272
1070
     3
1070
   279
1070
     2
1002
}
  0
DIMENSION
  5
4A4
  8
0
  2
*D1
 10
9.0
 20
72.7
 30
0.0
 11
20.12499999999999
 21
74.60125000000001
 31
0.0
 70
    33
  3
ISO-25
 13
31.24999999999998
 23
29.00000000000001
 33
0.0
 14
9.0
 24
29.00000000000001
 34
0.0
1001
ACAD
1000
DSTYLE
1002
{
1070
   287
1070
     5
1070
   144
1040
1.0
1070
   271
1070
     3
1070
   272
1070
     3
1070
   279
1070
     2
1002
}
  0
DIMENSION
  5
4B3
  8
0
  2
*D2
 10
61.33353982786031
 20
81.47097198618502
 30
0.0
 11
31.12724433257215
 21
83.27221156320816
 31
0.0
 70
    33
  3
ISO-25
 13
1.099999999999993
 23
31.00000000000001
 33
0.0
 14
61.5
 24
31.20000000000001
 34
0.0
1001
ACAD
1000
DSTYLE
1002
{
1070
   287
1070
     5
1070
   144
1040
1.0
1070
   271
1070
     3
1070
   272
1070
     3
1070
   279
1070
     2
1002
}
  0
DIMENSION
  5
4C2
  8
0
  2
*D3
 10
113.0707027850014
 20
14.99999999999992
 30
0.0
 11
111.1907027850014
 21
21.99999999999993
 31
0.0
 70
    33
  3
ISO-25
 13
31.24999999999998
 23
29.00000000000001
 33
0.0
 14
31.24999999999996
 24
15.0
 34
0.0
1001
ACAD
1000
DSTYLE
1002
{
1070
   287
1070
     5
1070
   144
1040
1.0
1070
   271
1070
     3
1070
   272
1070
     3
1070
   279
1070
     2
1002
}
  0
DIMENSION
  5
4D1
  8
0
  2
*D4
 10
21.24999999999996
 20
-15.99999999999999
 30
0.0
 11
31.24999999999996
 21
-14.09875
 31
0.0
 70
    33
  3
ISO-25
 13
41.24999999999996
 23
11.7
 33
0.0
 14
21.24999999999996
 24
11.7
 34
0.0
1001
ACAD
1000
DSTYLE
1002
{
1070
   287
1070
     5
1070
   144
1040
1.0
1070
   271
1070
     3
1070
   272
1070
     3
1070
   279
1070
     2
1002
}
  0
DIMENSION
  5
4E0
  8
0
  2
*D5
 10
87.9
 20
8.90000000000011
 30
0.0
 11
85.99875
 21
11.95000000000011
 31
0.0
 70
    33
  3
ISO-25
 13
41.24999999999996
 23
15.00000000000001
 33
0.0
 14
41.24999999999997
 24
8.900000000000002
 34
0.0
1001
ACAD
1000
DSTYLE
1002
{
1070
   287
1070
     5
1070
   144
1040
1.0
1070
   271
1070
     3
1070
   272
1070
     3
1070
   279
1070
     2
1002
}
  0
DIMENSION
  5
522
  8
0
  2
*D6
 10
-1.0
 20
30.00000000000001
 30
0.0
 11
-6.952500000000002
 21
31.00000000000001
 31
0.0
 70
    33
  3
ISO-25
 13
4.1
 23
32.00000000000001
 33
0.0
 14
4.1
 24
30.00000000000001
 34
0.0
1001
ACAD
1000
DSTYLE
1002
{
1070
   287
1070
     5
1070
   144
1040
1.0
1070
   271
1070
     3
1070
   272
1070
     3
1070
   279
1070
     2
1002
}
  0
DIMENSION
  5
544
  8
0
  2
*D7
 10
-9.500000000000004
 20
29.50000000000001
 30
0.0
 11
-11.40125
 21
31.0
 31
0.0
 70
    33
  3
ISO-25
 13
5.049999999999979
 23
32.5
 33
0.0
 14
5.049999999999979
 24
29.50000000000001
 34
0.0
1001
ACAD
1000
DSTYLE
1002
{
1070
   287
1070
     5
1070
   144
1040
1.0
1070
   271
1070
     3
1070
   272
1070
     3
1070
   279
1070
     2
1002
}
  0
DIMENSION
  5
555
  8
0
  2
*D8
 10
-16.4
 20
28.00000000000001
 30
0.0
 11
-18.30125
 21
31.00000000000001
 31
0.0
 70
    33
  3
ISO-25
 13
4.100000000000001
 23
34.00000000000001
 33
0.0
 14
4.1
 24
28.0
 34
0.0
1001
ACAD
1000
DSTYLE
1002
{
1070
   287
1070
     5
1070
   144
1040
1.0
1070
   271
1070
     3
1070
   272
1070
     3
1070
   279
1070
     2
1002
}
  0
DIMENSION
  5
566
  8
0
  2
*D9
 10
54.99999999999997
 20
38.2
 30
0.0
 11
54.24999999999994
 21
41.66375
 31
0.0
 70
    33
  3
ISO-25
 13
53.49999999999996
 23
34.00000000000001
 33
0.0
 14
54.99999999999999
 24
34.00000000000001
 34
0.0
1001
ACAD
1000
DSTYLE
1002
{
1070
   287
1070
     5
1070
   144
1040
1.0
1070
   271
1070
     3
1070
   272
1070
     3
1070
   279
1070
     2
1002
}
  0
DIMENSION
  5
577
  8
0
  2
*D10
 10
59.7
 20
1.83999999999985
 30
0.0
 11
57.79875000000003
 21
4.889999999999866
 31
0.0
 70
    33
  3
ISO-25
 13
38.25000000000001
 23
7.940000000000007
 33
0.0
 14
38.24999999999996
 24
1.839999999999999
 34
0.0
1001
ACAD
1000
DSTYLE
1002
{
1070
   287
1070
     5
1070
   144
1040
1.0
1070
   271
1070
     3
1070
   272
1070
     3
1070
   279
1070
     2
1002
}
  0
DIMENSION
  5
588
  8
0
  2
*D11
 10
13.89999999999999
 20
1.869999999999988
 30
0.0
 11
11.99874999999999
 21
4.91999999999999
 31
0.0
 70
    33
  3
ISO-25
 13
24.25000000000004
 23
7.970000000000007
 33
0.0
 14
24.25000000000005
 24
1.87
 34
0.0
1001
ACAD
1000
DSTYLE
1002
{
1070
   287
1070
     5
1070
   144
1040
1.0
1070
   271
1070
     3
1070
   272
1070
     3
1070
   279
1070
     2
1002
}
  0
DIMENSION
  5
599
  8
0
  2
*D12
 10
50.5
 20
4.800000000000001
 30
0.0
 11
52.90000000000001
 21
4.95
 31
0.0
 70
   161
  3
ISO-25
 13
38.25
 23
5.100000000000001
 33
0.0
 14
38.25
 24
4.800000000000001
 34
0.0
1001
ACAD
1000
DSTYLE
1002
{
1070
   287
1070
     5
1070
   144
1040
1.0
1070
   271
1070
     3
1070
   272
1070
     3
1070
   279
1070
     2
1002
}
  0
DIMENSION
  5
5AA
  8
0
  2
*D13
 10
23.25000000000004
 20
-1.9
 30
0.0
 11
24.25000000000004
 21
-5.399999999999996
 31
0.0
 70
   161
  3
ISO-25
 13
25.25000000000004
 23
4.950000000000001
 33
0.0
 14
23.25000000000004
 24
4.950000000000001
 34
0.0
1001
ACAD
1000
DSTYLE
1002
{
1070
   287
1070
     5
1070
   144
1040
1.0
1070
   271
1070
     3
1070
   272
1070
     3
1070
   279
1070
     2
1002
}
  0
DIMENSION
  5
5BB
  8
0
  2
*D14
 10
36.74999999999996
 20
0.6000000000000001
 30
0.0
 11
36.99999999999996
 21
-2.1
 31
0.0
 70
   161
  3
ISO-25
 13
37.24999999999996
 23
4.000000000000007
 33
0.0
 14
36.74999999999996
 24
4.000000000000007
 34
0.0
1001
ACAD
1000
DSTYLE
1002
{
1070
   287
1070
     5
1070
   144
1040
1.0
1070
   271
1070
     3
1070
   272
1070
     3
1070
   279
1070
     2
1002
}
  0
POLYLINE
  5
6B1
  8
0
 66
     1
 10
0.0
 20
0.0
 30
0.0
 70
     1
  0
VERTEX
  5
73A
  8
0
 10
22.5
 20
8.9
 30
0.0
  0
VERTEX
  5
73B
  8
0
 10
22.5
 20
8.399999999999999
 30
0.0
  0
VERTEX
  5
73C
  8
0
 10
26.0
 20
8.399999999999999
 30
0.0
  0
VERTEX
  5
73D
  8
0
 10
26.0
 20
8.9
 30
0.0
  0
SEQEND
  5
752
  8
0
  0
POLYLINE
  5
6B2
  8
0
 66
     1
 10
0.0
 20
0.0
 30
0.0
 70
     1
  0
VERTEX
  5
73E
  8
0
 10
36.5
 20
8.4
 30
0.0
  0
VERTEX
  5
73F
  8
0
 10
36.5
 20
8.9
 30
0.0
  0
VERTEX
  5
740
  8
0
 10
40.0
 20
8.9
 30
0.0
  0
VERTEX
  5
741
  8
0
 10
40.0
 20
8.4
 30
0.0
  0
SEQEND
  5
753
  8
0
  0
DIMENSION
  5
6DA
  8
0
  2
*D15
 10
69.1200341140893
 20
8.399999999999999
 30
0.0
 11
75.13628411408929
 21
8.649999999999999
 31
0.0
 70
    32
  3
ISO-25
 13
40.0
 23
8.9
 33
0.0
 14
40.0
 24
8.4
 34
0.0
 50
90.0
1001
ACAD
1000
DSTYLE
1002
{
1070
   287
1070
     5
1070
   144
1040
1.0
1070
   271
1070
     3
1070
   272
1070
     3
1070
   279
1070
     2
1002
}
  0
ENDSEC
  0
EOF
