<?xml version="1.0" encoding="UTF-8" standalone="no"?>
<!-- Created with Inkscape (http://www.inkscape.org/) -->

<svg
   xmlns:dc="http://purl.org/dc/elements/1.1/"
   xmlns:cc="http://creativecommons.org/ns#"
   xmlns:rdf="http://www.w3.org/1999/02/22-rdf-syntax-ns#"
   xmlns:svg="http://www.w3.org/2000/svg"
   xmlns="http://www.w3.org/2000/svg"
   xmlns:sodipodi="http://sodipodi.sourceforge.net/DTD/sodipodi-0.dtd"
   xmlns:inkscape="http://www.inkscape.org/namespaces/inkscape"
   width="103mm"
   height="100mm"
   viewBox="0 0 364.96064 354.33071"
   id="svg2"
   version="1.1"
   inkscape:version="0.91 r13725"
   sodipodi:docname="100x100_v06.svg"
   inkscape:export-filename="C:\Users\Jörn\Documents\28__FabAcademy Preparation\1 Lecture\joern.kiwitt\images\LaserPrintCut.png"
   inkscape:export-xdpi="90"
   inkscape:export-ydpi="90">
  <defs
     id="defs4" />
  <sodipodi:namedview
     id="base"
     pagecolor="#ffffff"
     bordercolor="#666666"
     borderopacity="1.0"
     inkscape:pageopacity="0.0"
     inkscape:pageshadow="2"
     inkscape:zoom="1.4"
     inkscape:cx="30.917466"
     inkscape:cy="207.86179"
     inkscape:document-units="mm"
     inkscape:current-layer="layer1"
     showgrid="false"
     inkscape:window-width="1536"
     inkscape:window-height="801"
     inkscape:window-x="-8"
     inkscape:window-y="-8"
     inkscape:window-maximized="1" />
  <metadata
     id="metadata7">
    <rdf:RDF>
      <cc:Work
         rdf:about="">
        <dc:format>image/svg+xml</dc:format>
        <dc:type
           rdf:resource="http://purl.org/dc/dcmitype/StillImage" />
        <dc:title />
      </cc:Work>
    </rdf:RDF>
  </metadata>
  <g
     inkscape:groupmode="layer"
     id="layer3"
     inkscape:label="Außenkontur"
     style="display:inline">
    <path
       style="display:inline;opacity:1;fill:none;fill-opacity:1;stroke:#ff0000;stroke-width:0.35433071;stroke-linejoin:miter;stroke-miterlimit:4;stroke-dasharray:none;stroke-opacity:1"
       d="m 15.494141,13.830078 0,212.597652 141.732419,0 0,-212.597652 -141.732419,0 z"
       id="path4177" />
    <path
       style="display:inline;opacity:1;fill:none;fill-opacity:1;stroke:#00ff00;stroke-width:0.35433071;stroke-linejoin:miter;stroke-miterlimit:4;stroke-dasharray:none;stroke-opacity:1"
       d="m 22.154297,20.759766 17.716797,0 0,25.603515 -17.716797,0 0,-25.603515 z"
       id="path4175" />
    <path
       style="display:inline;opacity:1;fill:none;fill-opacity:1;stroke:#00ff00;stroke-width:0.35433071;stroke-linejoin:miter;stroke-miterlimit:4;stroke-dasharray:none;stroke-opacity:1"
       d="m 131.99609,20.759766 17.7168,0 0,25.603515 -17.7168,0 0,-25.603515 z"
       id="path4173" />
    <path
       style="display:inline;opacity:1;fill:none;fill-opacity:1;stroke:#00ff00;stroke-width:0.35433071;stroke-linejoin:miter;stroke-miterlimit:4;stroke-dasharray:none;stroke-opacity:1"
       d="m 22.154297,55.324219 17.716797,0 0,25.603515 -17.716797,0 0,-25.603515 z"
       id="path4171" />
    <path
       style="display:inline;opacity:1;fill:none;fill-opacity:1;stroke:#00ff00;stroke-width:0.35433071;stroke-linejoin:miter;stroke-miterlimit:4;stroke-dasharray:none;stroke-opacity:1"
       d="m 131.99609,55.324219 17.7168,0 0,25.603515 -17.7168,0 0,-25.603515 z"
       id="path4169" />
    <path
       style="display:inline;opacity:1;fill:none;fill-opacity:1;stroke:#00ff00;stroke-width:0.35433071;stroke-linejoin:miter;stroke-miterlimit:4;stroke-dasharray:none;stroke-opacity:1"
       d="m 22.154297,89.888672 17.716797,0 0,25.603518 -17.716797,0 0,-25.603518 z"
       id="path4167" />
    <path
       style="display:inline;opacity:1;fill:none;fill-opacity:1;stroke:#00ff00;stroke-width:0.35433071;stroke-linejoin:miter;stroke-miterlimit:4;stroke-dasharray:none;stroke-opacity:1"
       d="m 131.99609,89.888672 17.7168,0 0,25.603518 -17.7168,0 0,-25.603518 z"
       id="path4165" />
    <path
       style="display:inline;opacity:1;fill:none;fill-opacity:1;stroke:#00ff00;stroke-width:0.35433071;stroke-linejoin:miter;stroke-miterlimit:4;stroke-dasharray:none;stroke-opacity:1"
       d="m 22.154297,124.45312 17.716797,0 0,25.60352 -17.716797,0 0,-25.60352 z"
       id="path4163" />
    <path
       style="display:inline;opacity:1;fill:none;fill-opacity:1;stroke:#00ff00;stroke-width:0.35433071;stroke-linejoin:miter;stroke-miterlimit:4;stroke-dasharray:none;stroke-opacity:1"
       d="m 131.99609,124.45312 17.7168,0 0,25.60352 -17.7168,0 0,-25.60352 z"
       id="path4161" />
    <path
       style="display:inline;opacity:1;fill:none;fill-opacity:1;stroke:#00ff00;stroke-width:0.35433071;stroke-linejoin:miter;stroke-miterlimit:4;stroke-dasharray:none;stroke-opacity:1"
       d="m 22.154297,159.01758 17.716797,0 0,25.60351 -17.716797,0 0,-25.60351 z"
       id="path4159" />
    <path
       style="display:inline;opacity:1;fill:none;fill-opacity:1;stroke:#00ff00;stroke-width:0.35433071;stroke-linejoin:miter;stroke-miterlimit:4;stroke-dasharray:none;stroke-opacity:1"
       d="m 131.99609,159.01758 17.7168,0 0,25.60351 -17.7168,0 0,-25.60351 z"
       id="path4157" />
    <path
       style="display:inline;opacity:1;fill:none;fill-opacity:1;stroke:#00ff00;stroke-width:0.35433071;stroke-linejoin:miter;stroke-miterlimit:4;stroke-dasharray:none;stroke-opacity:1"
       d="m 22.154297,193.58203 17.716797,0 0,25.60352 -17.716797,0 0,-25.60352 z"
       id="path4155" />
    <path
       style="display:inline;opacity:1;fill:none;fill-opacity:1;stroke:#00ff00;stroke-width:0.35433071;stroke-linejoin:miter;stroke-miterlimit:4;stroke-dasharray:none;stroke-opacity:1"
       d="m 131.99609,193.58203 17.7168,0 0,25.60352 -17.7168,0 0,-25.60352 z"
       id="rect5790" />
  </g>
  <g
     inkscape:groupmode="layer"
     id="layer2"
     inkscape:label="Innenkontur"
     style="display:inline" />
  <g
     inkscape:label="Nut / Federn"
     inkscape:groupmode="layer"
     id="layer1"
     transform="translate(0,-698.0315)"
     style="display:inline;opacity:1">
    <path
       style="display:inline;opacity:1;fill:none;fill-opacity:1;stroke:#ff0000;stroke-width:0.35433071;stroke-linejoin:miter;stroke-miterlimit:4;stroke-dasharray:none;stroke-opacity:1"
       d="m 202.50586,12.902344 0,7.085937 -17.7168,0 0,25.603516 17.7168,0 0,8.960937 -17.7168,0 0,25.603516 17.7168,0 0,8.960938 -17.7168,0 0,25.603512 17.7168,0 0,8.96094 -17.7168,0 0,25.60352 17.7168,0 0,8.96093 -17.7168,0 0,25.60352 17.7168,0 0,8.96094 -17.7168,0 0,25.60351 17.7168,0 0,7.08594 35.43359,0 0,-7.08594 0,-25.60351 0,-8.96094 0,-25.60352 0,-8.96093 0,-25.60352 0,-8.96094 0,-25.603512 0,-8.960938 0,-25.603516 0,-8.960937 0,-25.603516 0,-7.085937 -35.43359,0 z"
       transform="translate(0,698.0315)"
       id="rect6152"
       inkscape:export-filename="C:\Users\Jörn\Documents\28__FabAcademy Preparation\1 Lecture\joern.kiwitt\images\text6564.png"
       inkscape:export-xdpi="90"
       inkscape:export-ydpi="90"
       inkscape:connector-curvature="0" />
    <path
       inkscape:connector-curvature="0"
       style="display:inline;opacity:1;fill:none;fill-opacity:1;stroke:#ff0000;stroke-width:0.35433071;stroke-linejoin:miter;stroke-miterlimit:4;stroke-dasharray:none;stroke-opacity:1"
       d="m 271.85589,710.34909 0,7.08594 -17.7168,0 0,25.60351 17.7168,0 0,8.96094 -17.7168,0 0,25.60352 17.7168,0 0,8.96093 -17.7168,0 0,25.60352 17.7168,0 0,8.96094 -17.7168,0 0,25.60352 17.7168,0 0,8.96093 -17.7168,0 0,25.60352 17.7168,0 0,8.96094 -17.7168,0 0,25.60351 17.7168,0 0,7.08594 35.43359,0 0,-7.08594 0,-25.60351 0,-8.96094 0,-25.60352 0,-8.96093 0,-25.60352 0,-8.96094 0,-25.60352 0,-8.96093 0,-25.60352 0,-8.96094 0,-25.60351 0,-7.08594 -35.43359,0 z"
       id="rect6152-4"
       inkscape:export-filename="C:\Users\Jörn\Documents\28__FabAcademy Preparation\1 Lecture\joern.kiwitt\images\text6564.png"
       inkscape:export-xdpi="90"
       inkscape:export-ydpi="90" />
    <path
       style="opacity:1;fill:none;fill-opacity:1;stroke:#ff0000;stroke-width:0.35433071;stroke-linejoin:miter;stroke-miterlimit:4;stroke-dasharray:none;stroke-opacity:1"
       d="m 15.444133,935.39919 0,106.29881 36.164063,0 0,-12.3359 3.542968,0 0,12.3359 11.025391,0 0,-12.3359 3.542969,0 0,12.3359 11.179687,0 0,-12.3359 3.542969,0 0,12.3359 11.279297,0 0,-12.3359 3.542969,0 0,12.3359 11.355474,0 0,-12.3359 3.54297,0 0,12.3359 11.41406,0 0,-12.3359 3.54297,0 0,12.3359 11.46484,0 0,-12.3359 3.54297,0 0,12.3359 11.50781,0 0,-12.3359 3.54297,0 0,12.3359 11.54688,0 0,-12.3359 3.54297,0 0,12.3359 11.57812,0 0,-12.3359 3.54297,0 0,12.3359 11.60938,0 0,-12.3359 3.54492,0 0,12.3359 11.63672,0 0,-12.3359 3.54296,0 0,12.3359 11.66211,0 0,-12.3359 3.54297,0 0,12.3359 11.68555,0 0,-12.3359 3.54297,0 0,12.3359 11.70898,0 0,-12.3359 3.54297,0 0,12.3359 11.72852,0 0,-12.3359 3.54297,0 0,12.3359 32.62109,0 0,-106.29881 -32.62109,0 0,12.33594 -3.54297,0 0,-12.33594 -11.72852,0 0,12.33594 -3.54297,0 0,-12.33594 -11.70898,0 0,12.33594 -3.54297,0 0,-12.33594 -11.68555,0 0,12.33594 -3.54297,0 0,-12.33594 -11.66211,0 0,12.33594 -3.54296,0 0,-12.33594 -11.63672,0 0,12.33594 -3.54492,0 0,-12.33594 -11.60938,0 0,12.33594 -3.54297,0 0,-12.33594 -11.57812,0 0,12.33594 -3.54297,0 0,-12.33594 -11.54688,0 0,12.33594 -3.54297,0 0,-12.33594 -11.50781,0 0,12.33594 -3.54297,0 0,-12.33594 -11.46484,0 0,12.33594 -3.54297,0 0,-12.33594 -11.41406,0 0,12.33594 -3.54297,0 0,-12.33594 -11.355474,0 0,12.33594 -3.542969,0 0,-12.33594 -11.279297,0 0,12.33594 -3.542969,0 0,-12.33594 -11.179687,0 0,12.33594 -3.542969,0 0,-12.33594 -11.025391,0 0,12.33594 -3.542968,0 0,-12.33594 -36.164063,0 z"
       id="path4419" />
    <path
       style="opacity:1;fill:none;fill-opacity:1;stroke:#00ff00;stroke-width:0.35433071;stroke-linejoin:miter;stroke-miterlimit:4;stroke-dasharray:none;stroke-opacity:1"
       d="m 44.522258,941.72927 3.542969,0 0,17.65039 -3.542969,0 0,-17.65039 z"
       id="path4417" />
    <path
       style="opacity:1;fill:none;fill-opacity:1;stroke:#00ff00;stroke-width:0.35433071;stroke-linejoin:miter;stroke-miterlimit:4;stroke-dasharray:none;stroke-opacity:1"
       d="m 59.090617,941.72927 3.542969,0 0,17.65039 -3.542969,0 0,-17.65039 z"
       id="path4415" />
    <path
       style="opacity:1;fill:none;fill-opacity:1;stroke:#00ff00;stroke-width:0.35433071;stroke-linejoin:miter;stroke-miterlimit:4;stroke-dasharray:none;stroke-opacity:1"
       d="m 73.813274,941.72927 3.542969,0 0,17.65039 -3.542969,0 0,-17.65039 z"
       id="path4413" />
    <path
       style="opacity:1;fill:none;fill-opacity:1;stroke:#00ff00;stroke-width:0.35433071;stroke-linejoin:miter;stroke-miterlimit:4;stroke-dasharray:none;stroke-opacity:1"
       d="m 88.635539,941.72927 3.542969,0 0,17.65039 -3.542969,0 0,-17.65039 z"
       id="path4411" />
    <path
       style="opacity:1;fill:none;fill-opacity:1;stroke:#00ff00;stroke-width:0.35433071;stroke-linejoin:miter;stroke-miterlimit:4;stroke-dasharray:none;stroke-opacity:1"
       d="m 103.53203,941.72927 3.54297,0 0,17.65039 -3.54297,0 0,-17.65039 z"
       id="path4409" />
    <path
       style="opacity:1;fill:none;fill-opacity:1;stroke:#00ff00;stroke-width:0.35433071;stroke-linejoin:miter;stroke-miterlimit:4;stroke-dasharray:none;stroke-opacity:1"
       d="m 118.49101,941.72927 3.54297,0 0,17.65039 -3.54297,0 0,-17.65039 z"
       id="path4407" />
    <path
       style="opacity:1;fill:none;fill-opacity:1;stroke:#00ff00;stroke-width:0.35433071;stroke-linejoin:miter;stroke-miterlimit:4;stroke-dasharray:none;stroke-opacity:1"
       d="m 133.49883,941.72927 3.54296,0 0,17.65039 -3.54296,0 0,-17.65039 z"
       id="path4405" />
    <path
       style="opacity:1;fill:none;fill-opacity:1;stroke:#00ff00;stroke-width:0.35433071;stroke-linejoin:miter;stroke-miterlimit:4;stroke-dasharray:none;stroke-opacity:1"
       d="m 148.54961,941.72927 3.54297,0 0,17.65039 -3.54297,0 0,-17.65039 z"
       id="path4403" />
    <path
       style="opacity:1;fill:none;fill-opacity:1;stroke:#00ff00;stroke-width:0.35433071;stroke-linejoin:miter;stroke-miterlimit:4;stroke-dasharray:none;stroke-opacity:1"
       d="m 163.6375,941.72927 3.54297,0 0,17.65039 -3.54297,0 0,-17.65039 z"
       id="path4401" />
    <path
       style="opacity:1;fill:none;fill-opacity:1;stroke:#00ff00;stroke-width:0.35433071;stroke-linejoin:miter;stroke-miterlimit:4;stroke-dasharray:none;stroke-opacity:1"
       d="m 178.76054,941.72927 3.54297,0 0,17.65039 -3.54297,0 0,-17.65039 z"
       id="path4399" />
    <path
       style="opacity:1;fill:none;fill-opacity:1;stroke:#00ff00;stroke-width:0.35433071;stroke-linejoin:miter;stroke-miterlimit:4;stroke-dasharray:none;stroke-opacity:1"
       d="m 193.91289,941.72927 3.54297,0 0,17.65039 -3.54297,0 0,-17.65039 z"
       id="path4397" />
    <path
       style="opacity:1;fill:none;fill-opacity:1;stroke:#00ff00;stroke-width:0.35433071;stroke-linejoin:miter;stroke-miterlimit:4;stroke-dasharray:none;stroke-opacity:1"
       d="m 209.09258,941.72927 3.54296,0 0,17.65039 -3.54296,0 0,-17.65039 z"
       id="path4395" />
    <path
       style="opacity:1;fill:none;fill-opacity:1;stroke:#00ff00;stroke-width:0.35433071;stroke-linejoin:miter;stroke-miterlimit:4;stroke-dasharray:none;stroke-opacity:1"
       d="m 224.29961,941.72927 3.54297,0 0,17.65039 -3.54297,0 0,-17.65039 z"
       id="path4393" />
    <path
       style="opacity:1;fill:none;fill-opacity:1;stroke:#00ff00;stroke-width:0.35433071;stroke-linejoin:miter;stroke-miterlimit:4;stroke-dasharray:none;stroke-opacity:1"
       d="m 239.52812,941.72927 3.54297,0 0,17.65039 -3.54297,0 0,-17.65039 z"
       id="path4391" />
    <path
       style="opacity:1;fill:none;fill-opacity:1;stroke:#00ff00;stroke-width:0.35433071;stroke-linejoin:miter;stroke-miterlimit:4;stroke-dasharray:none;stroke-opacity:1"
       d="m 254.77812,941.72927 3.54492,0 0,17.65039 -3.54492,0 0,-17.65039 z"
       id="path4389" />
    <path
       style="opacity:1;fill:none;fill-opacity:1;stroke:#00ff00;stroke-width:0.35433071;stroke-linejoin:miter;stroke-miterlimit:4;stroke-dasharray:none;stroke-opacity:1"
       d="m 270.04961,941.72927 3.54297,0 0,17.65039 -3.54297,0 0,-17.65039 z"
       id="path4387" />
    <path
       style="opacity:1;fill:none;fill-opacity:1;stroke:#00ff00;stroke-width:0.35433071;stroke-linejoin:miter;stroke-miterlimit:4;stroke-dasharray:none;stroke-opacity:1"
       d="m 22.528117,942.49489 10.63086,0 0,17.65039 -10.63086,0 0,-17.65039 z"
       id="path4385" />
    <path
       style="opacity:1;fill:none;fill-opacity:1;stroke:#00ff00;stroke-width:0.35433071;stroke-linejoin:miter;stroke-miterlimit:4;stroke-dasharray:none;stroke-opacity:1"
       d="m 295.58281,942.49489 10.63086,0 0,17.65039 -10.63086,0 0,-17.65039 z"
       id="path4383" />
    <path
       style="opacity:1;fill:none;fill-opacity:1;stroke:#00ff00;stroke-width:0.35433071;stroke-linejoin:miter;stroke-miterlimit:4;stroke-dasharray:none;stroke-opacity:1"
       d="m 51.608196,954.9031 3.542968,0 0,17.65234 -3.542968,0 0,-17.65234 z"
       id="path4381" />
    <path
       style="opacity:1;fill:none;fill-opacity:1;stroke:#00ff00;stroke-width:0.35433071;stroke-linejoin:miter;stroke-miterlimit:4;stroke-dasharray:none;stroke-opacity:1"
       d="m 66.176555,954.9031 3.542969,0 0,17.65234 -3.542969,0 0,-17.65234 z"
       id="path4379" />
    <path
       style="opacity:1;fill:none;fill-opacity:1;stroke:#00ff00;stroke-width:0.35433071;stroke-linejoin:miter;stroke-miterlimit:4;stroke-dasharray:none;stroke-opacity:1"
       d="m 80.899211,954.9031 3.542969,0 0,17.65234 -3.542969,0 0,-17.65234 z"
       id="path4377" />
    <path
       style="opacity:1;fill:none;fill-opacity:1;stroke:#00ff00;stroke-width:0.35433071;stroke-linejoin:miter;stroke-miterlimit:4;stroke-dasharray:none;stroke-opacity:1"
       d="m 95.721477,954.9031 3.542969,0 0,17.65234 -3.542969,0 0,-17.65234 z"
       id="path4375" />
    <path
       style="opacity:1;fill:none;fill-opacity:1;stroke:#00ff00;stroke-width:0.35433071;stroke-linejoin:miter;stroke-miterlimit:4;stroke-dasharray:none;stroke-opacity:1"
       d="m 110.61992,954.9031 3.54297,0 0,17.65234 -3.54297,0 0,-17.65234 z"
       id="path4373" />
    <path
       style="opacity:1;fill:none;fill-opacity:1;stroke:#00ff00;stroke-width:0.35433071;stroke-linejoin:miter;stroke-miterlimit:4;stroke-dasharray:none;stroke-opacity:1"
       d="m 125.57695,954.9031 3.54297,0 0,17.65234 -3.54297,0 0,-17.65234 z"
       id="path4371" />
    <path
       style="opacity:1;fill:none;fill-opacity:1;stroke:#00ff00;stroke-width:0.35433071;stroke-linejoin:miter;stroke-miterlimit:4;stroke-dasharray:none;stroke-opacity:1"
       d="m 140.58476,954.9031 3.54297,0 0,17.65234 -3.54297,0 0,-17.65234 z"
       id="path4369" />
    <path
       style="opacity:1;fill:none;fill-opacity:1;stroke:#00ff00;stroke-width:0.35433071;stroke-linejoin:miter;stroke-miterlimit:4;stroke-dasharray:none;stroke-opacity:1"
       d="m 155.63554,954.9031 3.54297,0 0,17.65234 -3.54297,0 0,-17.65234 z"
       id="path4367" />
    <path
       style="opacity:1;fill:none;fill-opacity:1;stroke:#00ff00;stroke-width:0.35433071;stroke-linejoin:miter;stroke-miterlimit:4;stroke-dasharray:none;stroke-opacity:1"
       d="m 170.72539,954.9031 3.54297,0 0,17.65234 -3.54297,0 0,-17.65234 z"
       id="path4365" />
    <path
       style="opacity:1;fill:none;fill-opacity:1;stroke:#00ff00;stroke-width:0.35433071;stroke-linejoin:miter;stroke-miterlimit:4;stroke-dasharray:none;stroke-opacity:1"
       d="m 185.84648,954.9031 3.54297,0 0,17.65234 -3.54297,0 0,-17.65234 z"
       id="path4363" />
    <path
       style="opacity:1;fill:none;fill-opacity:1;stroke:#00ff00;stroke-width:0.35433071;stroke-linejoin:miter;stroke-miterlimit:4;stroke-dasharray:none;stroke-opacity:1"
       d="m 200.99883,954.9031 3.54492,0 0,17.65234 -3.54492,0 0,-17.65234 z"
       id="path4361" />
    <path
       style="opacity:1;fill:none;fill-opacity:1;stroke:#00ff00;stroke-width:0.35433071;stroke-linejoin:miter;stroke-miterlimit:4;stroke-dasharray:none;stroke-opacity:1"
       d="m 216.18047,954.9031 3.54296,0 0,17.65234 -3.54296,0 0,-17.65234 z"
       id="path4359" />
    <path
       style="opacity:1;fill:none;fill-opacity:1;stroke:#00ff00;stroke-width:0.35433071;stroke-linejoin:miter;stroke-miterlimit:4;stroke-dasharray:none;stroke-opacity:1"
       d="m 231.38554,954.9031 3.54297,0 0,17.65234 -3.54297,0 0,-17.65234 z"
       id="path4357" />
    <path
       style="opacity:1;fill:none;fill-opacity:1;stroke:#00ff00;stroke-width:0.35433071;stroke-linejoin:miter;stroke-miterlimit:4;stroke-dasharray:none;stroke-opacity:1"
       d="m 246.61406,954.9031 3.54297,0 0,17.65234 -3.54297,0 0,-17.65234 z"
       id="path4355" />
    <path
       style="opacity:1;fill:none;fill-opacity:1;stroke:#00ff00;stroke-width:0.35433071;stroke-linejoin:miter;stroke-miterlimit:4;stroke-dasharray:none;stroke-opacity:1"
       d="m 261.86601,954.9031 3.54297,0 0,17.65234 -3.54297,0 0,-17.65234 z"
       id="path4353" />
    <path
       style="opacity:1;fill:none;fill-opacity:1;stroke:#00ff00;stroke-width:0.35433071;stroke-linejoin:miter;stroke-miterlimit:4;stroke-dasharray:none;stroke-opacity:1"
       d="m 277.1375,954.9031 3.54297,0 0,17.65234 -3.54297,0 0,-17.65234 z"
       id="path4351" />
    <path
       style="opacity:1;fill:none;fill-opacity:1;stroke:#00ff00;stroke-width:0.35433071;stroke-linejoin:miter;stroke-miterlimit:4;stroke-dasharray:none;stroke-opacity:1"
       d="m 44.522258,966.55349 3.542969,0 0,17.65039 -3.542969,0 0,-17.65039 z"
       id="path4349" />
    <path
       style="opacity:1;fill:none;fill-opacity:1;stroke:#00ff00;stroke-width:0.35433071;stroke-linejoin:miter;stroke-miterlimit:4;stroke-dasharray:none;stroke-opacity:1"
       d="m 59.090617,966.55349 3.542969,0 0,17.65039 -3.542969,0 0,-17.65039 z"
       id="path4347" />
    <path
       style="opacity:1;fill:none;fill-opacity:1;stroke:#00ff00;stroke-width:0.35433071;stroke-linejoin:miter;stroke-miterlimit:4;stroke-dasharray:none;stroke-opacity:1"
       d="m 73.813274,966.55349 3.542969,0 0,17.65039 -3.542969,0 0,-17.65039 z"
       id="path4345" />
    <path
       style="opacity:1;fill:none;fill-opacity:1;stroke:#00ff00;stroke-width:0.35433071;stroke-linejoin:miter;stroke-miterlimit:4;stroke-dasharray:none;stroke-opacity:1"
       d="m 88.635539,966.55349 3.542969,0 0,17.65039 -3.542969,0 0,-17.65039 z"
       id="path4343" />
    <path
       style="opacity:1;fill:none;fill-opacity:1;stroke:#00ff00;stroke-width:0.35433071;stroke-linejoin:miter;stroke-miterlimit:4;stroke-dasharray:none;stroke-opacity:1"
       d="m 103.53203,966.55349 3.54297,0 0,17.65039 -3.54297,0 0,-17.65039 z"
       id="path4341" />
    <path
       style="opacity:1;fill:none;fill-opacity:1;stroke:#00ff00;stroke-width:0.35433071;stroke-linejoin:miter;stroke-miterlimit:4;stroke-dasharray:none;stroke-opacity:1"
       d="m 118.49101,966.55349 3.54297,0 0,17.65039 -3.54297,0 0,-17.65039 z"
       id="path4339" />
    <path
       style="opacity:1;fill:none;fill-opacity:1;stroke:#00ff00;stroke-width:0.35433071;stroke-linejoin:miter;stroke-miterlimit:4;stroke-dasharray:none;stroke-opacity:1"
       d="m 133.49883,966.55349 3.54296,0 0,17.65039 -3.54296,0 0,-17.65039 z"
       id="path4337" />
    <path
       style="opacity:1;fill:none;fill-opacity:1;stroke:#00ff00;stroke-width:0.35433071;stroke-linejoin:miter;stroke-miterlimit:4;stroke-dasharray:none;stroke-opacity:1"
       d="m 148.54961,966.55349 3.54297,0 0,17.65039 -3.54297,0 0,-17.65039 z"
       id="path4335" />
    <path
       style="opacity:1;fill:none;fill-opacity:1;stroke:#00ff00;stroke-width:0.35433071;stroke-linejoin:miter;stroke-miterlimit:4;stroke-dasharray:none;stroke-opacity:1"
       d="m 163.6375,966.55349 3.54297,0 0,17.65039 -3.54297,0 0,-17.65039 z"
       id="path4333" />
    <path
       style="opacity:1;fill:none;fill-opacity:1;stroke:#00ff00;stroke-width:0.35433071;stroke-linejoin:miter;stroke-miterlimit:4;stroke-dasharray:none;stroke-opacity:1"
       d="m 178.76054,966.55349 3.54297,0 0,17.65039 -3.54297,0 0,-17.65039 z"
       id="path4331" />
    <path
       style="opacity:1;fill:none;fill-opacity:1;stroke:#00ff00;stroke-width:0.35433071;stroke-linejoin:miter;stroke-miterlimit:4;stroke-dasharray:none;stroke-opacity:1"
       d="m 193.91289,966.55349 3.54297,0 0,17.65039 -3.54297,0 0,-17.65039 z"
       id="path4329" />
    <path
       style="opacity:1;fill:none;fill-opacity:1;stroke:#00ff00;stroke-width:0.35433071;stroke-linejoin:miter;stroke-miterlimit:4;stroke-dasharray:none;stroke-opacity:1"
       d="m 209.09258,966.55349 3.54296,0 0,17.65039 -3.54296,0 0,-17.65039 z"
       id="path4327" />
    <path
       style="opacity:1;fill:none;fill-opacity:1;stroke:#00ff00;stroke-width:0.35433071;stroke-linejoin:miter;stroke-miterlimit:4;stroke-dasharray:none;stroke-opacity:1"
       d="m 224.29961,966.55349 3.54297,0 0,17.65039 -3.54297,0 0,-17.65039 z"
       id="path4325" />
    <path
       style="opacity:1;fill:none;fill-opacity:1;stroke:#00ff00;stroke-width:0.35433071;stroke-linejoin:miter;stroke-miterlimit:4;stroke-dasharray:none;stroke-opacity:1"
       d="m 239.52812,966.55349 3.54297,0 0,17.65039 -3.54297,0 0,-17.65039 z"
       id="path4323" />
    <path
       style="opacity:1;fill:none;fill-opacity:1;stroke:#00ff00;stroke-width:0.35433071;stroke-linejoin:miter;stroke-miterlimit:4;stroke-dasharray:none;stroke-opacity:1"
       d="m 254.77812,966.55349 3.54492,0 0,17.65039 -3.54492,0 0,-17.65039 z"
       id="path4321" />
    <path
       style="opacity:1;fill:none;fill-opacity:1;stroke:#00ff00;stroke-width:0.35433071;stroke-linejoin:miter;stroke-miterlimit:4;stroke-dasharray:none;stroke-opacity:1"
       d="m 270.04961,966.55349 3.54297,0 0,17.65039 -3.54297,0 0,-17.65039 z"
       id="path4319" />
    <path
       style="opacity:1;fill:none;fill-opacity:1;stroke:#00ff00;stroke-width:0.35433071;stroke-linejoin:miter;stroke-miterlimit:4;stroke-dasharray:none;stroke-opacity:1"
       d="m 22.528117,967.31325 10.63086,0 0,17.65235 -10.63086,0 0,-17.65235 z"
       id="path4317" />
    <path
       style="opacity:1;fill:none;fill-opacity:1;stroke:#00ff00;stroke-width:0.35433071;stroke-linejoin:miter;stroke-miterlimit:4;stroke-dasharray:none;stroke-opacity:1"
       d="m 295.58281,967.31325 10.63086,0 0,17.65235 -10.63086,0 0,-17.65235 z"
       id="path4315" />
    <path
       style="opacity:1;fill:none;fill-opacity:1;stroke:#00ff00;stroke-width:0.35433071;stroke-linejoin:miter;stroke-miterlimit:4;stroke-dasharray:none;stroke-opacity:1"
       d="m 51.608196,979.72341 3.542968,0 0,17.65039 -3.542968,0 0,-17.65039 z"
       id="path4313" />
    <path
       style="opacity:1;fill:none;fill-opacity:1;stroke:#00ff00;stroke-width:0.35433071;stroke-linejoin:miter;stroke-miterlimit:4;stroke-dasharray:none;stroke-opacity:1"
       d="m 66.176555,979.72341 3.542969,0 0,17.65039 -3.542969,0 0,-17.65039 z"
       id="path4311" />
    <path
       style="opacity:1;fill:none;fill-opacity:1;stroke:#00ff00;stroke-width:0.35433071;stroke-linejoin:miter;stroke-miterlimit:4;stroke-dasharray:none;stroke-opacity:1"
       d="m 80.899211,979.72341 3.542969,0 0,17.65039 -3.542969,0 0,-17.65039 z"
       id="path4309" />
    <path
       style="opacity:1;fill:none;fill-opacity:1;stroke:#00ff00;stroke-width:0.35433071;stroke-linejoin:miter;stroke-miterlimit:4;stroke-dasharray:none;stroke-opacity:1"
       d="m 95.721477,979.72341 3.542969,0 0,17.65039 -3.542969,0 0,-17.65039 z"
       id="path4307" />
    <path
       style="opacity:1;fill:none;fill-opacity:1;stroke:#00ff00;stroke-width:0.35433071;stroke-linejoin:miter;stroke-miterlimit:4;stroke-dasharray:none;stroke-opacity:1"
       d="m 110.61992,979.72341 3.54297,0 0,17.65039 -3.54297,0 0,-17.65039 z"
       id="path4305" />
    <path
       style="opacity:1;fill:none;fill-opacity:1;stroke:#00ff00;stroke-width:0.35433071;stroke-linejoin:miter;stroke-miterlimit:4;stroke-dasharray:none;stroke-opacity:1"
       d="m 125.57695,979.72341 3.54297,0 0,17.65039 -3.54297,0 0,-17.65039 z"
       id="path4303" />
    <path
       style="opacity:1;fill:none;fill-opacity:1;stroke:#00ff00;stroke-width:0.35433071;stroke-linejoin:miter;stroke-miterlimit:4;stroke-dasharray:none;stroke-opacity:1"
       d="m 140.58476,979.72341 3.54297,0 0,17.65039 -3.54297,0 0,-17.65039 z"
       id="path4301" />
    <path
       style="opacity:1;fill:none;fill-opacity:1;stroke:#00ff00;stroke-width:0.35433071;stroke-linejoin:miter;stroke-miterlimit:4;stroke-dasharray:none;stroke-opacity:1"
       d="m 155.63554,979.72341 3.54297,0 0,17.65039 -3.54297,0 0,-17.65039 z"
       id="path4299" />
    <path
       style="opacity:1;fill:none;fill-opacity:1;stroke:#00ff00;stroke-width:0.35433071;stroke-linejoin:miter;stroke-miterlimit:4;stroke-dasharray:none;stroke-opacity:1"
       d="m 170.72539,979.72341 3.54297,0 0,17.65039 -3.54297,0 0,-17.65039 z"
       id="path4297" />
    <path
       style="opacity:1;fill:none;fill-opacity:1;stroke:#00ff00;stroke-width:0.35433071;stroke-linejoin:miter;stroke-miterlimit:4;stroke-dasharray:none;stroke-opacity:1"
       d="m 185.84648,979.72341 3.54297,0 0,17.65039 -3.54297,0 0,-17.65039 z"
       id="path4295" />
    <path
       style="opacity:1;fill:none;fill-opacity:1;stroke:#00ff00;stroke-width:0.35433071;stroke-linejoin:miter;stroke-miterlimit:4;stroke-dasharray:none;stroke-opacity:1"
       d="m 200.99883,979.72341 3.54492,0 0,17.65039 -3.54492,0 0,-17.65039 z"
       id="path4293" />
    <path
       style="opacity:1;fill:none;fill-opacity:1;stroke:#00ff00;stroke-width:0.35433071;stroke-linejoin:miter;stroke-miterlimit:4;stroke-dasharray:none;stroke-opacity:1"
       d="m 216.18047,979.72341 3.54296,0 0,17.65039 -3.54296,0 0,-17.65039 z"
       id="path4291" />
    <path
       style="opacity:1;fill:none;fill-opacity:1;stroke:#00ff00;stroke-width:0.35433071;stroke-linejoin:miter;stroke-miterlimit:4;stroke-dasharray:none;stroke-opacity:1"
       d="m 231.38554,979.72341 3.54297,0 0,17.65039 -3.54297,0 0,-17.65039 z"
       id="path4289" />
    <path
       style="opacity:1;fill:none;fill-opacity:1;stroke:#00ff00;stroke-width:0.35433071;stroke-linejoin:miter;stroke-miterlimit:4;stroke-dasharray:none;stroke-opacity:1"
       d="m 246.61406,979.72341 3.54297,0 0,17.65039 -3.54297,0 0,-17.65039 z"
       id="path4287" />
    <path
       style="opacity:1;fill:none;fill-opacity:1;stroke:#00ff00;stroke-width:0.35433071;stroke-linejoin:miter;stroke-miterlimit:4;stroke-dasharray:none;stroke-opacity:1"
       d="m 261.86601,979.72341 3.54297,0 0,17.65039 -3.54297,0 0,-17.65039 z"
       id="path4285" />
    <path
       style="opacity:1;fill:none;fill-opacity:1;stroke:#00ff00;stroke-width:0.35433071;stroke-linejoin:miter;stroke-miterlimit:4;stroke-dasharray:none;stroke-opacity:1"
       d="m 277.1375,979.72341 3.54297,0 0,17.65039 -3.54297,0 0,-17.65039 z"
       id="path4283" />
    <path
       style="opacity:1;fill:none;fill-opacity:1;stroke:#00ff00;stroke-width:0.35433071;stroke-linejoin:miter;stroke-miterlimit:4;stroke-dasharray:none;stroke-opacity:1"
       d="m 44.522258,991.3777 3.542969,0 0,17.6523 -3.542969,0 0,-17.6523 z"
       id="path4281" />
    <path
       style="opacity:1;fill:none;fill-opacity:1;stroke:#00ff00;stroke-width:0.35433071;stroke-linejoin:miter;stroke-miterlimit:4;stroke-dasharray:none;stroke-opacity:1"
       d="m 59.090617,991.3777 3.542969,0 0,17.6523 -3.542969,0 0,-17.6523 z"
       id="path4279" />
    <path
       style="opacity:1;fill:none;fill-opacity:1;stroke:#00ff00;stroke-width:0.35433071;stroke-linejoin:miter;stroke-miterlimit:4;stroke-dasharray:none;stroke-opacity:1"
       d="m 73.813274,991.3777 3.542969,0 0,17.6523 -3.542969,0 0,-17.6523 z"
       id="path4277" />
    <path
       style="opacity:1;fill:none;fill-opacity:1;stroke:#00ff00;stroke-width:0.35433071;stroke-linejoin:miter;stroke-miterlimit:4;stroke-dasharray:none;stroke-opacity:1"
       d="m 88.635539,991.3777 3.542969,0 0,17.6523 -3.542969,0 0,-17.6523 z"
       id="path4275" />
    <path
       style="opacity:1;fill:none;fill-opacity:1;stroke:#00ff00;stroke-width:0.35433071;stroke-linejoin:miter;stroke-miterlimit:4;stroke-dasharray:none;stroke-opacity:1"
       d="m 103.53203,991.3777 3.54297,0 0,17.6523 -3.54297,0 0,-17.6523 z"
       id="path4273" />
    <path
       style="opacity:1;fill:none;fill-opacity:1;stroke:#00ff00;stroke-width:0.35433071;stroke-linejoin:miter;stroke-miterlimit:4;stroke-dasharray:none;stroke-opacity:1"
       d="m 118.49101,991.3777 3.54297,0 0,17.6523 -3.54297,0 0,-17.6523 z"
       id="path4271" />
    <path
       style="opacity:1;fill:none;fill-opacity:1;stroke:#00ff00;stroke-width:0.35433071;stroke-linejoin:miter;stroke-miterlimit:4;stroke-dasharray:none;stroke-opacity:1"
       d="m 133.49883,991.3777 3.54296,0 0,17.6523 -3.54296,0 0,-17.6523 z"
       id="path4269" />
    <path
       style="opacity:1;fill:none;fill-opacity:1;stroke:#00ff00;stroke-width:0.35433071;stroke-linejoin:miter;stroke-miterlimit:4;stroke-dasharray:none;stroke-opacity:1"
       d="m 148.54961,991.3777 3.54297,0 0,17.6523 -3.54297,0 0,-17.6523 z"
       id="path4267" />
    <path
       style="opacity:1;fill:none;fill-opacity:1;stroke:#00ff00;stroke-width:0.35433071;stroke-linejoin:miter;stroke-miterlimit:4;stroke-dasharray:none;stroke-opacity:1"
       d="m 163.6375,991.3777 3.54297,0 0,17.6523 -3.54297,0 0,-17.6523 z"
       id="path4265" />
    <path
       style="opacity:1;fill:none;fill-opacity:1;stroke:#00ff00;stroke-width:0.35433071;stroke-linejoin:miter;stroke-miterlimit:4;stroke-dasharray:none;stroke-opacity:1"
       d="m 178.76054,991.3777 3.54297,0 0,17.6523 -3.54297,0 0,-17.6523 z"
       id="path4263" />
    <path
       style="opacity:1;fill:none;fill-opacity:1;stroke:#00ff00;stroke-width:0.35433071;stroke-linejoin:miter;stroke-miterlimit:4;stroke-dasharray:none;stroke-opacity:1"
       d="m 193.91289,991.3777 3.54297,0 0,17.6523 -3.54297,0 0,-17.6523 z"
       id="path4261" />
    <path
       style="opacity:1;fill:none;fill-opacity:1;stroke:#00ff00;stroke-width:0.35433071;stroke-linejoin:miter;stroke-miterlimit:4;stroke-dasharray:none;stroke-opacity:1"
       d="m 209.09258,991.3777 3.54296,0 0,17.6523 -3.54296,0 0,-17.6523 z"
       id="path4259" />
    <path
       style="opacity:1;fill:none;fill-opacity:1;stroke:#00ff00;stroke-width:0.35433071;stroke-linejoin:miter;stroke-miterlimit:4;stroke-dasharray:none;stroke-opacity:1"
       d="m 224.29961,991.3777 3.54297,0 0,17.6523 -3.54297,0 0,-17.6523 z"
       id="path4257" />
    <path
       style="opacity:1;fill:none;fill-opacity:1;stroke:#00ff00;stroke-width:0.35433071;stroke-linejoin:miter;stroke-miterlimit:4;stroke-dasharray:none;stroke-opacity:1"
       d="m 239.52812,991.3777 3.54297,0 0,17.6523 -3.54297,0 0,-17.6523 z"
       id="path4255" />
    <path
       style="opacity:1;fill:none;fill-opacity:1;stroke:#00ff00;stroke-width:0.35433071;stroke-linejoin:miter;stroke-miterlimit:4;stroke-dasharray:none;stroke-opacity:1"
       d="m 254.77812,991.3777 3.54492,0 0,17.6523 -3.54492,0 0,-17.6523 z"
       id="path4253" />
    <path
       style="opacity:1;fill:none;fill-opacity:1;stroke:#00ff00;stroke-width:0.35433071;stroke-linejoin:miter;stroke-miterlimit:4;stroke-dasharray:none;stroke-opacity:1"
       d="m 270.04961,991.3777 3.54297,0 0,17.6523 -3.54297,0 0,-17.6523 z"
       id="path4251" />
    <path
       style="opacity:1;fill:none;fill-opacity:1;stroke:#00ff00;stroke-width:0.35433071;stroke-linejoin:miter;stroke-miterlimit:4;stroke-dasharray:none;stroke-opacity:1"
       d="m 22.528117,992.13356 10.63086,0 0,17.65044 -10.63086,0 0,-17.65044 z"
       id="path4249" />
    <path
       style="opacity:1;fill:none;fill-opacity:1;stroke:#00ff00;stroke-width:0.35433071;stroke-linejoin:miter;stroke-miterlimit:4;stroke-dasharray:none;stroke-opacity:1"
       d="m 295.58281,992.13356 10.63086,0 0,17.65044 -10.63086,0 0,-17.65044 z"
       id="path4247" />
    <path
       style="opacity:1;fill:none;fill-opacity:1;stroke:#00ff00;stroke-width:0.35433071;stroke-linejoin:miter;stroke-miterlimit:4;stroke-dasharray:none;stroke-opacity:1"
       d="m 51.608196,1004.5418 3.542968,0 0,17.6523 -3.542968,0 0,-17.6523 z"
       id="path4245" />
    <path
       style="opacity:1;fill:none;fill-opacity:1;stroke:#00ff00;stroke-width:0.35433071;stroke-linejoin:miter;stroke-miterlimit:4;stroke-dasharray:none;stroke-opacity:1"
       d="m 66.176555,1004.5418 3.542969,0 0,17.6523 -3.542969,0 0,-17.6523 z"
       id="path4243" />
    <path
       style="opacity:1;fill:none;fill-opacity:1;stroke:#00ff00;stroke-width:0.35433071;stroke-linejoin:miter;stroke-miterlimit:4;stroke-dasharray:none;stroke-opacity:1"
       d="m 80.899211,1004.5418 3.542969,0 0,17.6523 -3.542969,0 0,-17.6523 z"
       id="path4241" />
    <path
       style="opacity:1;fill:none;fill-opacity:1;stroke:#00ff00;stroke-width:0.35433071;stroke-linejoin:miter;stroke-miterlimit:4;stroke-dasharray:none;stroke-opacity:1"
       d="m 95.721477,1004.5418 3.542969,0 0,17.6523 -3.542969,0 0,-17.6523 z"
       id="path4239" />
    <path
       style="opacity:1;fill:none;fill-opacity:1;stroke:#00ff00;stroke-width:0.35433071;stroke-linejoin:miter;stroke-miterlimit:4;stroke-dasharray:none;stroke-opacity:1"
       d="m 110.61992,1004.5418 3.54297,0 0,17.6523 -3.54297,0 0,-17.6523 z"
       id="path4237" />
    <path
       style="opacity:1;fill:none;fill-opacity:1;stroke:#00ff00;stroke-width:0.35433071;stroke-linejoin:miter;stroke-miterlimit:4;stroke-dasharray:none;stroke-opacity:1"
       d="m 125.57695,1004.5418 3.54297,0 0,17.6523 -3.54297,0 0,-17.6523 z"
       id="path4235" />
    <path
       style="opacity:1;fill:none;fill-opacity:1;stroke:#00ff00;stroke-width:0.35433071;stroke-linejoin:miter;stroke-miterlimit:4;stroke-dasharray:none;stroke-opacity:1"
       d="m 140.58476,1004.5418 3.54297,0 0,17.6523 -3.54297,0 0,-17.6523 z"
       id="path4233" />
    <path
       style="opacity:1;fill:none;fill-opacity:1;stroke:#00ff00;stroke-width:0.35433071;stroke-linejoin:miter;stroke-miterlimit:4;stroke-dasharray:none;stroke-opacity:1"
       d="m 155.63554,1004.5418 3.54297,0 0,17.6523 -3.54297,0 0,-17.6523 z"
       id="path4231" />
    <path
       style="opacity:1;fill:none;fill-opacity:1;stroke:#00ff00;stroke-width:0.35433071;stroke-linejoin:miter;stroke-miterlimit:4;stroke-dasharray:none;stroke-opacity:1"
       d="m 170.72539,1004.5418 3.54297,0 0,17.6523 -3.54297,0 0,-17.6523 z"
       id="path4229" />
    <path
       style="opacity:1;fill:none;fill-opacity:1;stroke:#00ff00;stroke-width:0.35433071;stroke-linejoin:miter;stroke-miterlimit:4;stroke-dasharray:none;stroke-opacity:1"
       d="m 185.84648,1004.5418 3.54297,0 0,17.6523 -3.54297,0 0,-17.6523 z"
       id="path4227" />
    <path
       style="opacity:1;fill:none;fill-opacity:1;stroke:#00ff00;stroke-width:0.35433071;stroke-linejoin:miter;stroke-miterlimit:4;stroke-dasharray:none;stroke-opacity:1"
       d="m 200.99883,1004.5418 3.54492,0 0,17.6523 -3.54492,0 0,-17.6523 z"
       id="path4225" />
    <path
       style="opacity:1;fill:none;fill-opacity:1;stroke:#00ff00;stroke-width:0.35433071;stroke-linejoin:miter;stroke-miterlimit:4;stroke-dasharray:none;stroke-opacity:1"
       d="m 216.18047,1004.5418 3.54296,0 0,17.6523 -3.54296,0 0,-17.6523 z"
       id="path4223" />
    <path
       style="opacity:1;fill:none;fill-opacity:1;stroke:#00ff00;stroke-width:0.35433071;stroke-linejoin:miter;stroke-miterlimit:4;stroke-dasharray:none;stroke-opacity:1"
       d="m 231.38554,1004.5418 3.54297,0 0,17.6523 -3.54297,0 0,-17.6523 z"
       id="path4221" />
    <path
       style="opacity:1;fill:none;fill-opacity:1;stroke:#00ff00;stroke-width:0.35433071;stroke-linejoin:miter;stroke-miterlimit:4;stroke-dasharray:none;stroke-opacity:1"
       d="m 246.61406,1004.5418 3.54297,0 0,17.6523 -3.54297,0 0,-17.6523 z"
       id="path4219" />
    <path
       style="opacity:1;fill:none;fill-opacity:1;stroke:#00ff00;stroke-width:0.35433071;stroke-linejoin:miter;stroke-miterlimit:4;stroke-dasharray:none;stroke-opacity:1"
       d="m 261.86601,1004.5418 3.54297,0 0,17.6523 -3.54297,0 0,-17.6523 z"
       id="path4217" />
    <path
       style="opacity:1;fill:none;fill-opacity:1;stroke:#00ff00;stroke-width:0.35433071;stroke-linejoin:miter;stroke-miterlimit:4;stroke-dasharray:none;stroke-opacity:1"
       d="m 277.1375,1004.5418 3.54297,0 0,17.6523 -3.54297,0 0,-17.6523 z"
       id="path4215" />
    <path
       style="opacity:1;fill:none;fill-opacity:1;stroke:#00ff00;stroke-width:0.35433071;stroke-linejoin:miter;stroke-miterlimit:4;stroke-dasharray:none;stroke-opacity:1"
       d="m 44.522258,1016.2039 3.542969,0 0,17.6504 -3.542969,0 0,-17.6504 z"
       id="path4213" />
    <path
       style="opacity:1;fill:none;fill-opacity:1;stroke:#00ff00;stroke-width:0.35433071;stroke-linejoin:miter;stroke-miterlimit:4;stroke-dasharray:none;stroke-opacity:1"
       d="m 59.090617,1016.2039 3.542969,0 0,17.6504 -3.542969,0 0,-17.6504 z"
       id="path4211" />
    <path
       style="opacity:1;fill:none;fill-opacity:1;stroke:#00ff00;stroke-width:0.35433071;stroke-linejoin:miter;stroke-miterlimit:4;stroke-dasharray:none;stroke-opacity:1"
       d="m 73.813274,1016.2039 3.542969,0 0,17.6504 -3.542969,0 0,-17.6504 z"
       id="path4209" />
    <path
       style="opacity:1;fill:none;fill-opacity:1;stroke:#00ff00;stroke-width:0.35433071;stroke-linejoin:miter;stroke-miterlimit:4;stroke-dasharray:none;stroke-opacity:1"
       d="m 88.635539,1016.2039 3.542969,0 0,17.6504 -3.542969,0 0,-17.6504 z"
       id="path4207" />
    <path
       style="opacity:1;fill:none;fill-opacity:1;stroke:#00ff00;stroke-width:0.35433071;stroke-linejoin:miter;stroke-miterlimit:4;stroke-dasharray:none;stroke-opacity:1"
       d="m 103.53203,1016.2039 3.54297,0 0,17.6504 -3.54297,0 0,-17.6504 z"
       id="path4205" />
    <path
       style="opacity:1;fill:none;fill-opacity:1;stroke:#00ff00;stroke-width:0.35433071;stroke-linejoin:miter;stroke-miterlimit:4;stroke-dasharray:none;stroke-opacity:1"
       d="m 118.49101,1016.2039 3.54297,0 0,17.6504 -3.54297,0 0,-17.6504 z"
       id="path4203" />
    <path
       style="opacity:1;fill:none;fill-opacity:1;stroke:#00ff00;stroke-width:0.35433071;stroke-linejoin:miter;stroke-miterlimit:4;stroke-dasharray:none;stroke-opacity:1"
       d="m 133.49883,1016.2039 3.54296,0 0,17.6504 -3.54296,0 0,-17.6504 z"
       id="path4201" />
    <path
       style="opacity:1;fill:none;fill-opacity:1;stroke:#00ff00;stroke-width:0.35433071;stroke-linejoin:miter;stroke-miterlimit:4;stroke-dasharray:none;stroke-opacity:1"
       d="m 148.54961,1016.2039 3.54297,0 0,17.6504 -3.54297,0 0,-17.6504 z"
       id="path4199" />
    <path
       style="opacity:1;fill:none;fill-opacity:1;stroke:#00ff00;stroke-width:0.35433071;stroke-linejoin:miter;stroke-miterlimit:4;stroke-dasharray:none;stroke-opacity:1"
       d="m 163.6375,1016.2039 3.54297,0 0,17.6504 -3.54297,0 0,-17.6504 z"
       id="path4197" />
    <path
       style="opacity:1;fill:none;fill-opacity:1;stroke:#00ff00;stroke-width:0.35433071;stroke-linejoin:miter;stroke-miterlimit:4;stroke-dasharray:none;stroke-opacity:1"
       d="m 178.76054,1016.2039 3.54297,0 0,17.6504 -3.54297,0 0,-17.6504 z"
       id="path4195" />
    <path
       style="opacity:1;fill:none;fill-opacity:1;stroke:#00ff00;stroke-width:0.35433071;stroke-linejoin:miter;stroke-miterlimit:4;stroke-dasharray:none;stroke-opacity:1"
       d="m 193.91289,1016.2039 3.54297,0 0,17.6504 -3.54297,0 0,-17.6504 z"
       id="path4193" />
    <path
       style="opacity:1;fill:none;fill-opacity:1;stroke:#00ff00;stroke-width:0.35433071;stroke-linejoin:miter;stroke-miterlimit:4;stroke-dasharray:none;stroke-opacity:1"
       d="m 209.09258,1016.2039 3.54296,0 0,17.6504 -3.54296,0 0,-17.6504 z"
       id="path4191" />
    <path
       style="opacity:1;fill:none;fill-opacity:1;stroke:#00ff00;stroke-width:0.35433071;stroke-linejoin:miter;stroke-miterlimit:4;stroke-dasharray:none;stroke-opacity:1"
       d="m 224.29961,1016.2039 3.54297,0 0,17.6504 -3.54297,0 0,-17.6504 z"
       id="path4189" />
    <path
       style="opacity:1;fill:none;fill-opacity:1;stroke:#00ff00;stroke-width:0.35433071;stroke-linejoin:miter;stroke-miterlimit:4;stroke-dasharray:none;stroke-opacity:1"
       d="m 239.52812,1016.2039 3.54297,0 0,17.6504 -3.54297,0 0,-17.6504 z"
       id="path4187" />
    <path
       style="opacity:1;fill:none;fill-opacity:1;stroke:#00ff00;stroke-width:0.35433071;stroke-linejoin:miter;stroke-miterlimit:4;stroke-dasharray:none;stroke-opacity:1"
       d="m 254.77812,1016.2039 3.54492,0 0,17.6504 -3.54492,0 0,-17.6504 z"
       id="path4185" />
    <path
       style="opacity:1;fill:none;fill-opacity:1;stroke:#00ff00;stroke-width:0.35433071;stroke-linejoin:miter;stroke-miterlimit:4;stroke-dasharray:none;stroke-opacity:1"
       d="m 270.04961,1016.2039 3.54297,0 0,17.6504 -3.54297,0 0,-17.6504 z"
       id="path4183" />
    <path
       style="opacity:1;fill:none;fill-opacity:1;stroke:#00ff00;stroke-width:0.35433071;stroke-linejoin:miter;stroke-miterlimit:4;stroke-dasharray:none;stroke-opacity:1"
       d="m 22.528117,1016.9519 10.63086,0 0,17.6524 -10.63086,0 0,-17.6524 z"
       id="path4181" />
    <path
       style="opacity:1;fill:none;fill-opacity:1;stroke:#00ff00;stroke-width:0.35433071;stroke-linejoin:miter;stroke-miterlimit:4;stroke-dasharray:none;stroke-opacity:1"
       d="m 295.58281,1016.9519 10.63086,0 0,17.6524 -10.63086,0 0,-17.6524 z"
       id="rect6806" />
  </g>
  <g
     inkscape:groupmode="layer"
     id="layer4"
     inkscape:label="Union">
    <g
       transform="matrix(0,-1,1,0,11.508671,5.6922017)"
       style="font-style:normal;font-weight:normal;font-size:40px;line-height:125%;font-family:sans-serif;letter-spacing:0px;word-spacing:0px;fill:#000000;fill-opacity:1;stroke:#00ff00;stroke-width:0.35433071;stroke-linecap:butt;stroke-linejoin:miter;stroke-miterlimit:4;stroke-dasharray:none;stroke-opacity:1"
       id="text6564"
       inkscape:export-filename="C:\Users\Jörn\Documents\28__FabAcademy Preparation\1 Lecture\joern.kiwitt\images\text6564.png"
       inkscape:export-xdpi="90"
       inkscape:export-ydpi="90">
      <path
         d="m -168.80296,88.419767 q 0,7.84901 -4.80551,12.093863 -4.76546,4.24486 -12.81468,4.24486 -1.92221,0 -5.12588,-0.36041 -3.20367,-0.32036 -5.36615,-0.8009 l 0,-7.408493 0.44049,0 q 1.64188,0.56063 4.04465,1.16132 2.40274,0.60069 4.92563,0.60069 3.68424,0 5.8467,-0.84097 2.20253,-0.84095 3.24373,-2.40275 1.08124,-1.60183 1.36156,-3.92449 0.32037,-2.32268 0.32037,-5.366155 l 0,-34.79989 -12.61447,0 0,-6.327236 20.54356,0 0,44.130561 z"
         style="fill:none;fill-opacity:1;stroke:#00ff00;stroke-width:0.35433071;stroke-miterlimit:4;stroke-dasharray:none;stroke-opacity:1"
         id="path6569"
         inkscape:connector-curvature="0"
         inkscape:export-filename="C:\Users\Jörn\Documents\28__FabAcademy Preparation\1 Lecture\joern.kiwitt\images\100x100_v04.png"
         inkscape:export-xdpi="90"
         inkscape:export-ydpi="90" />
      <path
         style="fill:none;fill-opacity:1;stroke:#00ff00;stroke-width:0.35433071;stroke-miterlimit:4;stroke-dasharray:none;stroke-opacity:1"
         d="m 81.572266,115.82227 c -7.288351,0 -13.041595,1.86784 -17.259766,5.60546 -3.492216,3.0749 -5.544863,7.01125 -6.164062,11.80274 l 6.640624,0 c 0.575769,-2.52684 1.863194,-4.61213 3.888672,-6.23633 2.803212,-2.26927 7.101228,-3.40234 12.894532,-3.40234 5.659814,0 9.931139,1.14739 12.814453,3.44336 2.03931,1.62002 3.336389,3.69108 3.919922,6.19531 l 6.648439,0 c -0.61504,-4.79158 -2.65279,-8.72784 -6.123049,-11.80274 -4.218166,-3.73762 -9.971411,-5.60546 -17.259765,-5.60546 z m -37.683594,8.36914 0,7.96875 7.808594,0 0,-7.96875 -7.808594,0 z m 14.259766,15.50976 c 0.621222,4.82172 2.674985,8.76965 6.164062,11.8418 4.218171,3.71091 9.971415,5.56641 17.259766,5.56641 7.288354,0 13.041599,-1.8555 17.259765,-5.56641 3.466699,-3.07176 5.503759,-7.02083 6.121089,-11.8418 l -6.648432,0 c -0.589294,2.53191 -1.900673,4.61636 -3.958985,6.23633 -2.910007,2.26927 -7.167017,3.40234 -12.773437,3.40234 -5.793304,0 -10.09132,-1.1207 -12.894532,-3.36328 -2.025438,-1.62416 -3.312885,-3.72125 -3.888672,-6.27539 l -6.640624,0 z m -14.259766,1.0293 0,7.96875 7.808594,0 0,-7.96875 -7.808594,0 z"
         transform="matrix(0,1,-1,0,0,0)"
         id="path6571"
         inkscape:connector-curvature="0" />
      <path
         d="m -76.216851,67.395685 -0.400474,0 q -1.681923,-0.400475 -3.283761,-0.560648 -1.561792,-0.200319 -3.724276,-0.200319 -3.483974,0 -6.72771,1.561792 -3.243715,1.52175 -6.247149,3.964557 l 0,31.756393 -7.528639,0 0,-44.731273 7.528639,0 0,6.60758 q 4.48514,-3.604146 7.889049,-5.085831 3.443931,-1.521749 7.008013,-1.521749 1.962267,0 2.843263,0.12015 0.881015,0.08017 2.643045,0.360431 l 0,7.728855 z"
         style="fill:none;fill-opacity:1;stroke:#00ff00;stroke-width:0.35433071;stroke-miterlimit:4;stroke-dasharray:none;stroke-opacity:1"
         id="path6573"
         inkscape:connector-curvature="0" />
      <path
         d="m -31.645781,103.91754 -7.528628,0 0,-25.469199 q 0,-3.083521 -0.360413,-5.766608 -0.360413,-2.723111 -1.321514,-4.24486 -1.001147,-1.681923 -2.883304,-2.482851 -1.882158,-0.840951 -4.885601,-0.840951 -3.083533,0 -6.447388,1.521729 -3.363855,1.521749 -6.447389,3.884449 l 0,33.398291 -7.528628,0 0,-44.731271 7.528628,0 0,4.965701 q 3.524039,-2.923368 7.288352,-4.565247 3.764315,-1.64188 7.728859,-1.64188 7.248307,0 11.052667,4.365011 3.804359,4.364989 3.804359,12.574405 l 0,29.033281 z"
         style="fill:none;fill-opacity:1;stroke:#00ff00;stroke-width:0.35433071;stroke-miterlimit:4;stroke-dasharray:none;stroke-opacity:1"
         id="path6575"
         inkscape:connector-curvature="0" />
    </g>
  </g>
</svg>
