<?xml version="1.0" encoding="utf-8"?>
<!DOCTYPE eagle SYSTEM "eagle.dtd">
<eagle version="7.7.0">
<drawing>
<settings>
<setting alwaysvectorfont="no"/>
<setting verticaltext="up"/>
</settings>
<grid distance="0.001" unitdist="inch" unit="inch" style="lines" multiple="1" display="no" altdistance="0.001" altunitdist="inch" altunit="inch"/>
<layers>
<layer number="1" name="Top" color="4" fill="1" visible="yes" active="yes"/>
<layer number="16" name="Bottom" color="1" fill="1" visible="no" active="yes"/>
<layer number="17" name="Pads" color="2" fill="1" visible="yes" active="yes"/>
<layer number="18" name="Vias" color="2" fill="1" visible="no" active="yes"/>
<layer number="19" name="Unrouted" color="6" fill="1" visible="no" active="yes"/>
<layer number="20" name="Dimension" color="15" fill="1" visible="no" active="yes"/>
<layer number="21" name="tPlace" color="7" fill="1" visible="no" active="yes"/>
<layer number="22" name="bPlace" color="7" fill="1" visible="no" active="yes"/>
<layer number="23" name="tOrigins" color="15" fill="1" visible="no" active="yes"/>
<layer number="24" name="bOrigins" color="15" fill="1" visible="no" active="yes"/>
<layer number="25" name="tNames" color="7" fill="1" visible="no" active="yes"/>
<layer number="26" name="bNames" color="7" fill="1" visible="no" active="yes"/>
<layer number="27" name="tValues" color="7" fill="1" visible="no" active="yes"/>
<layer number="28" name="bValues" color="7" fill="1" visible="no" active="yes"/>
<layer number="29" name="tStop" color="7" fill="3" visible="no" active="yes"/>
<layer number="30" name="bStop" color="7" fill="6" visible="no" active="yes"/>
<layer number="31" name="tCream" color="7" fill="4" visible="no" active="yes"/>
<layer number="32" name="bCream" color="7" fill="5" visible="no" active="yes"/>
<layer number="33" name="tFinish" color="6" fill="3" visible="no" active="yes"/>
<layer number="34" name="bFinish" color="6" fill="6" visible="no" active="yes"/>
<layer number="35" name="tGlue" color="7" fill="4" visible="no" active="yes"/>
<layer number="36" name="bGlue" color="7" fill="5" visible="no" active="yes"/>
<layer number="37" name="tTest" color="7" fill="1" visible="no" active="yes"/>
<layer number="38" name="bTest" color="7" fill="1" visible="no" active="yes"/>
<layer number="39" name="tKeepout" color="4" fill="11" visible="no" active="yes"/>
<layer number="40" name="bKeepout" color="1" fill="11" visible="no" active="yes"/>
<layer number="41" name="tRestrict" color="4" fill="10" visible="no" active="yes"/>
<layer number="42" name="bRestrict" color="1" fill="10" visible="no" active="yes"/>
<layer number="43" name="vRestrict" color="2" fill="10" visible="no" active="yes"/>
<layer number="44" name="Drills" color="7" fill="1" visible="no" active="yes"/>
<layer number="45" name="Holes" color="7" fill="1" visible="no" active="yes"/>
<layer number="46" name="Milling" color="3" fill="1" visible="no" active="yes"/>
<layer number="47" name="Measures" color="7" fill="1" visible="no" active="yes"/>
<layer number="48" name="Document" color="7" fill="1" visible="no" active="yes"/>
<layer number="49" name="Reference" color="7" fill="1" visible="no" active="yes"/>
<layer number="50" name="dxf" color="7" fill="1" visible="no" active="no"/>
<layer number="51" name="tDocu" color="7" fill="1" visible="no" active="yes"/>
<layer number="52" name="bDocu" color="7" fill="1" visible="no" active="yes"/>
<layer number="53" name="tGND_GNDA" color="7" fill="9" visible="no" active="no"/>
<layer number="54" name="bGND_GNDA" color="1" fill="9" visible="no" active="no"/>
<layer number="56" name="wert" color="7" fill="1" visible="no" active="no"/>
<layer number="90" name="Modules" color="5" fill="1" visible="no" active="no"/>
<layer number="91" name="Nets" color="2" fill="1" visible="no" active="no"/>
<layer number="92" name="Busses" color="1" fill="1" visible="no" active="no"/>
<layer number="93" name="Pins" color="2" fill="1" visible="no" active="no"/>
<layer number="94" name="Symbols" color="4" fill="1" visible="no" active="no"/>
<layer number="95" name="Names" color="7" fill="1" visible="no" active="no"/>
<layer number="96" name="Values" color="7" fill="1" visible="no" active="no"/>
<layer number="97" name="Info" color="7" fill="1" visible="no" active="no"/>
<layer number="98" name="Guide" color="6" fill="1" visible="no" active="no"/>
<layer number="99" name="SpiceOrder" color="5" fill="1" visible="no" active="no"/>
<layer number="100" name="Muster" color="7" fill="1" visible="no" active="no"/>
<layer number="101" name="Patch_Top" color="12" fill="4" visible="no" active="yes"/>
<layer number="102" name="Vscore" color="7" fill="1" visible="no" active="yes"/>
<layer number="103" name="tMap" color="7" fill="1" visible="no" active="yes"/>
<layer number="104" name="Name" color="16" fill="1" visible="no" active="yes"/>
<layer number="105" name="tPlate" color="7" fill="1" visible="no" active="yes"/>
<layer number="106" name="bPlate" color="7" fill="1" visible="no" active="yes"/>
<layer number="107" name="Crop" color="7" fill="1" visible="no" active="yes"/>
<layer number="116" name="Patch_BOT" color="9" fill="4" visible="no" active="yes"/>
<layer number="121" name="_tsilk" color="7" fill="1" visible="no" active="yes"/>
<layer number="122" name="_bsilk" color="7" fill="1" visible="no" active="yes"/>
<layer number="151" name="HeatSink" color="7" fill="1" visible="no" active="yes"/>
<layer number="200" name="200bmp" color="1" fill="10" visible="no" active="yes"/>
<layer number="201" name="201bmp" color="2" fill="10" visible="no" active="yes"/>
<layer number="202" name="202bmp" color="3" fill="10" visible="no" active="yes"/>
<layer number="203" name="203bmp" color="4" fill="10" visible="no" active="yes"/>
<layer number="204" name="204bmp" color="5" fill="10" visible="no" active="yes"/>
<layer number="205" name="205bmp" color="6" fill="10" visible="no" active="yes"/>
<layer number="206" name="206bmp" color="7" fill="10" visible="no" active="yes"/>
<layer number="207" name="207bmp" color="8" fill="10" visible="no" active="yes"/>
<layer number="208" name="208bmp" color="9" fill="10" visible="no" active="yes"/>
<layer number="250" name="Descript" color="3" fill="1" visible="no" active="no"/>
<layer number="251" name="SMDround" color="12" fill="11" visible="no" active="no"/>
<layer number="254" name="cooling" color="7" fill="1" visible="no" active="yes"/>
</layers>
<board>
<plain>
<wire x1="13.081" y1="-9.525" x2="103.937" y2="-9.271" width="0" layer="20"/>
<wire x1="103.937" y1="-9.271" x2="103.937" y2="64.76" width="0" layer="20"/>
<wire x1="103.937" y1="64.76" x2="13.081" y2="64.633" width="0" layer="20"/>
<wire x1="13.081" y1="64.633" x2="13.081" y2="-9.525" width="0" layer="20"/>
</plain>
<libraries>
<library name="AVX_By_element14_Batch_1">
<description>Developed by element14 :&lt;br&gt;
element14 CAD Library consolidation.ulp
at 30/04/2012 16:26:10</description>
<packages>
<package name="CAPC3216X178N">
<smd name="1" x="-1.4986" y="0" dx="1.1176" dy="1.8034" layer="1"/>
<smd name="2" x="1.4986" y="0" dx="1.1176" dy="1.8034" layer="1"/>
<wire x1="-0.6096" y1="-0.889" x2="0.6096" y2="-0.889" width="0.1524" layer="21"/>
<wire x1="0.6096" y1="0.889" x2="-0.6096" y2="0.889" width="0.1524" layer="21"/>
<wire x1="-0.9398" y1="-0.889" x2="-0.9398" y2="0.889" width="0.1524" layer="51"/>
<wire x1="-0.9398" y1="0.889" x2="-1.7018" y2="0.889" width="0.1524" layer="51"/>
<wire x1="-1.7018" y1="-0.889" x2="-0.9398" y2="-0.889" width="0.1524" layer="51"/>
<wire x1="0.9398" y1="0.889" x2="0.9398" y2="-0.889" width="0.1524" layer="51"/>
<wire x1="0.9398" y1="-0.889" x2="1.7018" y2="-0.889" width="0.1524" layer="51"/>
<wire x1="1.7018" y1="0.889" x2="0.9398" y2="0.889" width="0.1524" layer="51"/>
<wire x1="-0.9398" y1="-0.889" x2="0.9398" y2="-0.889" width="0.1524" layer="51"/>
<wire x1="1.7018" y1="-0.889" x2="1.7018" y2="0.889" width="0.1524" layer="51"/>
<wire x1="0.9398" y1="0.889" x2="-0.9398" y2="0.889" width="0.1524" layer="51"/>
<wire x1="-1.7018" y1="0.889" x2="-1.7018" y2="-0.889" width="0.1524" layer="51"/>
<text x="-4.4958" y="1.6764" size="2.0828" layer="25" ratio="10" rot="SR0">&gt;NAME</text>
<text x="-5.7404" y="-3.8354" size="2.0828" layer="27" ratio="10" rot="SR0">&gt;VALUE</text>
</package>
</packages>
</library>
<library name="atmega8">
<packages>
<package name="TQFP32-08">
<description>&lt;B&gt;Thin Plasic Quad Flat Package&lt;/B&gt; Grid 0.8 mm</description>
<wire x1="3.505" y1="3.505" x2="3.505" y2="-3.505" width="0.1524" layer="21"/>
<wire x1="3.505" y1="-3.505" x2="-3.505" y2="-3.505" width="0.1524" layer="21"/>
<wire x1="-3.505" y1="-3.505" x2="-3.505" y2="3.15" width="0.1524" layer="21"/>
<wire x1="-3.15" y1="3.505" x2="3.505" y2="3.505" width="0.1524" layer="21"/>
<wire x1="-3.15" y1="3.505" x2="-3.505" y2="3.15" width="0.1524" layer="21"/>
<circle x="-2.7432" y="2.7432" radius="0.3592" width="0.1524" layer="21"/>
<smd name="1" x="-4.4196" y="2.8" dx="1.016" dy="0.4064" layer="1"/>
<smd name="2" x="-4.1656" y="2" dx="1.524" dy="0.3556" layer="1"/>
<smd name="3" x="-4.1656" y="1.2" dx="1.524" dy="0.3556" layer="1"/>
<smd name="4" x="-4.1656" y="0.4" dx="1.524" dy="0.3556" layer="1"/>
<smd name="5" x="-4.1656" y="-0.4" dx="1.524" dy="0.3556" layer="1"/>
<smd name="6" x="-4.1656" y="-1.2" dx="1.524" dy="0.3556" layer="1"/>
<smd name="7" x="-4.1656" y="-2" dx="1.524" dy="0.3556" layer="1"/>
<smd name="8" x="-4.4196" y="-2.8" dx="1.016" dy="0.4064" layer="1"/>
<smd name="9" x="-2.8" y="-4.4196" dx="0.4064" dy="1.016" layer="1"/>
<smd name="10" x="-2" y="-4.1656" dx="0.3556" dy="1.524" layer="1"/>
<smd name="11" x="-1.2" y="-4.1656" dx="0.3556" dy="1.524" layer="1"/>
<smd name="12" x="-0.4" y="-4.1656" dx="0.3556" dy="1.524" layer="1"/>
<smd name="13" x="0.4" y="-4.1656" dx="0.3556" dy="1.524" layer="1"/>
<smd name="14" x="1.2" y="-4.1656" dx="0.3556" dy="1.524" layer="1"/>
<smd name="15" x="2" y="-4.1656" dx="0.3556" dy="1.524" layer="1"/>
<smd name="16" x="2.8" y="-4.4196" dx="0.4064" dy="1.016" layer="1"/>
<smd name="17" x="4.4196" y="-2.8" dx="1.016" dy="0.4064" layer="1"/>
<smd name="18" x="4.1656" y="-2" dx="1.524" dy="0.3556" layer="1"/>
<smd name="19" x="4.1656" y="-1.2" dx="1.524" dy="0.3556" layer="1"/>
<smd name="20" x="4.1656" y="-0.4" dx="1.524" dy="0.3556" layer="1"/>
<smd name="21" x="4.1656" y="0.4" dx="1.524" dy="0.3556" layer="1"/>
<smd name="22" x="4.1656" y="1.2" dx="1.524" dy="0.3556" layer="1"/>
<smd name="23" x="4.1656" y="2" dx="1.524" dy="0.3556" layer="1"/>
<smd name="24" x="4.4196" y="2.8" dx="1.016" dy="0.4064" layer="1"/>
<smd name="25" x="2.8" y="4.4196" dx="0.4064" dy="1.016" layer="1"/>
<smd name="26" x="2" y="4.1656" dx="0.3556" dy="1.524" layer="1"/>
<smd name="27" x="1.2" y="4.1656" dx="0.3556" dy="1.524" layer="1"/>
<smd name="28" x="0.4" y="4.1656" dx="0.3556" dy="1.524" layer="1"/>
<smd name="29" x="-0.4" y="4.1656" dx="0.3556" dy="1.524" layer="1"/>
<smd name="30" x="-1.2" y="4.1656" dx="0.3556" dy="1.524" layer="1"/>
<smd name="31" x="-2" y="4.1656" dx="0.3556" dy="1.524" layer="1"/>
<smd name="32" x="-2.8" y="4.4196" dx="0.4064" dy="1.016" layer="1"/>
<text x="-2.7686" y="5.08" size="0.8128" layer="25">&gt;NAME</text>
<text x="-3.0226" y="-1.27" size="0.8128" layer="27">&gt;VALUE</text>
<rectangle x1="-4.5466" y1="2.5714" x2="-3.556" y2="3.0286" layer="51"/>
<rectangle x1="-4.5466" y1="1.7714" x2="-3.556" y2="2.2286" layer="51"/>
<rectangle x1="-4.5466" y1="0.9714" x2="-3.556" y2="1.4286" layer="51"/>
<rectangle x1="-4.5466" y1="0.1714" x2="-3.556" y2="0.6286" layer="51"/>
<rectangle x1="-4.5466" y1="-0.6286" x2="-3.556" y2="-0.1714" layer="51"/>
<rectangle x1="-4.5466" y1="-1.4286" x2="-3.556" y2="-0.9714" layer="51"/>
<rectangle x1="-4.5466" y1="-2.2286" x2="-3.556" y2="-1.7714" layer="51"/>
<rectangle x1="-4.5466" y1="-3.0286" x2="-3.556" y2="-2.5714" layer="51"/>
<rectangle x1="-3.0286" y1="-4.5466" x2="-2.5714" y2="-3.556" layer="51"/>
<rectangle x1="-2.2286" y1="-4.5466" x2="-1.7714" y2="-3.556" layer="51"/>
<rectangle x1="-1.4286" y1="-4.5466" x2="-0.9714" y2="-3.556" layer="51"/>
<rectangle x1="-0.6286" y1="-4.5466" x2="-0.1714" y2="-3.556" layer="51"/>
<rectangle x1="0.1714" y1="-4.5466" x2="0.6286" y2="-3.556" layer="51"/>
<rectangle x1="0.9714" y1="-4.5466" x2="1.4286" y2="-3.556" layer="51"/>
<rectangle x1="1.7714" y1="-4.5466" x2="2.2286" y2="-3.556" layer="51"/>
<rectangle x1="2.5714" y1="-4.5466" x2="3.0286" y2="-3.556" layer="51"/>
<rectangle x1="3.556" y1="-3.0286" x2="4.5466" y2="-2.5714" layer="51"/>
<rectangle x1="3.556" y1="-2.2286" x2="4.5466" y2="-1.7714" layer="51"/>
<rectangle x1="3.556" y1="-1.4286" x2="4.5466" y2="-0.9714" layer="51"/>
<rectangle x1="3.556" y1="-0.6286" x2="4.5466" y2="-0.1714" layer="51"/>
<rectangle x1="3.556" y1="0.1714" x2="4.5466" y2="0.6286" layer="51"/>
<rectangle x1="3.556" y1="0.9714" x2="4.5466" y2="1.4286" layer="51"/>
<rectangle x1="3.556" y1="1.7714" x2="4.5466" y2="2.2286" layer="51"/>
<rectangle x1="3.556" y1="2.5714" x2="4.5466" y2="3.0286" layer="51"/>
<rectangle x1="2.5714" y1="3.556" x2="3.0286" y2="4.5466" layer="51"/>
<rectangle x1="1.7714" y1="3.556" x2="2.2286" y2="4.5466" layer="51"/>
<rectangle x1="0.9714" y1="3.556" x2="1.4286" y2="4.5466" layer="51"/>
<rectangle x1="0.1714" y1="3.556" x2="0.6286" y2="4.5466" layer="51"/>
<rectangle x1="-0.6286" y1="3.556" x2="-0.1714" y2="4.5466" layer="51"/>
<rectangle x1="-1.4286" y1="3.556" x2="-0.9714" y2="4.5466" layer="51"/>
<rectangle x1="-2.2286" y1="3.556" x2="-1.7714" y2="4.5466" layer="51"/>
<rectangle x1="-3.0286" y1="3.556" x2="-2.5714" y2="4.5466" layer="51"/>
</package>
</packages>
</library>
<library name="01_FAB_Hello">
<packages>
<package name="CSM-7X-DU">
<description>&lt;b&gt;SMD CRYSTAL&lt;/b&gt;&lt;p&gt;
Source: www.ecsxtal.com .. Crystal 3.6864MHz CSM_7X_DU.PDF</description>
<wire x1="-5.575" y1="2.3" x2="-2.725" y2="2.3" width="0.2032" layer="51"/>
<wire x1="-2.725" y1="2.3" x2="2.75" y2="2.3" width="0.2032" layer="51"/>
<wire x1="2.75" y1="2.3" x2="5.55" y2="2.3" width="0.2032" layer="51"/>
<wire x1="5.55" y1="2.3" x2="5.55" y2="-2.3" width="0.2032" layer="51"/>
<wire x1="5.55" y1="-2.3" x2="-2.75" y2="-2.3" width="0.2032" layer="51"/>
<wire x1="-2.75" y1="-2.3" x2="-5.575" y2="-2.3" width="0.2032" layer="51"/>
<wire x1="-5.575" y1="-2.3" x2="-5.575" y2="2.3" width="0.2032" layer="51"/>
<wire x1="-2.75" y1="-2.3" x2="-2.725" y2="2.3" width="0.2032" layer="51" curve="-180"/>
<wire x1="2.75" y1="2.3" x2="2.725" y2="-2.3" width="0.2032" layer="51" curve="-180"/>
<smd name="1" x="-4.75" y="0" dx="5.5" dy="2" layer="1"/>
<smd name="2" x="4.75" y="0" dx="5.5" dy="2" layer="1"/>
<text x="-7.6288" y="2.5334" size="1.27" layer="25">&gt;NAME</text>
<text x="-7.6288" y="-4.3114" size="1.27" layer="27">&gt;VALUE</text>
</package>
<package name="6MM_SWITCH">
<description>&lt;b&gt;OMRON SWITCH&lt;/b&gt;</description>
<wire x1="3.302" y1="-0.762" x2="3.048" y2="-0.762" width="0.1524" layer="21"/>
<wire x1="3.302" y1="-0.762" x2="3.302" y2="0.762" width="0.1524" layer="21"/>
<wire x1="3.048" y1="0.762" x2="3.302" y2="0.762" width="0.1524" layer="21"/>
<wire x1="3.048" y1="1.016" x2="3.048" y2="2.54" width="0.1524" layer="51"/>
<wire x1="-3.302" y1="0.762" x2="-3.048" y2="0.762" width="0.1524" layer="21"/>
<wire x1="-3.302" y1="0.762" x2="-3.302" y2="-0.762" width="0.1524" layer="21"/>
<wire x1="-3.048" y1="-0.762" x2="-3.302" y2="-0.762" width="0.1524" layer="21"/>
<wire x1="3.048" y1="2.54" x2="2.54" y2="3.048" width="0.1524" layer="51"/>
<wire x1="2.54" y1="-3.048" x2="3.048" y2="-2.54" width="0.1524" layer="51"/>
<wire x1="3.048" y1="-2.54" x2="3.048" y2="-1.016" width="0.1524" layer="51"/>
<wire x1="-2.54" y1="3.048" x2="-3.048" y2="2.54" width="0.1524" layer="51"/>
<wire x1="-3.048" y1="2.54" x2="-3.048" y2="1.016" width="0.1524" layer="51"/>
<wire x1="-2.54" y1="-3.048" x2="-3.048" y2="-2.54" width="0.1524" layer="51"/>
<wire x1="-3.048" y1="-2.54" x2="-3.048" y2="-1.016" width="0.1524" layer="51"/>
<wire x1="-1.27" y1="1.27" x2="-1.27" y2="-1.27" width="0.0508" layer="51"/>
<wire x1="1.27" y1="-1.27" x2="-1.27" y2="-1.27" width="0.0508" layer="51"/>
<wire x1="1.27" y1="-1.27" x2="1.27" y2="1.27" width="0.0508" layer="51"/>
<wire x1="-1.27" y1="1.27" x2="1.27" y2="1.27" width="0.0508" layer="51"/>
<wire x1="-1.27" y1="3.048" x2="-1.27" y2="2.794" width="0.0508" layer="21"/>
<wire x1="1.27" y1="2.794" x2="-1.27" y2="2.794" width="0.0508" layer="21"/>
<wire x1="1.27" y1="2.794" x2="1.27" y2="3.048" width="0.0508" layer="21"/>
<wire x1="1.143" y1="-2.794" x2="-1.27" y2="-2.794" width="0.0508" layer="21"/>
<wire x1="1.143" y1="-2.794" x2="1.143" y2="-3.048" width="0.0508" layer="21"/>
<wire x1="-1.27" y1="-2.794" x2="-1.27" y2="-3.048" width="0.0508" layer="21"/>
<wire x1="2.54" y1="-3.048" x2="2.159" y2="-3.048" width="0.1524" layer="51"/>
<wire x1="-2.54" y1="-3.048" x2="-2.159" y2="-3.048" width="0.1524" layer="51"/>
<wire x1="-2.159" y1="-3.048" x2="-1.27" y2="-3.048" width="0.1524" layer="21"/>
<wire x1="-2.54" y1="3.048" x2="-2.159" y2="3.048" width="0.1524" layer="51"/>
<wire x1="2.54" y1="3.048" x2="2.159" y2="3.048" width="0.1524" layer="51"/>
<wire x1="2.159" y1="3.048" x2="1.27" y2="3.048" width="0.1524" layer="21"/>
<wire x1="1.27" y1="3.048" x2="-1.27" y2="3.048" width="0.1524" layer="21"/>
<wire x1="-1.27" y1="3.048" x2="-2.159" y2="3.048" width="0.1524" layer="21"/>
<wire x1="-1.27" y1="-3.048" x2="1.143" y2="-3.048" width="0.1524" layer="21"/>
<wire x1="1.143" y1="-3.048" x2="2.159" y2="-3.048" width="0.1524" layer="21"/>
<wire x1="3.048" y1="-0.762" x2="3.048" y2="-1.016" width="0.1524" layer="21"/>
<wire x1="3.048" y1="0.762" x2="3.048" y2="1.016" width="0.1524" layer="21"/>
<wire x1="-3.048" y1="-0.762" x2="-3.048" y2="-1.016" width="0.1524" layer="21"/>
<wire x1="-3.048" y1="0.762" x2="-3.048" y2="1.016" width="0.1524" layer="21"/>
<wire x1="-1.27" y1="-2.159" x2="1.27" y2="-2.159" width="0.1524" layer="51"/>
<wire x1="1.27" y1="2.286" x2="-1.27" y2="2.286" width="0.1524" layer="51"/>
<wire x1="-2.413" y1="1.27" x2="-2.413" y2="0.508" width="0.1524" layer="51"/>
<wire x1="-2.413" y1="-0.508" x2="-2.413" y2="-1.27" width="0.1524" layer="51"/>
<wire x1="-2.413" y1="0.508" x2="-2.159" y2="-0.381" width="0.1524" layer="51"/>
<circle x="0" y="0" radius="1.778" width="0.1524" layer="21"/>
<circle x="-2.159" y="-2.159" radius="0.508" width="0.1524" layer="51"/>
<circle x="2.159" y="-2.032" radius="0.508" width="0.1524" layer="51"/>
<circle x="2.159" y="2.159" radius="0.508" width="0.1524" layer="51"/>
<circle x="-2.159" y="2.159" radius="0.508" width="0.1524" layer="51"/>
<circle x="0" y="0" radius="0.635" width="0.0508" layer="51"/>
<circle x="0" y="0" radius="0.254" width="0.1524" layer="21"/>
<smd name="1" x="-3.302" y="2.286" dx="2.286" dy="1.524" layer="1"/>
<smd name="2" x="3.302" y="2.286" dx="2.286" dy="1.524" layer="1"/>
<smd name="3" x="-3.302" y="-2.286" dx="2.286" dy="1.524" layer="1"/>
<smd name="4" x="3.302" y="-2.286" dx="2.286" dy="1.524" layer="1"/>
<text x="-3.048" y="3.683" size="1.27" layer="25" ratio="10">&gt;NAME</text>
<text x="-3.048" y="-5.08" size="1.27" layer="27" ratio="10">&gt;VALUE</text>
<text x="-4.318" y="1.651" size="1.27" layer="51" ratio="10">1</text>
<text x="3.556" y="1.524" size="1.27" layer="51" ratio="10">2</text>
<text x="-4.572" y="-2.794" size="1.27" layer="51" ratio="10">3</text>
<text x="3.556" y="-2.794" size="1.27" layer="51" ratio="10">4</text>
</package>
<package name="1206">
<description>&lt;b&gt;RESISTOR&lt;/b&gt;&lt;p&gt;
chip</description>
<wire x1="0.9525" y1="-0.8128" x2="-0.9652" y2="-0.8128" width="0.1524" layer="51"/>
<wire x1="0.9525" y1="0.8128" x2="-0.9652" y2="0.8128" width="0.1524" layer="51"/>
<wire x1="-2.3206" y1="0.983" x2="2.3206" y2="0.983" width="0.0508" layer="39"/>
<wire x1="2.3206" y1="0.983" x2="2.3206" y2="-0.983" width="0.0508" layer="39"/>
<wire x1="2.3206" y1="-0.983" x2="-2.3206" y2="-0.983" width="0.0508" layer="39"/>
<wire x1="-2.3206" y1="-0.983" x2="-2.3206" y2="0.983" width="0.0508" layer="39"/>
<smd name="2" x="1.422" y="0" dx="1.6" dy="1.803" layer="1"/>
<smd name="1" x="-1.422" y="0" dx="1.6" dy="1.803" layer="1"/>
<text x="-1.397" y="1.143" size="1.27" layer="25">&gt;NAME</text>
<text x="-1.397" y="-2.413" size="1.27" layer="27">&gt;VALUE</text>
<rectangle x1="-1.6891" y1="-0.8763" x2="-0.9525" y2="0.8763" layer="51"/>
<rectangle x1="0.9525" y1="-0.8763" x2="1.6891" y2="0.8763" layer="51"/>
<rectangle x1="-0.3" y1="-0.7" x2="0.3" y2="0.7" layer="35"/>
</package>
</packages>
</library>
<library name="01_SparkFun">
<description>&lt;h3&gt;SparkFun Electronics' preferred foot prints&lt;/h3&gt;
We've spent an enormous amount of time creating and checking these footprints and parts. If you enjoy using this library, please buy one of our products at www.sparkfun.com.
&lt;br&gt;&lt;br&gt;
&lt;b&gt;Licensing:&lt;/b&gt; CC v3.0 Share-Alike You are welcome to use this library for commercial purposes. For attribution, we ask that when you begin to sell your device using our footprint, you email us with a link to the product being sold. We want bragging rights that we helped (in a very small part) to create your 8th world wonder. We would like the opportunity to feature your device on our homepage.</description>
<packages>
<package name="1206">
<wire x1="-2.473" y1="0.983" x2="2.473" y2="0.983" width="0.0508" layer="39"/>
<wire x1="2.473" y1="-0.983" x2="-2.473" y2="-0.983" width="0.0508" layer="39"/>
<wire x1="-2.473" y1="-0.983" x2="-2.473" y2="0.983" width="0.0508" layer="39"/>
<wire x1="2.473" y1="0.983" x2="2.473" y2="-0.983" width="0.0508" layer="39"/>
<wire x1="-0.965" y1="0.787" x2="0.965" y2="0.787" width="0.1016" layer="51"/>
<wire x1="-0.965" y1="-0.787" x2="0.965" y2="-0.787" width="0.1016" layer="51"/>
<smd name="1" x="-1.4" y="0" dx="1.6" dy="1.8" layer="1"/>
<smd name="2" x="1.4" y="0" dx="1.6" dy="1.8" layer="1"/>
<text x="-1.27" y="1.143" size="0.4064" layer="25">&gt;NAME</text>
<text x="-1.397" y="-1.524" size="0.4064" layer="27">&gt;VALUE</text>
<rectangle x1="-1.7018" y1="-0.8509" x2="-0.9517" y2="0.8491" layer="51"/>
<rectangle x1="0.9517" y1="-0.8491" x2="1.7018" y2="0.8509" layer="51"/>
<rectangle x1="-0.1999" y1="-0.4001" x2="0.1999" y2="0.4001" layer="35"/>
</package>
<package name="1X09_LONGPADS">
<wire x1="-1.27" y1="0.635" x2="-1.27" y2="-0.635" width="0.2032" layer="21"/>
<wire x1="21.59" y1="0.635" x2="21.59" y2="-0.635" width="0.2032" layer="21"/>
<pad name="1" x="0" y="0" drill="1.016" diameter="1.8796" shape="long" rot="R90"/>
<pad name="2" x="2.54" y="0" drill="1.016" diameter="1.8796" shape="long" rot="R90"/>
<pad name="3" x="5.08" y="0" drill="1.016" diameter="1.8796" shape="long" rot="R90"/>
<pad name="4" x="7.62" y="0" drill="1.016" diameter="1.8796" shape="long" rot="R90"/>
<pad name="5" x="10.16" y="0" drill="1.016" diameter="1.8796" shape="long" rot="R90"/>
<pad name="6" x="12.7" y="0" drill="1.016" diameter="1.8796" shape="long" rot="R90"/>
<pad name="7" x="15.24" y="0" drill="1.016" diameter="1.8796" shape="long" rot="R90"/>
<pad name="8" x="17.78" y="0" drill="1.016" diameter="1.8796" shape="long" rot="R90"/>
<pad name="9" x="20.32" y="0" drill="1.016" diameter="1.8796" shape="long" rot="R90"/>
<text x="-1.3462" y="2.4638" size="1.27" layer="25" ratio="10">&gt;NAME</text>
<text x="-1.27" y="-3.81" size="1.27" layer="27">&gt;VALUE</text>
<rectangle x1="14.986" y1="-0.254" x2="15.494" y2="0.254" layer="51"/>
<rectangle x1="12.446" y1="-0.254" x2="12.954" y2="0.254" layer="51"/>
<rectangle x1="9.906" y1="-0.254" x2="10.414" y2="0.254" layer="51"/>
<rectangle x1="7.366" y1="-0.254" x2="7.874" y2="0.254" layer="51"/>
<rectangle x1="4.826" y1="-0.254" x2="5.334" y2="0.254" layer="51"/>
<rectangle x1="2.286" y1="-0.254" x2="2.794" y2="0.254" layer="51"/>
<rectangle x1="-0.254" y1="-0.254" x2="0.254" y2="0.254" layer="51"/>
<rectangle x1="17.526" y1="-0.254" x2="18.034" y2="0.254" layer="51"/>
<rectangle x1="20.066" y1="-0.254" x2="20.574" y2="0.254" layer="51"/>
</package>
<package name="1X01">
<wire x1="1.27" y1="0.635" x2="0.635" y2="1.27" width="0.2032" layer="21"/>
<wire x1="0.635" y1="1.27" x2="-0.635" y2="1.27" width="0.2032" layer="21"/>
<wire x1="-0.635" y1="1.27" x2="-1.27" y2="0.635" width="0.2032" layer="21"/>
<wire x1="-1.27" y1="0.635" x2="-1.27" y2="-0.635" width="0.2032" layer="21"/>
<wire x1="-1.27" y1="-0.635" x2="-0.635" y2="-1.27" width="0.2032" layer="21"/>
<wire x1="-0.635" y1="-1.27" x2="0.635" y2="-1.27" width="0.2032" layer="21"/>
<wire x1="0.635" y1="-1.27" x2="1.27" y2="-0.635" width="0.2032" layer="21"/>
<wire x1="1.27" y1="-0.635" x2="1.27" y2="0.635" width="0.2032" layer="21"/>
<pad name="1" x="0" y="0" drill="1.016" diameter="1.8796" rot="R90"/>
<text x="1.1938" y="1.8288" size="1.27" layer="25">&gt;NAME</text>
<text x="-1.27" y="-3.175" size="1.27" layer="27">&gt;VALUE</text>
<rectangle x1="-0.254" y1="-0.254" x2="0.254" y2="0.254" layer="51"/>
</package>
</packages>
</library>
<library name="con-molex">
<description>&lt;b&gt;Molex Connectors&lt;/b&gt;&lt;p&gt;
&lt;author&gt;Created by librarian@cadsoft.de&lt;/author&gt;</description>
<packages>
<package name="22-23-2021">
<description>.100" (2.54mm) Center Headers - 2 Pin</description>
<wire x1="-2.54" y1="3.175" x2="2.54" y2="3.175" width="0.254" layer="21"/>
<wire x1="2.54" y1="3.175" x2="2.54" y2="1.27" width="0.254" layer="21"/>
<wire x1="2.54" y1="1.27" x2="2.54" y2="-3.175" width="0.254" layer="21"/>
<wire x1="2.54" y1="-3.175" x2="-2.54" y2="-3.175" width="0.254" layer="21"/>
<wire x1="-2.54" y1="-3.175" x2="-2.54" y2="1.27" width="0.254" layer="21"/>
<wire x1="-2.54" y1="1.27" x2="-2.54" y2="3.175" width="0.254" layer="21"/>
<wire x1="-2.54" y1="1.27" x2="2.54" y2="1.27" width="0.254" layer="21"/>
<pad name="1" x="-1.27" y="0" drill="1" shape="long" rot="R90"/>
<pad name="2" x="1.27" y="0" drill="1" shape="long" rot="R90"/>
<text x="-2.54" y="3.81" size="1.016" layer="25" ratio="10">&gt;NAME</text>
<text x="-2.54" y="-5.08" size="1.016" layer="27" ratio="10">&gt;VALUE</text>
</package>
</packages>
</library>
<library name="pinhead">
<description>&lt;b&gt;Pin Header Connectors&lt;/b&gt;&lt;p&gt;
&lt;author&gt;Created by librarian@cadsoft.de&lt;/author&gt;</description>
<packages>
<package name="1X09">
<description>&lt;b&gt;PIN HEADER&lt;/b&gt;</description>
<wire x1="4.445" y1="1.27" x2="5.715" y2="1.27" width="0.1524" layer="21"/>
<wire x1="5.715" y1="1.27" x2="6.35" y2="0.635" width="0.1524" layer="21"/>
<wire x1="6.35" y1="0.635" x2="6.35" y2="-0.635" width="0.1524" layer="21"/>
<wire x1="6.35" y1="-0.635" x2="5.715" y2="-1.27" width="0.1524" layer="21"/>
<wire x1="6.35" y1="0.635" x2="6.985" y2="1.27" width="0.1524" layer="21"/>
<wire x1="6.985" y1="1.27" x2="8.255" y2="1.27" width="0.1524" layer="21"/>
<wire x1="8.255" y1="1.27" x2="8.89" y2="0.635" width="0.1524" layer="21"/>
<wire x1="8.89" y1="0.635" x2="8.89" y2="-0.635" width="0.1524" layer="21"/>
<wire x1="8.89" y1="-0.635" x2="8.255" y2="-1.27" width="0.1524" layer="21"/>
<wire x1="8.255" y1="-1.27" x2="6.985" y2="-1.27" width="0.1524" layer="21"/>
<wire x1="6.985" y1="-1.27" x2="6.35" y2="-0.635" width="0.1524" layer="21"/>
<wire x1="1.27" y1="0.635" x2="1.905" y2="1.27" width="0.1524" layer="21"/>
<wire x1="1.905" y1="1.27" x2="3.175" y2="1.27" width="0.1524" layer="21"/>
<wire x1="3.175" y1="1.27" x2="3.81" y2="0.635" width="0.1524" layer="21"/>
<wire x1="3.81" y1="0.635" x2="3.81" y2="-0.635" width="0.1524" layer="21"/>
<wire x1="3.81" y1="-0.635" x2="3.175" y2="-1.27" width="0.1524" layer="21"/>
<wire x1="3.175" y1="-1.27" x2="1.905" y2="-1.27" width="0.1524" layer="21"/>
<wire x1="1.905" y1="-1.27" x2="1.27" y2="-0.635" width="0.1524" layer="21"/>
<wire x1="4.445" y1="1.27" x2="3.81" y2="0.635" width="0.1524" layer="21"/>
<wire x1="3.81" y1="-0.635" x2="4.445" y2="-1.27" width="0.1524" layer="21"/>
<wire x1="5.715" y1="-1.27" x2="4.445" y2="-1.27" width="0.1524" layer="21"/>
<wire x1="-3.175" y1="1.27" x2="-1.905" y2="1.27" width="0.1524" layer="21"/>
<wire x1="-1.905" y1="1.27" x2="-1.27" y2="0.635" width="0.1524" layer="21"/>
<wire x1="-1.27" y1="0.635" x2="-1.27" y2="-0.635" width="0.1524" layer="21"/>
<wire x1="-1.27" y1="-0.635" x2="-1.905" y2="-1.27" width="0.1524" layer="21"/>
<wire x1="-1.27" y1="0.635" x2="-0.635" y2="1.27" width="0.1524" layer="21"/>
<wire x1="-0.635" y1="1.27" x2="0.635" y2="1.27" width="0.1524" layer="21"/>
<wire x1="0.635" y1="1.27" x2="1.27" y2="0.635" width="0.1524" layer="21"/>
<wire x1="1.27" y1="0.635" x2="1.27" y2="-0.635" width="0.1524" layer="21"/>
<wire x1="1.27" y1="-0.635" x2="0.635" y2="-1.27" width="0.1524" layer="21"/>
<wire x1="0.635" y1="-1.27" x2="-0.635" y2="-1.27" width="0.1524" layer="21"/>
<wire x1="-0.635" y1="-1.27" x2="-1.27" y2="-0.635" width="0.1524" layer="21"/>
<wire x1="-6.35" y1="0.635" x2="-5.715" y2="1.27" width="0.1524" layer="21"/>
<wire x1="-5.715" y1="1.27" x2="-4.445" y2="1.27" width="0.1524" layer="21"/>
<wire x1="-4.445" y1="1.27" x2="-3.81" y2="0.635" width="0.1524" layer="21"/>
<wire x1="-3.81" y1="0.635" x2="-3.81" y2="-0.635" width="0.1524" layer="21"/>
<wire x1="-3.81" y1="-0.635" x2="-4.445" y2="-1.27" width="0.1524" layer="21"/>
<wire x1="-4.445" y1="-1.27" x2="-5.715" y2="-1.27" width="0.1524" layer="21"/>
<wire x1="-5.715" y1="-1.27" x2="-6.35" y2="-0.635" width="0.1524" layer="21"/>
<wire x1="-3.175" y1="1.27" x2="-3.81" y2="0.635" width="0.1524" layer="21"/>
<wire x1="-3.81" y1="-0.635" x2="-3.175" y2="-1.27" width="0.1524" layer="21"/>
<wire x1="-1.905" y1="-1.27" x2="-3.175" y2="-1.27" width="0.1524" layer="21"/>
<wire x1="-10.795" y1="1.27" x2="-9.525" y2="1.27" width="0.1524" layer="21"/>
<wire x1="-9.525" y1="1.27" x2="-8.89" y2="0.635" width="0.1524" layer="21"/>
<wire x1="-8.89" y1="0.635" x2="-8.89" y2="-0.635" width="0.1524" layer="21"/>
<wire x1="-8.89" y1="-0.635" x2="-9.525" y2="-1.27" width="0.1524" layer="21"/>
<wire x1="-8.89" y1="0.635" x2="-8.255" y2="1.27" width="0.1524" layer="21"/>
<wire x1="-8.255" y1="1.27" x2="-6.985" y2="1.27" width="0.1524" layer="21"/>
<wire x1="-6.985" y1="1.27" x2="-6.35" y2="0.635" width="0.1524" layer="21"/>
<wire x1="-6.35" y1="0.635" x2="-6.35" y2="-0.635" width="0.1524" layer="21"/>
<wire x1="-6.35" y1="-0.635" x2="-6.985" y2="-1.27" width="0.1524" layer="21"/>
<wire x1="-6.985" y1="-1.27" x2="-8.255" y2="-1.27" width="0.1524" layer="21"/>
<wire x1="-8.255" y1="-1.27" x2="-8.89" y2="-0.635" width="0.1524" layer="21"/>
<wire x1="-11.43" y1="0.635" x2="-11.43" y2="-0.635" width="0.1524" layer="21"/>
<wire x1="-10.795" y1="1.27" x2="-11.43" y2="0.635" width="0.1524" layer="21"/>
<wire x1="-11.43" y1="-0.635" x2="-10.795" y2="-1.27" width="0.1524" layer="21"/>
<wire x1="-9.525" y1="-1.27" x2="-10.795" y2="-1.27" width="0.1524" layer="21"/>
<wire x1="9.525" y1="1.27" x2="10.795" y2="1.27" width="0.1524" layer="21"/>
<wire x1="10.795" y1="1.27" x2="11.43" y2="0.635" width="0.1524" layer="21"/>
<wire x1="11.43" y1="0.635" x2="11.43" y2="-0.635" width="0.1524" layer="21"/>
<wire x1="11.43" y1="-0.635" x2="10.795" y2="-1.27" width="0.1524" layer="21"/>
<wire x1="9.525" y1="1.27" x2="8.89" y2="0.635" width="0.1524" layer="21"/>
<wire x1="8.89" y1="-0.635" x2="9.525" y2="-1.27" width="0.1524" layer="21"/>
<wire x1="10.795" y1="-1.27" x2="9.525" y2="-1.27" width="0.1524" layer="21"/>
<pad name="1" x="-10.16" y="0" drill="1.016" shape="long" rot="R90"/>
<pad name="2" x="-7.62" y="0" drill="1.016" shape="long" rot="R90"/>
<pad name="3" x="-5.08" y="0" drill="1.016" shape="long" rot="R90"/>
<pad name="4" x="-2.54" y="0" drill="1.016" shape="long" rot="R90"/>
<pad name="5" x="0" y="0" drill="1.016" shape="long" rot="R90"/>
<pad name="6" x="2.54" y="0" drill="1.016" shape="long" rot="R90"/>
<pad name="7" x="5.08" y="0" drill="1.016" shape="long" rot="R90"/>
<pad name="8" x="7.62" y="0" drill="1.016" shape="long" rot="R90"/>
<pad name="9" x="10.16" y="0" drill="1.016" shape="long" rot="R90"/>
<text x="-11.5062" y="1.8288" size="1.27" layer="25" ratio="10">&gt;NAME</text>
<text x="-11.43" y="-3.175" size="1.27" layer="27">&gt;VALUE</text>
<rectangle x1="7.366" y1="-0.254" x2="7.874" y2="0.254" layer="51"/>
<rectangle x1="4.826" y1="-0.254" x2="5.334" y2="0.254" layer="51"/>
<rectangle x1="2.286" y1="-0.254" x2="2.794" y2="0.254" layer="51"/>
<rectangle x1="-0.254" y1="-0.254" x2="0.254" y2="0.254" layer="51"/>
<rectangle x1="-2.794" y1="-0.254" x2="-2.286" y2="0.254" layer="51"/>
<rectangle x1="-5.334" y1="-0.254" x2="-4.826" y2="0.254" layer="51"/>
<rectangle x1="-7.874" y1="-0.254" x2="-7.366" y2="0.254" layer="51"/>
<rectangle x1="-10.414" y1="-0.254" x2="-9.906" y2="0.254" layer="51"/>
<rectangle x1="9.906" y1="-0.254" x2="10.414" y2="0.254" layer="51"/>
</package>
<package name="1X05">
<description>&lt;b&gt;PIN HEADER&lt;/b&gt;</description>
<wire x1="1.905" y1="1.27" x2="3.175" y2="1.27" width="0.1524" layer="21"/>
<wire x1="3.175" y1="1.27" x2="3.81" y2="0.635" width="0.1524" layer="21"/>
<wire x1="3.81" y1="0.635" x2="3.81" y2="-0.635" width="0.1524" layer="21"/>
<wire x1="3.81" y1="-0.635" x2="3.175" y2="-1.27" width="0.1524" layer="21"/>
<wire x1="-1.27" y1="0.635" x2="-0.635" y2="1.27" width="0.1524" layer="21"/>
<wire x1="-0.635" y1="1.27" x2="0.635" y2="1.27" width="0.1524" layer="21"/>
<wire x1="0.635" y1="1.27" x2="1.27" y2="0.635" width="0.1524" layer="21"/>
<wire x1="1.27" y1="0.635" x2="1.27" y2="-0.635" width="0.1524" layer="21"/>
<wire x1="1.27" y1="-0.635" x2="0.635" y2="-1.27" width="0.1524" layer="21"/>
<wire x1="0.635" y1="-1.27" x2="-0.635" y2="-1.27" width="0.1524" layer="21"/>
<wire x1="-0.635" y1="-1.27" x2="-1.27" y2="-0.635" width="0.1524" layer="21"/>
<wire x1="1.905" y1="1.27" x2="1.27" y2="0.635" width="0.1524" layer="21"/>
<wire x1="1.27" y1="-0.635" x2="1.905" y2="-1.27" width="0.1524" layer="21"/>
<wire x1="3.175" y1="-1.27" x2="1.905" y2="-1.27" width="0.1524" layer="21"/>
<wire x1="-5.715" y1="1.27" x2="-4.445" y2="1.27" width="0.1524" layer="21"/>
<wire x1="-4.445" y1="1.27" x2="-3.81" y2="0.635" width="0.1524" layer="21"/>
<wire x1="-3.81" y1="0.635" x2="-3.81" y2="-0.635" width="0.1524" layer="21"/>
<wire x1="-3.81" y1="-0.635" x2="-4.445" y2="-1.27" width="0.1524" layer="21"/>
<wire x1="-3.81" y1="0.635" x2="-3.175" y2="1.27" width="0.1524" layer="21"/>
<wire x1="-3.175" y1="1.27" x2="-1.905" y2="1.27" width="0.1524" layer="21"/>
<wire x1="-1.905" y1="1.27" x2="-1.27" y2="0.635" width="0.1524" layer="21"/>
<wire x1="-1.27" y1="0.635" x2="-1.27" y2="-0.635" width="0.1524" layer="21"/>
<wire x1="-1.27" y1="-0.635" x2="-1.905" y2="-1.27" width="0.1524" layer="21"/>
<wire x1="-1.905" y1="-1.27" x2="-3.175" y2="-1.27" width="0.1524" layer="21"/>
<wire x1="-3.175" y1="-1.27" x2="-3.81" y2="-0.635" width="0.1524" layer="21"/>
<wire x1="-6.35" y1="0.635" x2="-6.35" y2="-0.635" width="0.1524" layer="21"/>
<wire x1="-5.715" y1="1.27" x2="-6.35" y2="0.635" width="0.1524" layer="21"/>
<wire x1="-6.35" y1="-0.635" x2="-5.715" y2="-1.27" width="0.1524" layer="21"/>
<wire x1="-4.445" y1="-1.27" x2="-5.715" y2="-1.27" width="0.1524" layer="21"/>
<wire x1="4.445" y1="1.27" x2="5.715" y2="1.27" width="0.1524" layer="21"/>
<wire x1="5.715" y1="1.27" x2="6.35" y2="0.635" width="0.1524" layer="21"/>
<wire x1="6.35" y1="0.635" x2="6.35" y2="-0.635" width="0.1524" layer="21"/>
<wire x1="6.35" y1="-0.635" x2="5.715" y2="-1.27" width="0.1524" layer="21"/>
<wire x1="4.445" y1="1.27" x2="3.81" y2="0.635" width="0.1524" layer="21"/>
<wire x1="3.81" y1="-0.635" x2="4.445" y2="-1.27" width="0.1524" layer="21"/>
<wire x1="5.715" y1="-1.27" x2="4.445" y2="-1.27" width="0.1524" layer="21"/>
<pad name="1" x="-5.08" y="0" drill="1.016" shape="long" rot="R90"/>
<pad name="2" x="-2.54" y="0" drill="1.016" shape="long" rot="R90"/>
<pad name="3" x="0" y="0" drill="1.016" shape="long" rot="R90"/>
<pad name="4" x="2.54" y="0" drill="1.016" shape="long" rot="R90"/>
<pad name="5" x="5.08" y="0" drill="1.016" shape="long" rot="R90"/>
<text x="-6.4262" y="1.8288" size="1.27" layer="25" ratio="10">&gt;NAME</text>
<text x="-6.35" y="-3.175" size="1.27" layer="27">&gt;VALUE</text>
<rectangle x1="2.286" y1="-0.254" x2="2.794" y2="0.254" layer="51"/>
<rectangle x1="-0.254" y1="-0.254" x2="0.254" y2="0.254" layer="51"/>
<rectangle x1="-2.794" y1="-0.254" x2="-2.286" y2="0.254" layer="51"/>
<rectangle x1="-5.334" y1="-0.254" x2="-4.826" y2="0.254" layer="51"/>
<rectangle x1="4.826" y1="-0.254" x2="5.334" y2="0.254" layer="51"/>
</package>
<package name="1X02">
<description>&lt;b&gt;PIN HEADER&lt;/b&gt;</description>
<wire x1="-1.905" y1="1.27" x2="-0.635" y2="1.27" width="0.1524" layer="21"/>
<wire x1="-0.635" y1="1.27" x2="0" y2="0.635" width="0.1524" layer="21"/>
<wire x1="0" y1="0.635" x2="0" y2="-0.635" width="0.1524" layer="21"/>
<wire x1="0" y1="-0.635" x2="-0.635" y2="-1.27" width="0.1524" layer="21"/>
<wire x1="-2.54" y1="0.635" x2="-2.54" y2="-0.635" width="0.1524" layer="21"/>
<wire x1="-1.905" y1="1.27" x2="-2.54" y2="0.635" width="0.1524" layer="21"/>
<wire x1="-2.54" y1="-0.635" x2="-1.905" y2="-1.27" width="0.1524" layer="21"/>
<wire x1="-0.635" y1="-1.27" x2="-1.905" y2="-1.27" width="0.1524" layer="21"/>
<wire x1="0" y1="0.635" x2="0.635" y2="1.27" width="0.1524" layer="21"/>
<wire x1="0.635" y1="1.27" x2="1.905" y2="1.27" width="0.1524" layer="21"/>
<wire x1="1.905" y1="1.27" x2="2.54" y2="0.635" width="0.1524" layer="21"/>
<wire x1="2.54" y1="0.635" x2="2.54" y2="-0.635" width="0.1524" layer="21"/>
<wire x1="2.54" y1="-0.635" x2="1.905" y2="-1.27" width="0.1524" layer="21"/>
<wire x1="1.905" y1="-1.27" x2="0.635" y2="-1.27" width="0.1524" layer="21"/>
<wire x1="0.635" y1="-1.27" x2="0" y2="-0.635" width="0.1524" layer="21"/>
<pad name="1" x="-1.27" y="0" drill="1.016" shape="long" rot="R90"/>
<pad name="2" x="1.27" y="0" drill="1.016" shape="long" rot="R90"/>
<text x="-2.6162" y="1.8288" size="1.27" layer="25" ratio="10">&gt;NAME</text>
<text x="-2.54" y="-3.175" size="1.27" layer="27">&gt;VALUE</text>
<rectangle x1="-1.524" y1="-0.254" x2="-1.016" y2="0.254" layer="51"/>
<rectangle x1="1.016" y1="-0.254" x2="1.524" y2="0.254" layer="51"/>
</package>
<package name="1X03">
<description>&lt;b&gt;PIN HEADER&lt;/b&gt;</description>
<wire x1="-3.175" y1="1.27" x2="-1.905" y2="1.27" width="0.1524" layer="21"/>
<wire x1="-1.905" y1="1.27" x2="-1.27" y2="0.635" width="0.1524" layer="21"/>
<wire x1="-1.27" y1="0.635" x2="-1.27" y2="-0.635" width="0.1524" layer="21"/>
<wire x1="-1.27" y1="-0.635" x2="-1.905" y2="-1.27" width="0.1524" layer="21"/>
<wire x1="-1.27" y1="0.635" x2="-0.635" y2="1.27" width="0.1524" layer="21"/>
<wire x1="-0.635" y1="1.27" x2="0.635" y2="1.27" width="0.1524" layer="21"/>
<wire x1="0.635" y1="1.27" x2="1.27" y2="0.635" width="0.1524" layer="21"/>
<wire x1="1.27" y1="0.635" x2="1.27" y2="-0.635" width="0.1524" layer="21"/>
<wire x1="1.27" y1="-0.635" x2="0.635" y2="-1.27" width="0.1524" layer="21"/>
<wire x1="0.635" y1="-1.27" x2="-0.635" y2="-1.27" width="0.1524" layer="21"/>
<wire x1="-0.635" y1="-1.27" x2="-1.27" y2="-0.635" width="0.1524" layer="21"/>
<wire x1="-3.81" y1="0.635" x2="-3.81" y2="-0.635" width="0.1524" layer="21"/>
<wire x1="-3.175" y1="1.27" x2="-3.81" y2="0.635" width="0.1524" layer="21"/>
<wire x1="-3.81" y1="-0.635" x2="-3.175" y2="-1.27" width="0.1524" layer="21"/>
<wire x1="-1.905" y1="-1.27" x2="-3.175" y2="-1.27" width="0.1524" layer="21"/>
<wire x1="1.27" y1="0.635" x2="1.905" y2="1.27" width="0.1524" layer="21"/>
<wire x1="1.905" y1="1.27" x2="3.175" y2="1.27" width="0.1524" layer="21"/>
<wire x1="3.175" y1="1.27" x2="3.81" y2="0.635" width="0.1524" layer="21"/>
<wire x1="3.81" y1="0.635" x2="3.81" y2="-0.635" width="0.1524" layer="21"/>
<wire x1="3.81" y1="-0.635" x2="3.175" y2="-1.27" width="0.1524" layer="21"/>
<wire x1="3.175" y1="-1.27" x2="1.905" y2="-1.27" width="0.1524" layer="21"/>
<wire x1="1.905" y1="-1.27" x2="1.27" y2="-0.635" width="0.1524" layer="21"/>
<pad name="1" x="-2.54" y="0" drill="1.016" shape="long" rot="R90"/>
<pad name="2" x="0" y="0" drill="1.016" shape="long" rot="R90"/>
<pad name="3" x="2.54" y="0" drill="1.016" shape="long" rot="R90"/>
<text x="-3.8862" y="1.8288" size="1.27" layer="25" ratio="10">&gt;NAME</text>
<text x="-3.81" y="-3.175" size="1.27" layer="27">&gt;VALUE</text>
<rectangle x1="-0.254" y1="-0.254" x2="0.254" y2="0.254" layer="51"/>
<rectangle x1="-2.794" y1="-0.254" x2="-2.286" y2="0.254" layer="51"/>
<rectangle x1="2.286" y1="-0.254" x2="2.794" y2="0.254" layer="51"/>
</package>
<package name="1X04">
<description>&lt;b&gt;PIN HEADER&lt;/b&gt;</description>
<wire x1="0" y1="0.635" x2="0.635" y2="1.27" width="0.1524" layer="21"/>
<wire x1="0.635" y1="1.27" x2="1.905" y2="1.27" width="0.1524" layer="21"/>
<wire x1="1.905" y1="1.27" x2="2.54" y2="0.635" width="0.1524" layer="21"/>
<wire x1="2.54" y1="0.635" x2="2.54" y2="-0.635" width="0.1524" layer="21"/>
<wire x1="2.54" y1="-0.635" x2="1.905" y2="-1.27" width="0.1524" layer="21"/>
<wire x1="1.905" y1="-1.27" x2="0.635" y2="-1.27" width="0.1524" layer="21"/>
<wire x1="0.635" y1="-1.27" x2="0" y2="-0.635" width="0.1524" layer="21"/>
<wire x1="-4.445" y1="1.27" x2="-3.175" y2="1.27" width="0.1524" layer="21"/>
<wire x1="-3.175" y1="1.27" x2="-2.54" y2="0.635" width="0.1524" layer="21"/>
<wire x1="-2.54" y1="0.635" x2="-2.54" y2="-0.635" width="0.1524" layer="21"/>
<wire x1="-2.54" y1="-0.635" x2="-3.175" y2="-1.27" width="0.1524" layer="21"/>
<wire x1="-2.54" y1="0.635" x2="-1.905" y2="1.27" width="0.1524" layer="21"/>
<wire x1="-1.905" y1="1.27" x2="-0.635" y2="1.27" width="0.1524" layer="21"/>
<wire x1="-0.635" y1="1.27" x2="0" y2="0.635" width="0.1524" layer="21"/>
<wire x1="0" y1="0.635" x2="0" y2="-0.635" width="0.1524" layer="21"/>
<wire x1="0" y1="-0.635" x2="-0.635" y2="-1.27" width="0.1524" layer="21"/>
<wire x1="-0.635" y1="-1.27" x2="-1.905" y2="-1.27" width="0.1524" layer="21"/>
<wire x1="-1.905" y1="-1.27" x2="-2.54" y2="-0.635" width="0.1524" layer="21"/>
<wire x1="-5.08" y1="0.635" x2="-5.08" y2="-0.635" width="0.1524" layer="21"/>
<wire x1="-4.445" y1="1.27" x2="-5.08" y2="0.635" width="0.1524" layer="21"/>
<wire x1="-5.08" y1="-0.635" x2="-4.445" y2="-1.27" width="0.1524" layer="21"/>
<wire x1="-3.175" y1="-1.27" x2="-4.445" y2="-1.27" width="0.1524" layer="21"/>
<wire x1="3.175" y1="1.27" x2="4.445" y2="1.27" width="0.1524" layer="21"/>
<wire x1="4.445" y1="1.27" x2="5.08" y2="0.635" width="0.1524" layer="21"/>
<wire x1="5.08" y1="0.635" x2="5.08" y2="-0.635" width="0.1524" layer="21"/>
<wire x1="5.08" y1="-0.635" x2="4.445" y2="-1.27" width="0.1524" layer="21"/>
<wire x1="3.175" y1="1.27" x2="2.54" y2="0.635" width="0.1524" layer="21"/>
<wire x1="2.54" y1="-0.635" x2="3.175" y2="-1.27" width="0.1524" layer="21"/>
<wire x1="4.445" y1="-1.27" x2="3.175" y2="-1.27" width="0.1524" layer="21"/>
<pad name="1" x="-3.81" y="0" drill="1.016" shape="long" rot="R90"/>
<pad name="2" x="-1.27" y="0" drill="1.016" shape="long" rot="R90"/>
<pad name="3" x="1.27" y="0" drill="1.016" shape="long" rot="R90"/>
<pad name="4" x="3.81" y="0" drill="1.016" shape="long" rot="R90"/>
<text x="-5.1562" y="1.8288" size="1.27" layer="25" ratio="10">&gt;NAME</text>
<text x="-5.08" y="-3.175" size="1.27" layer="27">&gt;VALUE</text>
<rectangle x1="1.016" y1="-0.254" x2="1.524" y2="0.254" layer="51"/>
<rectangle x1="-1.524" y1="-0.254" x2="-1.016" y2="0.254" layer="51"/>
<rectangle x1="-4.064" y1="-0.254" x2="-3.556" y2="0.254" layer="51"/>
<rectangle x1="3.556" y1="-0.254" x2="4.064" y2="0.254" layer="51"/>
</package>
</packages>
</library>
<library name="v-reg">
<description>&lt;b&gt;Voltage Regulators&lt;/b&gt;&lt;p&gt;
&lt;author&gt;Created by librarian@cadsoft.de&lt;/author&gt;</description>
<packages>
<package name="78XXS">
<description>&lt;b&gt;VOLTAGE REGULATOR&lt;/b&gt;</description>
<wire x1="4.826" y1="-4.318" x2="5.08" y2="-4.064" width="0.1524" layer="21"/>
<wire x1="4.826" y1="-4.318" x2="-4.826" y2="-4.318" width="0.1524" layer="21"/>
<wire x1="-5.08" y1="-4.064" x2="-4.826" y2="-4.318" width="0.1524" layer="21"/>
<wire x1="5.08" y1="-1.143" x2="5.08" y2="-4.064" width="0.1524" layer="21"/>
<wire x1="-5.08" y1="-4.064" x2="-5.08" y2="-1.143" width="0.1524" layer="21"/>
<circle x="-4.6228" y="-3.7084" radius="0.254" width="0" layer="21"/>
<pad name="IN" x="-2.54" y="-2.54" drill="1.016" shape="long" rot="R90"/>
<pad name="GND" x="0" y="-2.54" drill="1.016" shape="long" rot="R90"/>
<pad name="OUT" x="2.54" y="-2.54" drill="1.016" shape="long" rot="R90"/>
<text x="-5.08" y="-6.0452" size="1.27" layer="25" ratio="10">&gt;NAME</text>
<text x="-5.08" y="-7.62" size="1.27" layer="27" ratio="10">&gt;VALUE</text>
<text x="-0.635" y="-3.81" size="1.27" layer="51" ratio="10">-</text>
<text x="-3.175" y="-3.81" size="1.27" layer="51" ratio="10">I</text>
<text x="1.905" y="-3.81" size="1.27" layer="51" ratio="10">O</text>
<rectangle x1="-5.334" y1="-1.27" x2="-3.429" y2="0" layer="21"/>
<rectangle x1="-3.429" y1="-0.762" x2="-1.651" y2="0" layer="21"/>
<rectangle x1="-1.651" y1="-1.27" x2="-0.889" y2="0" layer="21"/>
<rectangle x1="-0.889" y1="-0.762" x2="0.889" y2="0" layer="21"/>
<rectangle x1="0.889" y1="-1.27" x2="1.651" y2="0" layer="21"/>
<rectangle x1="1.651" y1="-0.762" x2="3.429" y2="0" layer="21"/>
<rectangle x1="3.429" y1="-1.27" x2="5.334" y2="0" layer="21"/>
<rectangle x1="-3.429" y1="-1.27" x2="-1.651" y2="-0.762" layer="51"/>
<rectangle x1="-0.889" y1="-1.27" x2="0.889" y2="-0.762" layer="51"/>
<rectangle x1="1.651" y1="-1.27" x2="3.429" y2="-0.762" layer="51"/>
</package>
</packages>
</library>
</libraries>
<attributes>
</attributes>
<variantdefs>
</variantdefs>
<classes>
<class number="0" name="default" width="0" drill="0">
</class>
</classes>
<designrules name="default">
<description language="de">&lt;b&gt;EAGLE Design Rules&lt;/b&gt;
&lt;p&gt;
Die Standard-Design-Rules sind so gewählt, dass sie für 
die meisten Anwendungen passen. Sollte ihre Platine 
besondere Anforderungen haben, treffen Sie die erforderlichen
Einstellungen hier und speichern die Design Rules unter 
einem neuen Namen ab.</description>
<description language="en">&lt;b&gt;EAGLE Design Rules&lt;/b&gt;
&lt;p&gt;
The default Design Rules have been set to cover
a wide range of applications. Your particular design
may have different requirements, so please make the
necessary adjustments and save your customized
design rules under a new name.</description>
<param name="layerSetup" value="(1*16)"/>
<param name="mtCopper" value="0.035mm 0.035mm 0.035mm 0.035mm 0.035mm 0.035mm 0.035mm 0.035mm 0.035mm 0.035mm 0.035mm 0.035mm 0.035mm 0.035mm 0.035mm 0.035mm"/>
<param name="mtIsolate" value="1.5mm 0.15mm 0.2mm 0.15mm 0.2mm 0.15mm 0.2mm 0.15mm 0.2mm 0.15mm 0.2mm 0.15mm 0.2mm 0.15mm 0.2mm"/>
<param name="mdWireWire" value="8mil"/>
<param name="mdWirePad" value="8mil"/>
<param name="mdWireVia" value="8mil"/>
<param name="mdPadPad" value="8mil"/>
<param name="mdPadVia" value="8mil"/>
<param name="mdViaVia" value="8mil"/>
<param name="mdSmdPad" value="8mil"/>
<param name="mdSmdVia" value="8mil"/>
<param name="mdSmdSmd" value="8mil"/>
<param name="mdViaViaSameLayer" value="8mil"/>
<param name="mnLayersViaInSmd" value="2"/>
<param name="mdCopperDimension" value="40mil"/>
<param name="mdDrill" value="8mil"/>
<param name="mdSmdStop" value="0mil"/>
<param name="msWidth" value="10mil"/>
<param name="msDrill" value="24mil"/>
<param name="msMicroVia" value="9.99mm"/>
<param name="msBlindViaRatio" value="0.5"/>
<param name="rvPadTop" value="0.25"/>
<param name="rvPadInner" value="0.25"/>
<param name="rvPadBottom" value="0.25"/>
<param name="rvViaOuter" value="0.25"/>
<param name="rvViaInner" value="0.25"/>
<param name="rvMicroViaOuter" value="0.25"/>
<param name="rvMicroViaInner" value="0.25"/>
<param name="rlMinPadTop" value="10mil"/>
<param name="rlMaxPadTop" value="20mil"/>
<param name="rlMinPadInner" value="10mil"/>
<param name="rlMaxPadInner" value="20mil"/>
<param name="rlMinPadBottom" value="10mil"/>
<param name="rlMaxPadBottom" value="20mil"/>
<param name="rlMinViaOuter" value="8mil"/>
<param name="rlMaxViaOuter" value="20mil"/>
<param name="rlMinViaInner" value="8mil"/>
<param name="rlMaxViaInner" value="20mil"/>
<param name="rlMinMicroViaOuter" value="4mil"/>
<param name="rlMaxMicroViaOuter" value="20mil"/>
<param name="rlMinMicroViaInner" value="4mil"/>
<param name="rlMaxMicroViaInner" value="20mil"/>
<param name="psTop" value="-1"/>
<param name="psBottom" value="-1"/>
<param name="psFirst" value="-1"/>
<param name="psElongationLong" value="100"/>
<param name="psElongationOffset" value="100"/>
<param name="mvStopFrame" value="1"/>
<param name="mvCreamFrame" value="0"/>
<param name="mlMinStopFrame" value="4mil"/>
<param name="mlMaxStopFrame" value="4mil"/>
<param name="mlMinCreamFrame" value="0mil"/>
<param name="mlMaxCreamFrame" value="0mil"/>
<param name="mlViaStopLimit" value="0mil"/>
<param name="srRoundness" value="0"/>
<param name="srMinRoundness" value="0mil"/>
<param name="srMaxRoundness" value="0mil"/>
<param name="slThermalIsolate" value="10mil"/>
<param name="slThermalsForVias" value="0"/>
<param name="dpMaxLengthDifference" value="10mm"/>
<param name="dpGapFactor" value="2.5"/>
<param name="checkGrid" value="0"/>
<param name="checkAngle" value="0"/>
<param name="checkFont" value="1"/>
<param name="checkRestrict" value="1"/>
<param name="useDiameter" value="13"/>
<param name="maxErrors" value="50"/>
</designrules>
<autorouter>
<pass name="Default">
<param name="RoutingGrid" value="50mil"/>
<param name="AutoGrid" value="1"/>
<param name="Efforts" value="2"/>
<param name="TopRouterVariant" value="1"/>
<param name="tpViaShape" value="round"/>
<param name="PrefDir.1" value="a"/>
<param name="PrefDir.2" value="0"/>
<param name="PrefDir.3" value="0"/>
<param name="PrefDir.4" value="0"/>
<param name="PrefDir.5" value="0"/>
<param name="PrefDir.6" value="0"/>
<param name="PrefDir.7" value="0"/>
<param name="PrefDir.8" value="0"/>
<param name="PrefDir.9" value="0"/>
<param name="PrefDir.10" value="0"/>
<param name="PrefDir.11" value="0"/>
<param name="PrefDir.12" value="0"/>
<param name="PrefDir.13" value="0"/>
<param name="PrefDir.14" value="0"/>
<param name="PrefDir.15" value="0"/>
<param name="PrefDir.16" value="0"/>
<param name="cfVia" value="8"/>
<param name="cfNonPref" value="5"/>
<param name="cfChangeDir" value="2"/>
<param name="cfOrthStep" value="2"/>
<param name="cfDiagStep" value="3"/>
<param name="cfExtdStep" value="0"/>
<param name="cfBonusStep" value="1"/>
<param name="cfMalusStep" value="1"/>
<param name="cfPadImpact" value="4"/>
<param name="cfSmdImpact" value="4"/>
<param name="cfBusImpact" value="0"/>
<param name="cfHugging" value="3"/>
<param name="cfAvoid" value="4"/>
<param name="cfPolygon" value="10"/>
<param name="cfBase.1" value="0"/>
<param name="cfBase.2" value="1"/>
<param name="cfBase.3" value="1"/>
<param name="cfBase.4" value="1"/>
<param name="cfBase.5" value="1"/>
<param name="cfBase.6" value="1"/>
<param name="cfBase.7" value="1"/>
<param name="cfBase.8" value="1"/>
<param name="cfBase.9" value="1"/>
<param name="cfBase.10" value="1"/>
<param name="cfBase.11" value="1"/>
<param name="cfBase.12" value="1"/>
<param name="cfBase.13" value="1"/>
<param name="cfBase.14" value="1"/>
<param name="cfBase.15" value="1"/>
<param name="cfBase.16" value="0"/>
<param name="mnVias" value="20"/>
<param name="mnSegments" value="9999"/>
<param name="mnExtdSteps" value="9999"/>
<param name="mnRipupLevel" value="10"/>
<param name="mnRipupSteps" value="100"/>
<param name="mnRipupTotal" value="100"/>
</pass>
<pass name="Follow-me" refer="Default" active="yes">
</pass>
<pass name="Busses" refer="Default" active="yes">
<param name="cfNonPref" value="4"/>
<param name="cfBusImpact" value="4"/>
<param name="cfHugging" value="0"/>
<param name="mnVias" value="0"/>
</pass>
<pass name="Route" refer="Default" active="yes">
</pass>
<pass name="Optimize1" refer="Default" active="yes">
<param name="cfVia" value="99"/>
<param name="cfExtdStep" value="10"/>
<param name="cfHugging" value="1"/>
<param name="mnExtdSteps" value="1"/>
<param name="mnRipupLevel" value="0"/>
</pass>
<pass name="Optimize2" refer="Optimize1" active="yes">
<param name="cfNonPref" value="0"/>
<param name="cfChangeDir" value="6"/>
<param name="cfExtdStep" value="0"/>
<param name="cfBonusStep" value="2"/>
<param name="cfMalusStep" value="2"/>
<param name="cfPadImpact" value="2"/>
<param name="cfSmdImpact" value="2"/>
<param name="cfHugging" value="0"/>
</pass>
<pass name="Optimize3" refer="Optimize2" active="yes">
<param name="cfChangeDir" value="8"/>
<param name="cfPadImpact" value="0"/>
<param name="cfSmdImpact" value="0"/>
</pass>
<pass name="Optimize4" refer="Optimize3" active="yes">
<param name="cfChangeDir" value="25"/>
</pass>
</autorouter>
<elements>
<element name="C1" library="AVX_By_element14_Batch_1" package="CAPC3216X178N" value="22pF" x="31.5468" y="25.7048">
<attribute name="OC_NEWARK" value="12N3209" x="31.5468" y="25.7048" size="1.778" layer="27" display="off"/>
<attribute name="TOLERANCE" value="±20%" x="31.5468" y="25.7048" size="1.778" layer="27" display="off"/>
<attribute name="MPN" value="0612ZC225MAT2A" x="31.5468" y="25.7048" size="1.778" layer="27" display="off"/>
<attribute name="SUPPLIER" value="AVX" x="31.5468" y="25.7048" size="1.778" layer="27" display="off"/>
<attribute name="VOLTAGERATING" value="10V" x="31.5468" y="25.7048" size="1.778" layer="27" display="off"/>
<attribute name="OC_FARNELL" value="-" x="31.5468" y="25.7048" size="1.778" layer="27" display="off"/>
</element>
<element name="C2" library="AVX_By_element14_Batch_1" package="CAPC3216X178N" value="22pF" x="31.6484" y="16.7894">
<attribute name="OC_NEWARK" value="12N3209" x="31.6484" y="16.7894" size="1.778" layer="27" display="off"/>
<attribute name="TOLERANCE" value="±20%" x="31.6484" y="16.7894" size="1.778" layer="27" display="off"/>
<attribute name="MPN" value="0612ZC225MAT2A" x="31.6484" y="16.7894" size="1.778" layer="27" display="off"/>
<attribute name="SUPPLIER" value="AVX" x="31.6484" y="16.7894" size="1.778" layer="27" display="off"/>
<attribute name="VOLTAGERATING" value="10V" x="31.6484" y="16.7894" size="1.778" layer="27" display="off"/>
<attribute name="OC_FARNELL" value="-" x="31.6484" y="16.7894" size="1.778" layer="27" display="off"/>
</element>
<element name="MICRO" library="atmega8" package="TQFP32-08" value="ATMEGA328P-AU" x="46.99" y="35.814"/>
<element name="CRYSTAL" library="01_FAB_Hello" package="CSM-7X-DU" value="16Mhz" x="37.7444" y="22.0472" rot="R90">
<attribute name="OC_NEWARK" value="unknown" x="37.7444" y="22.0472" size="1.778" layer="27" rot="R90" display="off"/>
<attribute name="MPN" value="" x="37.7444" y="22.0472" size="1.778" layer="27" rot="R90" display="off"/>
<attribute name="MF" value="" x="37.7444" y="22.0472" size="1.778" layer="27" rot="R90" display="off"/>
<attribute name="OC_FARNELL" value="unknown" x="37.7444" y="22.0472" size="1.778" layer="27" rot="R90" display="off"/>
</element>
<element name="R1" library="01_SparkFun" package="1206" value="10k" x="21.59" y="45.1104" rot="R180"/>
<element name="SWITCH" library="01_FAB_Hello" package="6MM_SWITCH" value="" x="21.9456" y="36.195" rot="R90"/>
<element name="POWER" library="con-molex" package="22-23-2021" value="22-23-2021" x="28.321" y="32.9692">
<attribute name="OC_NEWARK" value="25C3832" x="28.321" y="32.9692" size="1.778" layer="27" display="off"/>
<attribute name="MPN" value="22-23-2021" x="28.321" y="32.9692" size="1.778" layer="27" display="off"/>
<attribute name="MF" value="MOLEX" x="28.321" y="32.9692" size="1.778" layer="27" display="off"/>
<attribute name="OC_FARNELL" value="1462926" x="28.321" y="32.9692" size="1.778" layer="27" display="off"/>
</element>
<element name="PADS_1" library="01_SparkFun" package="1X09_LONGPADS" value="M09LONGPADS" x="42.418" y="16.891"/>
<element name="LED_GREEN" library="01_FAB_Hello" package="1206" value="" x="37.211" y="37.338" rot="R180"/>
<element name="R2" library="01_SparkFun" package="1206" value="499" x="30.861" y="37.338" rot="R180"/>
<element name="C3" library="01_SparkFun" package="1206" value="10uF" x="28.956" y="43.053" rot="R90"/>
<element name="C4" library="01_SparkFun" package="1206" value="1uF" x="60.452" y="34.671" rot="R90"/>
<element name="C5" library="01_SparkFun" package="1206" value="100nF" x="63.754" y="34.671" rot="R90"/>
<element name="C6" library="01_SparkFun" package="1206" value="100nF" x="19.939" y="50.8" rot="R90"/>
<element name="RST" library="01_SparkFun" package="1X01" value="M01PTH" x="28.194" y="51.054"/>
<element name="PADS_3" library="pinhead" package="1X09" value="" x="56.007" y="50.8" rot="R180"/>
<element name="PADS_2" library="pinhead" package="1X05" value="" x="35.941" y="50.927" rot="R180"/>
<element name="IC2" library="v-reg" package="78XXS" value="3.3" x="71.628" y="47.371" rot="R90"/>
<element name="C9" library="01_SparkFun" package="1206" value="10uF" x="78.994" y="37.338" rot="R90"/>
<element name="C10" library="01_SparkFun" package="1206" value="10uF" x="78.994" y="48.514" rot="R90"/>
<element name="POWER_BATTERY" library="pinhead" package="1X02" value="" x="83.058" y="37.719" rot="R90"/>
<element name="PRESSURE" library="pinhead" package="1X04" value="" x="54.4068" y="56.8452"/>
<element name="IC3" library="v-reg" package="78XXS" value="5" x="76.708" y="36.068" rot="R270"/>
<element name="C11" library="01_SparkFun" package="1206" value="10uF" x="68.58" y="34.798" rot="R270"/>
<element name="DHT11" library="pinhead" package="1X03" value="" x="52.705" y="9.652"/>
<element name="POTENTMETER" library="pinhead" package="1X03" value="" x="78.994" y="28.067" rot="R90"/>
<element name="VCC" library="pinhead" package="1X02" value="" x="78.867" y="20.701" rot="R270"/>
<element name="GND" library="pinhead" package="1X02" value="" x="64.389" y="54.737"/>
<element name="3.3V" library="pinhead" package="1X02" value="" x="64.262" y="58.547"/>
<element name="LCD" library="pinhead" package="1X09" value="" x="70.866" y="19.177" rot="R270"/>
</elements>
<signals>
<signal name="VCC">
<contactref element="MICRO" pad="4"/>
<contactref element="MICRO" pad="6"/>
<contactref element="MICRO" pad="18"/>
<contactref element="MICRO" pad="20"/>
<contactref element="R1" pad="1"/>
<contactref element="POWER" pad="1"/>
<wire x1="51.1556" y1="33.8074" x2="51.1556" y2="33.814" width="0.3048" layer="1"/>
<wire x1="51.1556" y1="35.414" x2="51.1556" y2="35.4076" width="0.3048" layer="1"/>
<contactref element="LED_GREEN" pad="1"/>
<wire x1="51.1556" y1="33.782" x2="51.1556" y2="33.814" width="0.3048" layer="1"/>
<wire x1="51.1556" y1="35.414" x2="50.546" y2="35.433" width="0.3048" layer="1"/>
<wire x1="43.5102" y1="34.6202" x2="42.8244" y2="34.614" width="0.3048" layer="1"/>
<wire x1="43.5102" y1="34.6202" x2="45.965259375" y2="34.12009375" width="0.254" layer="1"/>
<wire x1="45.965259375" y1="34.12009375" x2="46.721740625" y2="33.965996875" width="0.254" layer="1"/>
<wire x1="46.721740625" y1="33.965996875" x2="47.625" y2="33.782" width="0.254" layer="1"/>
<wire x1="47.625" y1="33.782" x2="51.1556" y2="33.782" width="0.254" layer="1"/>
<wire x1="51.1556" y1="35.414" x2="50.546" y2="35.414" width="0.254" layer="1"/>
<wire x1="50.546" y1="35.414" x2="50.546" y2="35.433" width="0.254" layer="1"/>
<wire x1="50.546" y1="35.433" x2="49.657" y2="35.306" width="0.254" layer="1"/>
<wire x1="49.657" y1="35.306" x2="46.721740625" y2="33.965996875" width="0.254" layer="1"/>
<contactref element="C4" pad="1"/>
<contactref element="C5" pad="1"/>
<contactref element="C3" pad="1"/>
<wire x1="60.452" y1="33.271" x2="63.754" y2="33.271" width="0.3048" layer="1"/>
<wire x1="28.956" y1="41.653" x2="29.337" y2="41.653" width="0.3048" layer="1"/>
<wire x1="29.337" y1="41.653" x2="29.337" y2="41.402" width="0.3048" layer="1"/>
<wire x1="60.452" y1="33.271" x2="60.452" y2="33.274" width="0.3048" layer="1"/>
<contactref element="IC3" pad="OUT"/>
<contactref element="C11" pad="2"/>
<contactref element="DHT11" pad="1"/>
<contactref element="POTENTMETER" pad="1"/>
<contactref element="VCC" pad="1"/>
<contactref element="VCC" pad="2"/>
<contactref element="LCD" pad="3"/>
<wire x1="74.168" y1="33.528" x2="68.58" y2="33.528" width="0.3048" layer="1"/>
<wire x1="68.58" y1="33.528" x2="68.58" y2="33.398" width="0.3048" layer="1"/>
<wire x1="68.58" y1="33.398" x2="63.754" y2="33.398" width="0.3048" layer="1"/>
<wire x1="63.754" y1="33.398" x2="63.754" y2="33.271" width="0.3048" layer="1"/>
<contactref element="LCD" pad="2"/>
<wire x1="78.994" y1="25.527" x2="78.867" y2="25.527" width="0.3048" layer="1"/>
<wire x1="78.867" y1="25.527" x2="78.867" y2="21.971" width="0.3048" layer="1"/>
<wire x1="78.867" y1="19.431" x2="78.867" y2="21.971" width="0.3048" layer="1"/>
<wire x1="22.99" y1="45.1104" x2="26.924" y2="45.1104" width="0.4064" layer="1"/>
<wire x1="26.924" y1="45.1104" x2="26.924" y2="41.656" width="0.4064" layer="1"/>
<wire x1="26.924" y1="41.656" x2="28.956" y2="41.656" width="0.4064" layer="1"/>
<wire x1="28.956" y1="41.656" x2="28.956" y2="41.653" width="0.4064" layer="1"/>
<wire x1="29.337" y1="41.402" x2="28.956" y2="41.402" width="0.4064" layer="1"/>
<wire x1="28.956" y1="41.402" x2="28.956" y2="39.624" width="0.4064" layer="1"/>
<wire x1="38.608" y1="36.214" x2="38.608" y2="37.338" width="0.3048" layer="1"/>
<wire x1="38.608" y1="37.338" x2="38.608" y2="39.624" width="0.3048" layer="1"/>
<wire x1="38.608" y1="39.624" x2="28.956" y2="39.624" width="0.3048" layer="1"/>
<wire x1="38.633" y1="37.338" x2="38.608" y2="37.338" width="0.3048" layer="1"/>
<wire x1="27.051" y1="32.9692" x2="26.924" y2="32.9692" width="0.3048" layer="1"/>
<wire x1="26.924" y1="32.9692" x2="26.924" y2="35.814" width="0.3048" layer="1"/>
<wire x1="26.924" y1="35.814" x2="22.098" y2="35.814" width="0.3048" layer="1"/>
<wire x1="26.924" y1="35.814" x2="26.924" y2="39.624" width="0.3048" layer="1"/>
<wire x1="26.924" y1="39.624" x2="28.956" y2="39.624" width="0.3048" layer="1"/>
<wire x1="50.165" y1="9.652" x2="31.75" y2="9.652" width="0.3048" layer="1"/>
<wire x1="31.75" y1="9.652" x2="22.098" y2="9.652" width="0.3048" layer="1"/>
<wire x1="22.098" y1="9.652" x2="22.098" y2="35.814" width="0.3048" layer="1"/>
<wire x1="35.814" y1="34.614" x2="35.814" y2="32.258" width="0.3048" layer="1"/>
<wire x1="35.814" y1="32.258" x2="31.75" y2="28.194" width="0.3048" layer="1"/>
<wire x1="31.75" y1="28.194" x2="31.75" y2="9.652" width="0.3048" layer="1"/>
<wire x1="42.8244" y1="36.214" x2="38.608" y2="36.214" width="0.3048" layer="1"/>
<wire x1="42.8244" y1="34.614" x2="35.814" y2="34.614" width="0.3048" layer="1"/>
<wire x1="68.58" y1="33.398" x2="68.3006" y2="33.398" width="0.3048" layer="1"/>
<wire x1="68.3006" y1="33.398" x2="68.3006" y2="26.8478" width="0.3048" layer="1"/>
<wire x1="68.3006" y1="26.8478" x2="70.866" y2="26.8478" width="0.3048" layer="1"/>
<wire x1="70.866" y1="26.8478" x2="70.866" y2="26.797" width="0.3048" layer="1"/>
<wire x1="70.866" y1="26.797" x2="70.866" y2="24.257" width="0.3048" layer="1"/>
<wire x1="70.866" y1="26.797" x2="73.9394" y2="26.797" width="0.3048" layer="1"/>
<wire x1="73.9394" y1="26.797" x2="75.1586" y2="25.5778" width="0.3048" layer="1"/>
<wire x1="75.1586" y1="25.5778" x2="78.9432" y2="25.5778" width="0.3048" layer="1"/>
<wire x1="78.9432" y1="25.5778" x2="78.994" y2="25.527" width="0.3048" layer="1"/>
<wire x1="51.1556" y1="33.814" x2="56.61" y2="33.814" width="0.3048" layer="1"/>
<wire x1="56.61" y1="33.814" x2="57.1754" y2="33.2486" width="0.3048" layer="1"/>
<wire x1="57.1754" y1="33.2486" x2="60.4296" y2="33.2486" width="0.3048" layer="1"/>
<wire x1="60.4296" y1="33.2486" x2="60.452" y2="33.271" width="0.3048" layer="1"/>
</signal>
<signal name="N$2">
<contactref element="MICRO" pad="7"/>
<contactref element="CRYSTAL" pad="2"/>
<contactref element="C1" pad="2"/>
<wire x1="42.8244" y1="33.814" x2="39.624" y2="33.814" width="0.3048" layer="1"/>
<wire x1="39.624" y1="33.814" x2="39.624" y2="27.178" width="0.3048" layer="1"/>
<wire x1="39.624" y1="27.178" x2="38.1" y2="27.178" width="0.3048" layer="1"/>
<wire x1="38.1" y1="27.178" x2="34.544" y2="27.178" width="0.3048" layer="1"/>
<wire x1="34.544" y1="27.178" x2="34.544" y2="25.654" width="0.3048" layer="1"/>
<wire x1="34.544" y1="25.654" x2="33.0454" y2="25.654" width="0.3048" layer="1"/>
<wire x1="33.0454" y1="25.654" x2="33.0454" y2="25.7048" width="0.3048" layer="1"/>
<wire x1="37.7444" y1="26.7972" x2="38.1" y2="26.7972" width="0.4064" layer="1"/>
<wire x1="38.1" y1="26.7972" x2="38.1" y2="27.178" width="0.4064" layer="1"/>
</signal>
<signal name="N$9">
<contactref element="MICRO" pad="8"/>
<contactref element="CRYSTAL" pad="1"/>
<contactref element="C2" pad="2"/>
<wire x1="40.894" y1="33.02" x2="42.5704" y2="33.02" width="0.3048" layer="1"/>
<wire x1="42.5704" y1="33.02" x2="42.5704" y2="33.014" width="0.3048" layer="1"/>
<wire x1="38.1" y1="18.288" x2="38.1" y2="18.542" width="0.3048" layer="1"/>
<wire x1="38.1" y1="18.542" x2="37.7444" y2="18.542" width="0.3048" layer="1"/>
<wire x1="37.7444" y1="18.542" x2="37.7444" y2="17.2972" width="0.3048" layer="1"/>
<wire x1="40.894" y1="33.02" x2="40.894" y2="18.288" width="0.3048" layer="1"/>
<wire x1="40.894" y1="18.288" x2="40.894" y2="17.018" width="0.3048" layer="1"/>
<wire x1="40.894" y1="17.018" x2="33.401" y2="17.018" width="0.3048" layer="1"/>
<wire x1="33.401" y1="17.018" x2="33.147" y2="16.7894" width="0.3048" layer="1"/>
<wire x1="38.1" y1="18.288" x2="40.894" y2="18.288" width="0.4064" layer="1"/>
</signal>
<signal name="GND">
<contactref element="MICRO" pad="3"/>
<contactref element="MICRO" pad="5"/>
<contactref element="C1" pad="1"/>
<contactref element="C2" pad="1"/>
<contactref element="SWITCH" pad="3"/>
<contactref element="SWITCH" pad="4"/>
<contactref element="MICRO" pad="21"/>
<contactref element="POWER" pad="2"/>
<wire x1="42.8244" y1="35.4076" x2="42.8244" y2="35.414" width="0.3048" layer="1"/>
<wire x1="51.1556" y1="36.2204" x2="51.1556" y2="36.214" width="0.3048" layer="1"/>
<contactref element="R2" pad="2"/>
<wire x1="42.8244" y1="35.433" x2="42.8244" y2="35.414" width="0.3048" layer="1"/>
<contactref element="C4" pad="2"/>
<contactref element="C5" pad="2"/>
<wire x1="51.1556" y1="36.214" x2="60.452" y2="36.214" width="0.3048" layer="1"/>
<wire x1="60.452" y1="36.214" x2="60.452" y2="36.071" width="0.3048" layer="1"/>
<wire x1="60.452" y1="36.071" x2="63.754" y2="36.071" width="0.3048" layer="1"/>
<wire x1="43.434" y1="35.433" x2="42.8244" y2="35.414" width="0.3048" layer="1"/>
<wire x1="51.1556" y1="36.214" x2="50.546" y2="36.195" width="0.3048" layer="1"/>
<wire x1="42.8244" y1="37.014" x2="40.005" y2="37.014" width="0.3048" layer="1"/>
<wire x1="40.005" y1="37.014" x2="40.005" y2="40.64" width="0.3048" layer="1"/>
<wire x1="40.005" y1="40.64" x2="30.861" y2="40.64" width="0.3048" layer="1"/>
<wire x1="30.861" y1="40.64" x2="30.861" y2="46.355" width="0.3048" layer="1"/>
<wire x1="30.861" y1="46.355" x2="28.956" y2="46.355" width="0.3048" layer="1"/>
<wire x1="42.8244" y1="37.014" x2="42.851325" y2="36.987075" width="0.254" layer="1"/>
<wire x1="42.851325" y1="36.987075" x2="48.377546875" y2="36.987075" width="0.254" layer="1"/>
<wire x1="48.377546875" y1="36.987075" x2="49.403" y2="36.449" width="0.254" layer="1"/>
<wire x1="49.403" y1="36.449" x2="50.546" y2="36.195" width="0.254" layer="1"/>
<wire x1="43.434" y1="35.433" x2="43.688" y2="35.433" width="0.254" layer="1"/>
<wire x1="43.688" y1="35.433" x2="48.56308125" y2="36.779265625" width="0.254" layer="1"/>
<wire x1="48.56308125" y1="36.779265625" x2="48.701003125" y2="36.817353125" width="0.254" layer="1"/>
<wire x1="48.377546875" y1="36.987075" x2="48.56308125" y2="36.779265625" width="0.254" layer="1"/>
<contactref element="C3" pad="2"/>
<wire x1="28.956" y1="44.453" x2="28.956" y2="46.355" width="0.3048" layer="1"/>
<wire x1="28.956" y1="47.498" x2="21.59" y2="47.498" width="0.3048" layer="1"/>
<wire x1="21.59" y1="47.498" x2="21.59" y2="42.545" width="0.3048" layer="1"/>
<wire x1="24.2316" y1="39.497" x2="24.257" y2="39.497" width="0.3048" layer="1"/>
<wire x1="24.257" y1="39.497" x2="24.257" y2="42.545" width="0.3048" layer="1"/>
<wire x1="24.257" y1="42.545" x2="21.59" y2="42.545" width="0.3048" layer="1"/>
<wire x1="28.956" y1="47.498" x2="28.956" y2="46.355" width="0.3048" layer="1"/>
<contactref element="IC2" pad="GND"/>
<contactref element="C9" pad="1"/>
<contactref element="C10" pad="1"/>
<contactref element="POWER_BATTERY" pad="1"/>
<contactref element="PRESSURE" pad="4"/>
<contactref element="IC3" pad="GND"/>
<contactref element="C11" pad="1"/>
<contactref element="DHT11" pad="3"/>
<contactref element="POTENTMETER" pad="3"/>
<contactref element="GND" pad="1"/>
<contactref element="GND" pad="2"/>
<contactref element="LCD" pad="9"/>
<wire x1="78.994" y1="35.938" x2="74.168" y2="35.938" width="0.3048" layer="1"/>
<wire x1="74.168" y1="35.938" x2="74.168" y2="36.068" width="0.3048" layer="1"/>
<wire x1="63.754" y1="36.071" x2="68.58" y2="36.071" width="0.3048" layer="1"/>
<wire x1="68.58" y1="36.071" x2="68.58" y2="36.198" width="0.3048" layer="1"/>
<wire x1="74.168" y1="36.198" x2="74.168" y2="36.068" width="0.3048" layer="1"/>
<wire x1="74.168" y1="47.244" x2="74.168" y2="47.371" width="0.3048" layer="1"/>
<wire x1="63.119" y1="54.737" x2="65.659" y2="54.737" width="0.3048" layer="1"/>
<wire x1="74.168" y1="36.198" x2="68.58" y2="36.198" width="0.3048" layer="1"/>
<wire x1="78.994" y1="47.114" x2="74.168" y2="47.114" width="0.3048" layer="1"/>
<wire x1="74.168" y1="47.114" x2="74.168" y2="47.371" width="0.3048" layer="1"/>
<wire x1="74.168" y1="47.371" x2="68.58" y2="47.371" width="0.3048" layer="1"/>
<wire x1="68.58" y1="47.371" x2="68.58" y2="36.198" width="0.3048" layer="1"/>
<wire x1="65.659" y1="54.737" x2="68.58" y2="54.737" width="0.3048" layer="1"/>
<wire x1="68.58" y1="54.737" x2="68.58" y2="47.371" width="0.3048" layer="1"/>
<contactref element="LCD" pad="8"/>
<contactref element="LCD" pad="7"/>
<wire x1="70.866" y1="9.017" x2="70.866" y2="11.557" width="0.3048" layer="1"/>
<wire x1="70.866" y1="11.557" x2="70.866" y2="14.097" width="0.3048" layer="1"/>
<wire x1="83.058" y1="36.449" x2="78.994" y2="36.449" width="0.3048" layer="1"/>
<wire x1="78.994" y1="36.449" x2="78.994" y2="35.938" width="0.3048" layer="1"/>
<wire x1="70.866" y1="14.097" x2="83.058" y2="14.097" width="0.3048" layer="1"/>
<wire x1="83.058" y1="14.097" x2="83.058" y2="36.449" width="0.3048" layer="1"/>
<wire x1="78.994" y1="30.607" x2="78.994" y2="35.938" width="0.3048" layer="1"/>
<wire x1="24.2316" y1="32.512" x2="24.2316" y2="32.893" width="0.4064" layer="1"/>
<wire x1="24.2316" y1="32.893" x2="24.384" y2="32.893" width="0.4064" layer="1"/>
<wire x1="30.0482" y1="25.654" x2="30.0482" y2="25.7048" width="0.4064" layer="1"/>
<wire x1="30.1498" y1="16.7894" x2="30.0482" y2="16.7894" width="0.4064" layer="1"/>
<wire x1="30.0482" y1="16.7894" x2="30.0482" y2="25.7048" width="0.4064" layer="1"/>
<wire x1="55.245" y1="9.652" x2="55.245" y2="9.017" width="0.3048" layer="1"/>
<wire x1="55.245" y1="9.017" x2="70.866" y2="9.017" width="0.3048" layer="1"/>
<wire x1="24.384" y1="32.893" x2="24.384" y2="25.7048" width="0.3048" layer="1"/>
<wire x1="24.384" y1="25.7048" x2="30.0482" y2="25.7048" width="0.3048" layer="1"/>
<wire x1="29.591" y1="32.9692" x2="29.591" y2="25.7048" width="0.3048" layer="1"/>
<wire x1="29.591" y1="25.7048" x2="30.0482" y2="25.7048" width="0.3048" layer="1"/>
<wire x1="29.591" y1="32.9692" x2="29.591" y2="35.433" width="0.3048" layer="1"/>
<wire x1="29.591" y1="35.433" x2="29.591" y2="37.338" width="0.3048" layer="1"/>
<wire x1="29.461" y1="37.338" x2="29.591" y2="37.338" width="0.3048" layer="1"/>
<wire x1="42.8244" y1="35.433" x2="29.591" y2="35.433" width="0.3048" layer="1"/>
<wire x1="58.2168" y1="56.8452" x2="63.119" y2="54.7116" width="0.3048" layer="1"/>
<wire x1="63.119" y1="54.7116" x2="63.119" y2="54.737" width="0.3048" layer="1"/>
</signal>
<signal name="N$1">
<contactref element="MICRO" pad="9"/>
<contactref element="PADS_1" pad="1"/>
<wire x1="42.418" y1="16.891" x2="42.418" y2="24.003" width="0.3048" layer="1"/>
<wire x1="42.418" y1="24.003" x2="44.19" y2="24.003" width="0.3048" layer="1"/>
<wire x1="44.19" y1="24.003" x2="44.19" y2="31.3944" width="0.3048" layer="1"/>
</signal>
<signal name="N$4">
<contactref element="MICRO" pad="10"/>
<contactref element="PADS_1" pad="2"/>
<wire x1="44.958" y1="16.891" x2="44.99" y2="20.447" width="0.3048" layer="1"/>
<wire x1="44.99" y1="20.447" x2="44.99" y2="31.6484" width="0.3048" layer="1"/>
</signal>
<signal name="N$5">
<contactref element="MICRO" pad="11"/>
<contactref element="PADS_1" pad="3"/>
<wire x1="47.371" y1="20.955" x2="45.79" y2="20.955" width="0.3048" layer="1"/>
<wire x1="45.79" y1="20.955" x2="45.79" y2="31.6484" width="0.3048" layer="1"/>
<wire x1="47.371" y1="20.955" x2="47.371" y2="17.526" width="0.3048" layer="1"/>
<wire x1="47.371" y1="17.526" x2="47.498" y2="17.526" width="0.3048" layer="1"/>
<wire x1="47.498" y1="17.526" x2="47.498" y2="16.891" width="0.3048" layer="1"/>
</signal>
<signal name="N$6">
<contactref element="MICRO" pad="12"/>
<contactref element="PADS_1" pad="4"/>
<wire x1="46.59" y1="31.6484" x2="46.609" y2="31.6484" width="0.3048" layer="1"/>
<wire x1="50.038" y1="16.891" x2="50.038" y2="22.352" width="0.3048" layer="1"/>
<wire x1="50.038" y1="22.352" x2="46.59" y2="22.352" width="0.3048" layer="1"/>
<wire x1="46.59" y1="22.352" x2="46.59" y2="31.6484" width="0.3048" layer="1"/>
</signal>
<signal name="D7">
<contactref element="MICRO" pad="13"/>
<contactref element="PADS_1" pad="5"/>
<wire x1="52.578" y1="16.891" x2="52.578" y2="23.749" width="0.3048" layer="1"/>
<wire x1="52.578" y1="23.749" x2="47.39" y2="23.749" width="0.3048" layer="1"/>
<wire x1="47.39" y1="23.749" x2="47.39" y2="31.6484" width="0.3048" layer="1"/>
<contactref element="DHT11" pad="2"/>
<wire x1="52.705" y1="9.652" x2="52.705" y2="16.891" width="0.3048" layer="1"/>
<wire x1="52.705" y1="16.891" x2="52.578" y2="16.891" width="0.3048" layer="1"/>
</signal>
<signal name="N$8">
<contactref element="MICRO" pad="14"/>
<contactref element="PADS_1" pad="6"/>
<wire x1="55.118" y1="16.891" x2="55.118" y2="25.019" width="0.3048" layer="1"/>
<wire x1="55.118" y1="25.019" x2="48.19" y2="25.019" width="0.3048" layer="1"/>
<wire x1="48.19" y1="25.019" x2="48.19" y2="31.6484" width="0.3048" layer="1"/>
</signal>
<signal name="D9">
<contactref element="MICRO" pad="15"/>
<contactref element="PADS_1" pad="7"/>
<wire x1="57.658" y1="16.891" x2="57.531" y2="20.447" width="0.3048" layer="1"/>
<wire x1="57.531" y1="20.447" x2="57.531" y2="26.289" width="0.3048" layer="1"/>
<wire x1="57.531" y1="26.289" x2="49.022" y2="26.289" width="0.3048" layer="1"/>
<wire x1="49.022" y1="26.289" x2="49.022" y2="30.861" width="0.3048" layer="1"/>
<wire x1="48.99" y1="31.6484" x2="49.022" y2="30.861" width="0.3048" layer="1"/>
<contactref element="LCD" pad="6"/>
<wire x1="70.866" y1="16.637" x2="68.072" y2="16.637" width="0.3048" layer="1"/>
<wire x1="68.072" y1="16.637" x2="68.072" y2="11.938" width="0.3048" layer="1"/>
<wire x1="68.072" y1="11.938" x2="57.658" y2="11.938" width="0.3048" layer="1"/>
<wire x1="57.658" y1="11.938" x2="57.658" y2="16.891" width="0.3048" layer="1"/>
</signal>
<signal name="D10">
<contactref element="MICRO" pad="16"/>
<contactref element="PADS_1" pad="8"/>
<wire x1="49.79" y1="31.3944" x2="49.784" y2="31.3944" width="0.3048" layer="1"/>
<wire x1="60.198" y1="16.891" x2="60.198" y2="27.432" width="0.3048" layer="1"/>
<wire x1="60.198" y1="27.432" x2="49.79" y2="27.432" width="0.3048" layer="1"/>
<wire x1="49.79" y1="27.432" x2="49.79" y2="31.3944" width="0.3048" layer="1"/>
<contactref element="LCD" pad="5"/>
<wire x1="70.866" y1="19.177" x2="66.802" y2="19.177" width="0.3048" layer="1"/>
<wire x1="66.802" y1="19.177" x2="66.802" y2="12.954" width="0.3048" layer="1"/>
<wire x1="66.802" y1="12.954" x2="60.198" y2="12.954" width="0.3048" layer="1"/>
<wire x1="60.198" y1="12.954" x2="60.198" y2="16.891" width="0.3048" layer="1"/>
</signal>
<signal name="D11">
<contactref element="MICRO" pad="17"/>
<contactref element="PADS_1" pad="9"/>
<wire x1="62.738" y1="16.891" x2="62.738" y2="28.702" width="0.3048" layer="1"/>
<wire x1="62.738" y1="28.702" x2="53.086" y2="28.702" width="0.3048" layer="1"/>
<wire x1="53.086" y1="33.014" x2="53.086" y2="28.702" width="0.3048" layer="1"/>
<wire x1="51.4096" y1="33.014" x2="53.086" y2="33.014" width="0.3048" layer="1"/>
<contactref element="LCD" pad="4"/>
<wire x1="62.738" y1="16.891" x2="62.865" y2="16.891" width="0.3048" layer="1"/>
<wire x1="70.866" y1="21.717" x2="65.278" y2="21.717" width="0.3048" layer="1"/>
<wire x1="65.278" y1="21.717" x2="65.278" y2="13.97" width="0.3048" layer="1"/>
<wire x1="65.278" y1="13.97" x2="62.738" y2="13.97" width="0.3048" layer="1"/>
<wire x1="62.738" y1="13.97" x2="62.738" y2="16.891" width="0.3048" layer="1"/>
</signal>
<signal name="N$20">
<contactref element="MICRO" pad="30"/>
<contactref element="PADS_2" pad="1"/>
<wire x1="45.79" y1="39.9796" x2="45.7962" y2="39.9796" width="0.3048" layer="1"/>
<wire x1="45.7962" y1="39.9796" x2="45.7962" y2="46.1518" width="0.3048" layer="1"/>
<wire x1="45.7962" y1="46.1518" x2="41.021" y2="46.1518" width="0.3048" layer="1"/>
<wire x1="41.021" y1="46.1518" x2="41.021" y2="50.927" width="0.3048" layer="1"/>
</signal>
<signal name="N$21">
<contactref element="MICRO" pad="31"/>
<contactref element="PADS_2" pad="2"/>
<wire x1="44.99" y1="39.9796" x2="45.0088" y2="39.9796" width="0.3048" layer="1"/>
<wire x1="45.0088" y1="39.9796" x2="45.0088" y2="44.831" width="0.3048" layer="1"/>
<wire x1="45.0088" y1="44.831" x2="38.481" y2="44.831" width="0.3048" layer="1"/>
<wire x1="38.481" y1="44.831" x2="38.481" y2="50.927" width="0.3048" layer="1"/>
</signal>
<signal name="N$22">
<contactref element="MICRO" pad="32"/>
<contactref element="PADS_2" pad="3"/>
<wire x1="44.19" y1="40.2336" x2="44.196" y2="40.2336" width="0.3048" layer="1"/>
<wire x1="44.196" y1="40.2336" x2="44.196" y2="43.942" width="0.3048" layer="1"/>
<wire x1="44.196" y1="43.942" x2="35.941" y2="43.942" width="0.3048" layer="1"/>
<wire x1="35.941" y1="43.942" x2="35.941" y2="50.927" width="0.3048" layer="1"/>
</signal>
<signal name="N$23">
<contactref element="MICRO" pad="1"/>
<contactref element="PADS_2" pad="4"/>
<wire x1="42.5704" y1="38.614" x2="41.529" y2="38.614" width="0.3048" layer="1"/>
<wire x1="41.529" y1="38.614" x2="41.529" y2="42.926" width="0.3048" layer="1"/>
<wire x1="41.529" y1="42.926" x2="33.401" y2="42.926" width="0.3048" layer="1"/>
<wire x1="33.401" y1="42.926" x2="33.401" y2="50.927" width="0.3048" layer="1"/>
</signal>
<signal name="N$24">
<contactref element="MICRO" pad="2"/>
<contactref element="PADS_2" pad="5"/>
<wire x1="42.8244" y1="37.814" x2="40.767" y2="37.814" width="0.3048" layer="1"/>
<wire x1="40.767" y1="37.814" x2="40.767" y2="41.783" width="0.3048" layer="1"/>
<wire x1="40.767" y1="41.783" x2="32.258" y2="41.783" width="0.3048" layer="1"/>
<wire x1="32.258" y1="41.783" x2="32.258" y2="47.879" width="0.3048" layer="1"/>
<wire x1="32.258" y1="47.879" x2="30.861" y2="47.879" width="0.3048" layer="1"/>
<wire x1="30.861" y1="47.879" x2="30.861" y2="50.927" width="0.3048" layer="1"/>
</signal>
<signal name="N$14">
<contactref element="MICRO" pad="22"/>
<contactref element="PADS_3" pad="2"/>
<wire x1="51.1556" y1="37.014" x2="57.531" y2="37.014" width="0.3048" layer="1"/>
<wire x1="57.531" y1="37.014" x2="57.531" y2="39.116" width="0.3048" layer="1"/>
<wire x1="57.531" y1="39.116" x2="63.627" y2="39.116" width="0.3048" layer="1"/>
<wire x1="63.627" y1="39.116" x2="63.627" y2="50.8" width="0.3048" layer="1"/>
</signal>
<signal name="A0">
<contactref element="MICRO" pad="23"/>
<contactref element="PADS_3" pad="3"/>
<wire x1="51.1556" y1="37.814" x2="55.626" y2="37.814" width="0.3048" layer="1"/>
<wire x1="55.626" y1="37.814" x2="55.626" y2="40.386" width="0.3048" layer="1"/>
<wire x1="55.626" y1="40.386" x2="61.087" y2="40.386" width="0.3048" layer="1"/>
<wire x1="61.087" y1="40.386" x2="61.087" y2="50.8" width="0.3048" layer="1"/>
</signal>
<signal name="N$16">
<contactref element="MICRO" pad="24"/>
<contactref element="PADS_3" pad="4"/>
<wire x1="51.4096" y1="38.614" x2="53.975" y2="38.614" width="0.3048" layer="1"/>
<wire x1="53.975" y1="38.614" x2="53.975" y2="41.529" width="0.3048" layer="1"/>
<wire x1="53.975" y1="41.529" x2="58.547" y2="41.529" width="0.3048" layer="1"/>
<wire x1="58.547" y1="41.529" x2="58.547" y2="50.8" width="0.3048" layer="1"/>
</signal>
<signal name="N$17">
<contactref element="MICRO" pad="25"/>
<contactref element="PADS_3" pad="5"/>
<wire x1="49.79" y1="40.2336" x2="49.784" y2="40.2336" width="0.3048" layer="1"/>
<wire x1="49.784" y1="40.2336" x2="49.784" y2="42.799" width="0.3048" layer="1"/>
<wire x1="49.784" y1="42.799" x2="56.007" y2="42.799" width="0.3048" layer="1"/>
<wire x1="56.007" y1="42.799" x2="56.007" y2="50.8" width="0.3048" layer="1"/>
</signal>
<signal name="N$18">
<contactref element="MICRO" pad="26"/>
<contactref element="PADS_3" pad="6"/>
<wire x1="48.99" y1="39.9796" x2="49.022" y2="39.9796" width="0.3048" layer="1"/>
<wire x1="49.022" y1="39.9796" x2="49.022" y2="44.196" width="0.3048" layer="1"/>
<wire x1="49.022" y1="44.196" x2="53.467" y2="44.196" width="0.3048" layer="1"/>
<wire x1="53.467" y1="44.196" x2="53.467" y2="50.8" width="0.3048" layer="1"/>
</signal>
<signal name="N$26">
<contactref element="LED_GREEN" pad="2"/>
<contactref element="R2" pad="1"/>
<wire x1="35.789" y1="37.338" x2="32.261" y2="37.338" width="0.3048" layer="1"/>
</signal>
<signal name="N$28">
<contactref element="R1" pad="2"/>
<contactref element="SWITCH" pad="1"/>
<contactref element="SWITCH" pad="2"/>
<contactref element="MICRO" pad="29"/>
<contactref element="C6" pad="1"/>
<contactref element="RST" pad="1"/>
<wire x1="46.59" y1="39.9796" x2="46.609" y2="39.9796" width="0.3048" layer="1"/>
<wire x1="46.609" y1="39.9796" x2="46.609" y2="47.625" width="0.3048" layer="1"/>
<wire x1="46.609" y1="47.625" x2="43.688" y2="47.625" width="0.3048" layer="1"/>
<wire x1="43.688" y1="47.625" x2="43.688" y2="53.467" width="0.3048" layer="1"/>
<wire x1="20.19" y1="45.1104" x2="19.936" y2="45.1104" width="0.3048" layer="1"/>
<wire x1="19.6596" y1="39.497" x2="20.19" y2="39.497" width="0.3048" layer="1"/>
<wire x1="20.19" y1="39.497" x2="20.19" y2="45.1104" width="0.3048" layer="1"/>
<wire x1="19.6596" y1="39.497" x2="19.6596" y2="32.893" width="0.3048" layer="1"/>
<wire x1="19.939" y1="49.4" x2="20.19" y2="49.4" width="0.3048" layer="1"/>
<wire x1="20.19" y1="49.4" x2="20.19" y2="45.1104" width="0.3048" layer="1"/>
<wire x1="20.19" y1="49.4" x2="28.194" y2="49.4" width="0.3048" layer="1"/>
<wire x1="28.194" y1="49.4" x2="28.194" y2="51.054" width="0.3048" layer="1"/>
<wire x1="43.688" y1="53.467" x2="28.194" y2="53.467" width="0.3048" layer="1"/>
<wire x1="28.194" y1="53.467" x2="28.194" y2="51.054" width="0.3048" layer="1"/>
</signal>
<signal name="N$3">
<contactref element="C6" pad="2"/>
<contactref element="PADS_3" pad="9"/>
<wire x1="45.847" y1="54.61" x2="45.847" y2="50.8" width="0.3048" layer="1"/>
<wire x1="19.939" y1="54.61" x2="19.939" y2="52.2" width="0.3048" layer="1"/>
<wire x1="19.939" y1="54.61" x2="45.847" y2="54.61" width="0.3048" layer="1"/>
</signal>
<signal name="N$29">
</signal>
<signal name="SDA">
<contactref element="MICRO" pad="27"/>
<contactref element="PADS_3" pad="7"/>
<contactref element="PRESSURE" pad="3"/>
<wire x1="48.19" y1="39.9796" x2="48.2092" y2="39.9796" width="0.3048" layer="1"/>
<wire x1="48.2092" y1="39.9796" x2="48.2092" y2="45.3644" width="0.3048" layer="1"/>
<wire x1="48.2092" y1="45.3644" x2="50.927" y2="45.3644" width="0.3048" layer="1"/>
<wire x1="50.927" y1="45.3644" x2="50.927" y2="50.8" width="0.3048" layer="1"/>
<wire x1="50.927" y1="50.8" x2="50.9778" y2="50.8" width="0.3048" layer="1"/>
<wire x1="50.9778" y1="50.8" x2="50.9778" y2="53.3654" width="0.3048" layer="1"/>
<wire x1="50.9778" y1="53.3654" x2="55.6768" y2="53.3654" width="0.3048" layer="1"/>
<wire x1="55.6768" y1="53.3654" x2="55.6768" y2="56.8452" width="0.3048" layer="1"/>
</signal>
<signal name="SCL">
<contactref element="MICRO" pad="28"/>
<contactref element="PADS_3" pad="8"/>
<wire x1="47.39" y1="39.9796" x2="47.371" y2="39.9796" width="0.3048" layer="1"/>
<wire x1="47.371" y1="39.9796" x2="47.371" y2="46.863" width="0.3048" layer="1"/>
<wire x1="47.371" y1="46.863" x2="48.387" y2="46.863" width="0.3048" layer="1"/>
<wire x1="48.387" y1="46.863" x2="48.387" y2="50.8" width="0.3048" layer="1"/>
<contactref element="PRESSURE" pad="2"/>
<wire x1="48.387" y1="50.8" x2="48.4378" y2="50.8" width="0.3048" layer="1"/>
<wire x1="48.4378" y1="50.8" x2="48.4378" y2="54.0766" width="0.3048" layer="1"/>
<wire x1="48.4378" y1="54.0766" x2="53.1368" y2="54.0766" width="0.3048" layer="1"/>
<wire x1="53.1368" y1="54.0766" x2="53.1368" y2="56.8452" width="0.3048" layer="1"/>
</signal>
<signal name="3.3V">
<contactref element="IC2" pad="OUT"/>
<contactref element="C10" pad="2"/>
<contactref element="PRESSURE" pad="1"/>
<contactref element="3.3V" pad="1"/>
<contactref element="3.3V" pad="2"/>
<wire x1="62.992" y1="58.547" x2="65.532" y2="58.547" width="0.3048" layer="1"/>
<wire x1="78.994" y1="49.914" x2="74.168" y2="49.914" width="0.3048" layer="1"/>
<wire x1="74.168" y1="49.914" x2="74.168" y2="49.911" width="0.3048" layer="1"/>
<wire x1="65.532" y1="58.547" x2="70.104" y2="58.547" width="0.3048" layer="1"/>
<wire x1="70.104" y1="58.547" x2="70.104" y2="50.038" width="0.3048" layer="1"/>
<wire x1="70.104" y1="50.038" x2="74.168" y2="50.038" width="0.3048" layer="1"/>
<wire x1="74.168" y1="50.038" x2="74.168" y2="49.911" width="0.3048" layer="1"/>
<wire x1="50.5968" y1="56.8452" x2="50.6222" y2="56.8452" width="0.3048" layer="1"/>
<wire x1="50.6222" y1="56.8452" x2="50.6222" y2="59.2582" width="0.3048" layer="1"/>
<wire x1="50.6222" y1="59.2582" x2="60.5536" y2="59.2582" width="0.3048" layer="1"/>
<wire x1="60.5536" y1="59.2582" x2="60.5536" y2="58.547" width="0.3048" layer="1"/>
<wire x1="60.5536" y1="58.547" x2="62.992" y2="58.547" width="0.3048" layer="1"/>
</signal>
<signal name="VCC2">
<contactref element="IC3" pad="IN"/>
<contactref element="IC2" pad="IN"/>
<contactref element="C9" pad="2"/>
<contactref element="POWER_BATTERY" pad="2"/>
<wire x1="74.298" y1="38.738" x2="74.168" y2="38.608" width="0.3048" layer="1"/>
<wire x1="78.994" y1="38.738" x2="74.676" y2="38.738" width="0.3048" layer="1"/>
<wire x1="74.676" y1="38.738" x2="74.168" y2="38.738" width="0.3048" layer="1"/>
<wire x1="74.168" y1="38.738" x2="74.168" y2="38.608" width="0.3048" layer="1"/>
<wire x1="74.168" y1="44.831" x2="74.676" y2="44.831" width="0.3048" layer="1"/>
<wire x1="74.676" y1="44.831" x2="74.676" y2="38.738" width="0.3048" layer="1"/>
<wire x1="83.058" y1="38.989" x2="78.994" y2="38.989" width="0.3048" layer="1"/>
<wire x1="78.994" y1="38.989" x2="78.994" y2="38.738" width="0.3048" layer="1"/>
</signal>
<signal name="V0">
<contactref element="POTENTMETER" pad="2"/>
<contactref element="LCD" pad="1"/>
<wire x1="70.866" y1="29.337" x2="75.692" y2="29.337" width="0.3048" layer="1"/>
<wire x1="75.692" y1="29.337" x2="75.692" y2="27.94" width="0.3048" layer="1"/>
<wire x1="75.692" y1="27.94" x2="78.994" y2="27.94" width="0.3048" layer="1"/>
<wire x1="78.994" y1="27.94" x2="78.994" y2="28.067" width="0.3048" layer="1"/>
</signal>
</signals>
</board>
</drawing>
</eagle>
