  0
SECTION
  2
HEADER
  9
$ACADVER
  1
AC1009
  9
$DWGCODEPAGE
  3
ansi_1252
  9
$INSBASE
 10
0.0
 20
0.0
 30
0.0
  9
$EXTMIN
 10
1.575735931288071
 20
3.899382459620425
 30
0.0
  9
$EXTMAX
 10
7.747060957988371
 20
5.72426406871193
 30
0.0
  9
$LIMMIN
 10
0.0
 20
0.0
  9
$LIMMAX
 10
12.0
 20
9.0
  9
$ORTHOMODE
 70
     0
  9
$REGENMODE
 70
     1
  9
$FILLMODE
 70
     1
  9
$QTEXTMODE
 70
     0
  9
$MIRRTEXT
 70
     0
  9
$DRAGMODE
 70
     2
  9
$LTSCALE
 40
1.0
  9
$OSMODE
 70
  5047
  9
$ATTMODE
 70
     1
  9
$TEXTSIZE
 40
0.2
  9
$TRACEWID
 40
0.05
  9
$TEXTSTYLE
  7
STANDARD
  9
$CLAYER
  8
0
  9
$CELTYPE
  6
BYLAYER
  9
$CECOLOR
 62
     5
  9
$DIMSCALE
 40
1.0
  9
$DIMASZ
 40
0.18
  9
$DIMEXO
 40
0.0625
  9
$DIMDLI
 40
0.38
  9
$DIMRND
 40
0.0
  9
$DIMDLE
 40
0.0
  9
$DIMEXE
 40
0.18
  9
$DIMTP
 40
0.0
  9
$DIMTM
 40
0.0
  9
$DIMTXT
 40
0.18
  9
$DIMCEN
 40
0.09
  9
$DIMTSZ
 40
0.0
  9
$DIMTOL
 70
     0
  9
$DIMLIM
 70
     0
  9
$DIMTIH
 70
     1
  9
$DIMTOH
 70
     1
  9
$DIMSE1
 70
     0
  9
$DIMSE2
 70
     0
  9
$DIMTAD
 70
     0
  9
$DIMZIN
 70
     0
  9
$DIMBLK
  1

  9
$DIMASO
 70
     1
  9
$DIMSHO
 70
     1
  9
$DIMPOST
  1

  9
$DIMAPOST
  1

  9
$DIMALT
 70
     0
  9
$DIMALTD
 70
     2
  9
$DIMALTF
 40
25.4
  9
$DIMLFAC
 40
1.0
  9
$DIMTOFL
 70
     0
  9
$DIMTVP
 40
0.0
  9
$DIMTIX
 70
     0
  9
$DIMSOXD
 70
     0
  9
$DIMSAH
 70
     0
  9
$DIMBLK1
  1

  9
$DIMBLK2
  1

  9
$DIMSTYLE
  2
STANDARD
  9
$DIMCLRD
 70
     0
  9
$DIMCLRE
 70
     0
  9
$DIMCLRT
 70
     0
  9
$DIMTFAC
 40
1.0
  9
$DIMGAP
 40
0.09
  9
$LUNITS
 70
     2
  9
$LUPREC
 70
     4
  9
$SKETCHINC
 40
0.1
  9
$FILLETRAD
 40
0.8359823560784312
  9
$AUNITS
 70
     0
  9
$AUPREC
 70
     0
  9
$MENU
  1
.
  9
$ELEVATION
 40
0.0
  9
$PELEVATION
 40
0.0
  9
$THICKNESS
 40
0.0
  9
$LIMCHECK
 70
     0
  9
$CHAMFERA
 40
0.0
  9
$CHAMFERB
 40
0.0
  9
$SKPOLY
 70
     0
  9
$TDCREATE
 40
2452643.146717604
  9
$TDUPDATE
 40
2458051.89787228
  9
$TDINDWG
 40
0.0024670023
  9
$TDUSRTIMER
 40
0.0997889931
  9
$USRTIMER
 70
     1
  9
$ANGBASE
 50
0.0
  9
$ANGDIR
 70
     0
  9
$PDMODE
 70
     0
  9
$PDSIZE
 40
0.0
  9
$PLINEWID
 40
0.0
  9
$COORDS
 70
     1
  9
$SPLFRAME
 70
     0
  9
$SPLINETYPE
 70
     6
  9
$SPLINESEGS
 70
     8
  9
$ATTDIA
 70
     0
  9
$ATTREQ
 70
     1
  9
$HANDLING
 70
     1
  9
$HANDSEED
  5
95F
  9
$SURFTAB1
 70
     6
  9
$SURFTAB2
 70
     6
  9
$SURFTYPE
 70
     6
  9
$SURFU
 70
     6
  9
$SURFV
 70
     6
  9
$UCSNAME
  2

  9
$UCSORG
 10
0.0
 20
0.0
 30
0.0
  9
$UCSXDIR
 10
1.0
 20
0.0
 30
0.0
  9
$UCSYDIR
 10
0.0
 20
1.0
 30
0.0
  9
$PUCSNAME
  2

  9
$PUCSORG
 10
0.0
 20
0.0
 30
0.0
  9
$PUCSXDIR
 10
1.0
 20
0.0
 30
0.0
  9
$PUCSYDIR
 10
0.0
 20
1.0
 30
0.0
  9
$USERI1
 70
     0
  9
$USERI2
 70
     0
  9
$USERI3
 70
     0
  9
$USERI4
 70
     0
  9
$USERI5
 70
     0
  9
$USERR1
 40
0.0
  9
$USERR2
 40
0.0
  9
$USERR3
 40
0.0
  9
$USERR4
 40
0.0
  9
$USERR5
 40
0.0
  9
$WORLDVIEW
 70
     1
  9
$SHADEDGE
 70
     3
  9
$SHADEDIF
 70
    70
  9
$TILEMODE
 70
     1
  9
$MAXACTVP
 70
    64
  9
$PLIMCHECK
 70
     0
  9
$PEXTMIN
 10
1.05
 20
0.6999999999999997
 30
0.0
  9
$PEXTMAX
 10
9.45
 20
6.300000000000001
 30
0.0
  9
$PLIMMIN
 10
0.0
 20
0.0
  9
$PLIMMAX
 10
0.0
 20
0.0
  9
$UNITMODE
 70
     0
  9
$VISRETAIN
 70
     1
  9
$PLINEGEN
 70
     0
  9
$PSLTSCALE
 70
     1
  0
ENDSEC
  0
SECTION
  2
TABLES
  0
TABLE
  2
VPORT
 70
     1
  0
VPORT
  2
*ACTIVE
 70
     0
 10
0.0
 20
0.0
 11
1.0
 21
1.0
 12
32.20641096041326
 22
24.3730459443489
 13
0.0
 23
0.0
 14
0.1
 24
0.1
 15
0.1
 25
0.1
 16
0.0
 26
0.0
 36
1.0
 17
-27.66959356597987
 27
-19.53870295786202
 37
0.0
 40
3.570210362801118
 41
2.72887323943662
 42
50.0
 43
0.0
 44
0.0
 50
0.0
 51
0.0
 71
    16
 72
  1000
 73
     1
 74
     3
 75
     1
 76
     0
 77
     0
 78
     0
  0
ENDTAB
  0
TABLE
  2
LTYPE
 70
     1
  0
LTYPE
  2
CONTINUOUS
 70
     0
  3
Solid line
 72
    65
 73
     0
 40
0.0
  0
ENDTAB
  0
TABLE
  2
LAYER
 70
     1
  0
LAYER
  2
0
 70
     0
 62
     7
  6
CONTINUOUS
  0
ENDTAB
  0
TABLE
  2
STYLE
 70
     2
  0
STYLE
  2
STANDARD
 70
     0
 40
0.0
 41
1.0
 50
0.0
 71
     0
 42
0.2
  3
arial.ttf
  4

  0
STYLE
  2
ANNOTATIVE
 70
     0
 40
0.0
 41
1.0
 50
0.0
 71
     0
 42
0.2
  3
arial.ttf
  4

  0
ENDTAB
  0
TABLE
  2
VIEW
 70
     0
  0
ENDTAB
  0
TABLE
  2
UCS
 70
     0
  0
ENDTAB
  0
TABLE
  2
APPID
 70
     2
  0
APPID
  2
ACAD
 70
     0
  0
APPID
  2
ACADANNOTATIVE
 70
     0
  0
ENDTAB
  0
TABLE
  2
DIMSTYLE
 70
     2
  0
DIMSTYLE
  2
STANDARD
 70
     0
  3

  4

  5

  6

  7

 40
1.0
 41
0.18
 42
0.0625
 43
0.38
 44
0.18
 45
0.0
 46
0.0
 47
0.0
 48
0.0
140
0.18
141
0.09
142
0.0
143
25.4
144
1.0
145
0.0
146
1.0
147
0.09
 71
     0
 72
     0
 73
     1
 74
     1
 75
     0
 76
     0
 77
     0
 78
     0
170
     0
171
     2
172
     0
173
     0
174
     0
175
     0
176
     0
177
     0
178
     0
  0
DIMSTYLE
  2
ANNOTATIVE
 70
     0
  3

  4

  5

  6

  7

 40
0.0
 41
0.18
 42
0.0625
 43
0.38
 44
0.18
 45
0.0
 46
0.0
 47
0.0
 48
0.0
140
0.18
141
0.09
142
0.0
143
25.4
144
1.0
145
0.0
146
1.0
147
0.09
 71
     0
 72
     0
 73
     1
 74
     1
 75
     0
 76
     0
 77
     0
 78
     0
170
     0
171
     2
172
     0
173
     0
174
     0
175
     0
176
     0
177
     0
178
     0
  0
ENDTAB
  0
ENDSEC
  0
SECTION
  2
BLOCKS
  0
BLOCK
  8
0
  2
$MODEL_SPACE
 70
     0
 10
0.0
 20
0.0
 30
0.0
  3
$MODEL_SPACE
  1

  0
ENDBLK
  5
21
  8
0
  0
BLOCK
 67
     1
  8
0
  2
$PAPER_SPACE
 70
     0
 10
0.0
 20
0.0
 30
0.0
  3
$PAPER_SPACE
  1

  0
ENDBLK
  5
5B
 67
     1
  8
0
  0
BLOCK
  8
0
  2
*U5
 70
     1
 10
0.0
 20
0.0
 30
0.0
  3
*U5
  1

  0
ENDBLK
  5
936
  8
0
  0
BLOCK
  8
0
  2
*U6
 70
     1
 10
0.0
 20
0.0
 30
0.0
  3
*U6
  1

  0
ENDBLK
  5
938
  8
0
  0
BLOCK
  8
0
  2
*U7
 70
     1
 10
0.0
 20
0.0
 30
0.0
  3
*U7
  1

  0
ENDBLK
  5
93A
  8
0
  0
BLOCK
  8
0
  2
*U8
 70
     1
 10
0.0
 20
0.0
 30
0.0
  3
*U8
  1

  0
ENDBLK
  5
93C
  8
0
  0
BLOCK
  8
0
  2
*U9
 70
     1
 10
0.0
 20
0.0
 30
0.0
  3
*U9
  1

  0
ENDBLK
  5
93E
  8
0
  0
BLOCK
  8
0
  2
*U10
 70
     1
 10
0.0
 20
0.0
 30
0.0
  3
*U10
  1

  0
ENDBLK
  5
940
  8
0
  0
BLOCK
  8
0
  2
*U11
 70
     1
 10
0.0
 20
0.0
 30
0.0
  3
*U11
  1

  0
ENDBLK
  5
942
  8
0
  0
BLOCK
  8
0
  2
*U12
 70
     1
 10
0.0
 20
0.0
 30
0.0
  3
*U12
  1

  0
ENDBLK
  5
944
  8
0
  0
BLOCK
  8
0
  2
*U13
 70
     1
 10
0.0
 20
0.0
 30
0.0
  3
*U13
  1

  0
ENDBLK
  5
946
  8
0
  0
BLOCK
  8
0
  2
*U14
 70
     1
 10
0.0
 20
0.0
 30
0.0
  3
*U14
  1

  0
ENDBLK
  5
948
  8
0
  0
BLOCK
  8
0
  2
*U15
 70
     1
 10
0.0
 20
0.0
 30
0.0
  3
*U15
  1

  0
ENDBLK
  5
94A
  8
0
  0
BLOCK
  8
0
  2
*U16
 70
     1
 10
0.0
 20
0.0
 30
0.0
  3
*U16
  1

  0
ENDBLK
  5
94C
  8
0
  0
BLOCK
  8
0
  2
*U17
 70
     1
 10
0.0
 20
0.0
 30
0.0
  3
*U17
  1

  0
ENDBLK
  5
94E
  8
0
  0
BLOCK
  8
0
  2
*U18
 70
     1
 10
0.0
 20
0.0
 30
0.0
  3
*U18
  1

  0
ENDBLK
  5
950
  8
0
  0
BLOCK
  8
0
  2
*U19
 70
     1
 10
0.0
 20
0.0
 30
0.0
  3
*U19
  1

  0
ENDBLK
  5
952
  8
0
  0
BLOCK
  8
0
  2
*U20
 70
     1
 10
0.0
 20
0.0
 30
0.0
  3
*U20
  1

  0
ENDBLK
  5
954
  8
0
  0
BLOCK
  8
0
  2
*U21
 70
     1
 10
0.0
 20
0.0
 30
0.0
  3
*U21
  1

  0
ENDBLK
  5
956
  8
0
  0
BLOCK
  8
0
  2
*U22
 70
     1
 10
0.0
 20
0.0
 30
0.0
  3
*U22
  1

  0
ENDBLK
  5
958
  8
0
  0
ENDSEC
  0
SECTION
  2
ENTITIES
  0
POLYLINE
  5
457
  8
0
  6
CONTINUOUS
 62
    18
 66
     1
 10
0.0
 20
0.0
 30
0.0
 70
     1
  0
VERTEX
  5
458
  8
0
  6
CONTINUOUS
 62
    18
 10
1.813428250262409
 20
4.208382459620426
 30
0.0
  0
VERTEX
  5
459
  8
0
  6
CONTINUOUS
 62
    18
 10
1.911428250262409
 20
4.217882459620426
 30
0.0
  0
VERTEX
  5
45A
  8
0
  6
CONTINUOUS
 62
    18
 10
1.915708562762409
 20
4.199119178370426
 30
0.0
  0
VERTEX
  5
45B
  8
0
  6
CONTINUOUS
 62
    18
 10
1.921449500262409
 20
4.182460584620426
 30
0.0
  0
VERTEX
  5
45C
  8
0
  6
CONTINUOUS
 62
    18
 10
1.928651062762409
 20
4.167906678370426
 30
0.0
  0
VERTEX
  5
45D
  8
0
  6
CONTINUOUS
 62
    18
 10
1.937313250262409
 20
4.155457459620426
 30
0.0
  0
VERTEX
  5
45E
  8
0
  6
CONTINUOUS
 62
    18
 10
1.947436062762409
 20
4.145112928370426
 30
0.0
  0
VERTEX
  5
45F
  8
0
  6
CONTINUOUS
 62
    18
 10
1.962186062762409
 20
4.134949598292301
 30
0.0
  0
VERTEX
  5
460
  8
0
  6
CONTINUOUS
 62
    18
 10
1.979303250262409
 20
4.127690076807926
 30
0.0
  0
VERTEX
  5
461
  8
0
  6
CONTINUOUS
 62
    18
 10
1.998787625262409
 20
4.123334363917301
 30
0.0
  0
VERTEX
  5
462
  8
0
  6
CONTINUOUS
 62
    18
 10
2.020639187762409
 20
4.121882459620426
 30
0.0
  0
VERTEX
  5
463
  8
0
  6
CONTINUOUS
 62
    18
 10
2.043537625262409
 20
4.123173963526676
 30
0.0
  0
VERTEX
  5
464
  8
0
  6
CONTINUOUS
 62
    18
 10
2.063428250262409
 20
4.127048475245426
 30
0.0
  0
VERTEX
  5
465
  8
0
  6
CONTINUOUS
 62
    18
 10
2.080311062762409
 20
4.133505994776676
 30
0.0
  0
VERTEX
  5
466
  8
0
  6
CONTINUOUS
 62
    18
 10
2.094186062762409
 20
4.142546522120425
 30
0.0
  0
VERTEX
  5
467
  8
0
  6
CONTINUOUS
 62
    18
 10
2.107931722484631
 20
4.15710034156487
 30
0.0
  0
VERTEX
  5
468
  8
0
  6
CONTINUOUS
 62
    18
 10
2.116179118317965
 20
4.17320971656487
 30
0.0
  0
VERTEX
  5
469
  8
0
  6
CONTINUOUS
 62
    18
 10
2.118928250262409
 20
4.190874647120426
 30
0.0
  0
VERTEX
  5
46A
  8
0
  6
CONTINUOUS
 62
    18
 10
2.116327664324909
 20
4.207310193995426
 30
0.0
  0
VERTEX
  5
46B
  8
0
  6
CONTINUOUS
 62
    18
 10
2.108525906512409
 20
4.221101209620426
 30
0.0
  0
VERTEX
  5
46C
  8
0
  6
CONTINUOUS
 62
    18
 10
2.099866618317965
 20
4.229052598509316
 30
0.0
  0
VERTEX
  5
46D
  8
0
  6
CONTINUOUS
 62
    18
 10
2.087758545401298
 20
4.236281765175981
 30
0.0
  0
VERTEX
  5
46E
  8
0
  6
CONTINUOUS
 62
    18
 10
2.072201687762409
 20
4.242788709620426
 30
0.0
  0
VERTEX
  5
46F
  8
0
  6
CONTINUOUS
 62
    18
 10
2.063293875262409
 20
4.245627147120428
 30
0.0
  0
VERTEX
  5
470
  8
0
  6
CONTINUOUS
 62
    18
 10
2.050757937762409
 20
4.249229959620426
 30
0.0
  0
VERTEX
  5
471
  8
0
  6
CONTINUOUS
 62
    18
 10
2.034593875262409
 20
4.253597147120425
 30
0.0
  0
VERTEX
  5
472
  8
0
  6
CONTINUOUS
 62
    18
 10
2.014801687762409
 20
4.258728709620426
 30
0.0
  0
VERTEX
  5
473
  8
0
  6
CONTINUOUS
 62
    18
 10
1.991381375262409
 20
4.264624647120426
 30
0.0
  0
VERTEX
  5
474
  8
0
  6
CONTINUOUS
 62
    18
 10
1.969177771946083
 20
4.270565017018386
 30
0.0
  0
VERTEX
  5
475
  8
0
  6
CONTINUOUS
 62
    18
 10
1.948950890568532
 20
4.276881662426549
 30
0.0
  0
VERTEX
  5
476
  8
0
  6
CONTINUOUS
 62
    18
 10
1.930700731129756
 20
4.283574583344915
 30
0.0
  0
VERTEX
  5
477
  8
0
  6
CONTINUOUS
 62
    18
 10
1.914427293629756
 20
4.290643779773487
 30
0.0
  0
VERTEX
  5
478
  8
0
  6
CONTINUOUS
 62
    18
 10
1.900130578068532
 20
4.298089251712262
 30
0.0
  0
VERTEX
  5
479
  8
0
  6
CONTINUOUS
 62
    18
 10
1.887810584446083
 20
4.305910999161242
 30
0.0
  0
VERTEX
  5
47A
  8
0
  6
CONTINUOUS
 62
    18
 10
1.877467312762409
 20
4.314109022120426
 30
0.0
  0
VERTEX
  5
47B
  8
0
  6
CONTINUOUS
 62
    18
 10
1.863399821442965
 20
4.328377034273204
 30
0.0
  0
VERTEX
  5
47C
  8
0
  6
CONTINUOUS
 62
    18
 10
1.851890055817965
 20
4.343649820731538
 30
0.0
  0
VERTEX
  5
47D
  8
0
  6
CONTINUOUS
 62
    18
 10
1.842938015887409
 20
4.359927381495424
 30
0.0
  0
VERTEX
  5
47E
  8
0
  6
CONTINUOUS
 62
    18
 10
1.836543701651298
 20
4.37720971656487
 30
0.0
  0
VERTEX
  5
47F
  8
0
  6
CONTINUOUS
 62
    18
 10
1.832707113109631
 20
4.395496825939869
 30
0.0
  0
VERTEX
  5
480
  8
0
  6
CONTINUOUS
 62
    18
 10
1.831428250262409
 20
4.414788709620425
 30
0.0
  0
VERTEX
  5
481
  8
0
  6
CONTINUOUS
 62
    18
 10
1.832781277606159
 20
4.43359266469855
 30
0.0
  0
VERTEX
  5
482
  8
0
  6
CONTINUOUS
 62
    18
 10
1.836840359637409
 20
4.451777967432925
 30
0.0
  0
VERTEX
  5
483
  8
0
  6
CONTINUOUS
 62
    18
 10
1.843605496356159
 20
4.46934461782355
 30
0.0
  0
VERTEX
  5
484
  8
0
  6
CONTINUOUS
 62
    18
 10
1.853076687762409
 20
4.486292615870425
 30
0.0
  0
VERTEX
  5
485
  8
0
  6
CONTINUOUS
 62
    18
 10
1.865094265887409
 20
4.50193934438605
 30
0.0
  0
VERTEX
  5
486
  8
0
  6
CONTINUOUS
 62
    18
 10
1.879498562762409
 20
4.515602186182925
 30
0.0
  0
VERTEX
  5
487
  8
0
  6
CONTINUOUS
 62
    18
 10
1.896289578387409
 20
4.527281141261051
 30
0.0
  0
VERTEX
  5
488
  8
0
  6
CONTINUOUS
 62
    18
 10
1.915467312762409
 20
4.536976209620426
 30
0.0
  0
VERTEX
  5
489
  8
0
  6
CONTINUOUS
 62
    18
 10
1.932439187762409
 20
4.543242459620428
 30
0.0
  0
VERTEX
  5
48A
  8
0
  6
CONTINUOUS
 62
    18
 10
1.950761062762409
 20
4.548116209620426
 30
0.0
  0
VERTEX
  5
48B
  8
0
  6
CONTINUOUS
 62
    18
 10
1.970432937762409
 20
4.551597459620425
 30
0.0
  0
VERTEX
  5
48C
  8
0
  6
CONTINUOUS
 62
    18
 10
1.991454812762409
 20
4.553686209620427
 30
0.0
  0
VERTEX
  5
48D
  8
0
  6
CONTINUOUS
 62
    18
 10
2.013826687762409
 20
4.554382459620426
 30
0.0
  0
VERTEX
  5
48E
  8
0
  6
CONTINUOUS
 62
    18
 10
2.036623074481159
 20
4.553737318018864
 30
0.0
  0
VERTEX
  5
48F
  8
0
  6
CONTINUOUS
 62
    18
 10
2.057965359637409
 20
4.551801893214176
 30
0.0
  0
VERTEX
  5
490
  8
0
  6
CONTINUOUS
 62
    18
 10
2.077853543231159
 20
4.548576185206363
 30
0.0
  0
VERTEX
  5
491
  8
0
  6
CONTINUOUS
 62
    18
 10
2.096287625262409
 20
4.544060193995426
 30
0.0
  0
VERTEX
  5
492
  8
0
  6
CONTINUOUS
 62
    18
 10
2.113267605731159
 20
4.538253919581363
 30
0.0
  0
VERTEX
  5
493
  8
0
  6
CONTINUOUS
 62
    18
 10
2.128793484637409
 20
4.531157361964176
 30
0.0
  0
VERTEX
  5
494
  8
0
  6
CONTINUOUS
 62
    18
 10
2.142865261981159
 20
4.522770521143864
 30
0.0
  0
VERTEX
  5
495
  8
0
  6
CONTINUOUS
 62
    18
 10
2.155482937762409
 20
4.513093397120426
 30
0.0
  0
VERTEX
  5
496
  8
0
  6
CONTINUOUS
 62
    18
 10
2.168150189037919
 20
4.500732587171448
 30
0.0
  0
VERTEX
  5
497
  8
0
  6
CONTINUOUS
 62
    18
 10
2.178973371435879
 20
4.487243907324507
 30
0.0
  0
VERTEX
  5
498
  8
0
  6
CONTINUOUS
 62
    18
 10
2.187952484956287
 20
4.472627357579609
 30
0.0
  0
VERTEX
  5
499
  8
0
  6
CONTINUOUS
 62
    18
 10
2.195087529599144
 20
4.456882937936752
 30
0.0
  0
VERTEX
  5
49A
  8
0
  6
CONTINUOUS
 62
    18
 10
2.20037850536445
 20
4.440010648395935
 30
0.0
  0
VERTEX
  5
49B
  8
0
  6
CONTINUOUS
 62
    18
 10
2.203825412252205
 20
4.42201048895716
 30
0.0
  0
VERTEX
  5
49C
  8
0
  6
CONTINUOUS
 62
    18
 10
2.205428250262409
 20
4.402882459620425
 30
0.0
  0
VERTEX
  5
49D
  8
0
  6
CONTINUOUS
 62
    18
 10
2.104428250262409
 20
4.398382459620426
 30
0.0
  0
VERTEX
  5
49E
  8
0
  6
CONTINUOUS
 62
    18
 10
2.100263943621784
 20
4.416345838526675
 30
0.0
  0
VERTEX
  5
49F
  8
0
  6
CONTINUOUS
 62
    18
 10
2.094247586199909
 20
4.431595350245427
 30
0.0
  0
VERTEX
  5
4A0
  8
0
  6
CONTINUOUS
 62
    18
 10
2.086379177996784
 20
4.444130994776676
 30
0.0
  0
VERTEX
  5
4A1
  8
0
  6
CONTINUOUS
 62
    18
 10
2.076658719012409
 20
4.453952772120426
 30
0.0
  0
VERTEX
  5
4A2
  8
0
  6
CONTINUOUS
 62
    18
 10
2.064680935809284
 20
4.461359510401675
 30
0.0
  0
VERTEX
  5
4A3
  8
0
  6
CONTINUOUS
 62
    18
 10
2.050040554949909
 20
4.466650037745426
 30
0.0
  0
VERTEX
  5
4A4
  8
0
  6
CONTINUOUS
 62
    18
 10
2.032737576434284
 20
4.469824354151675
 30
0.0
  0
VERTEX
  5
4A5
  8
0
  6
CONTINUOUS
 62
    18
 10
2.012772000262409
 20
4.470882459620426
 30
0.0
  0
VERTEX
  5
4A6
  8
0
  6
CONTINUOUS
 62
    18
 10
1.991987820574909
 20
4.469750135401676
 30
0.0
  0
VERTEX
  5
4A7
  8
0
  6
CONTINUOUS
 62
    18
 10
1.973588406512409
 20
4.466353162745426
 30
0.0
  0
VERTEX
  5
4A8
  8
0
  6
CONTINUOUS
 62
    18
 10
1.957573758074909
 20
4.460691541651675
 30
0.0
  0
VERTEX
  5
4A9
  8
0
  6
CONTINUOUS
 62
    18
 10
1.943943875262409
 20
4.452765272120426
 30
0.0
  0
VERTEX
  5
4AA
  8
0
  6
CONTINUOUS
 62
    18
 10
1.931932156512409
 20
4.439181287745425
 30
0.0
  0
VERTEX
  5
4AB
  8
0
  6
CONTINUOUS
 62
    18
 10
1.927928250262409
 20
4.421663709620425
 30
0.0
  0
VERTEX
  5
4AC
  8
0
  6
CONTINUOUS
 62
    18
 10
1.931680203387409
 20
4.405171522120425
 30
0.0
  0
VERTEX
  5
4AD
  8
0
  6
CONTINUOUS
 62
    18
 10
1.942936062762409
 20
4.391241834620426
 30
0.0
  0
VERTEX
  5
4AE
  8
0
  6
CONTINUOUS
 62
    18
 10
1.950819417797131
 20
4.385850450071817
 30
0.0
  0
VERTEX
  5
4AF
  8
0
  6
CONTINUOUS
 62
    18
 10
1.961735107901298
 20
4.380384629759316
 30
0.0
  0
VERTEX
  5
4B0
  8
0
  6
CONTINUOUS
 62
    18
 10
1.975683133074909
 20
4.374844373682925
 30
0.0
  0
VERTEX
  5
4B1
  8
0
  6
CONTINUOUS
 62
    18
 10
1.992663493317965
 20
4.369229681842649
 30
0.0
  0
VERTEX
  5
4B2
  8
0
  6
CONTINUOUS
 62
    18
 10
2.012676188630464
 20
4.363540554238481
 30
0.0
  0
VERTEX
  5
4B3
  8
0
  6
CONTINUOUS
 62
    18
 10
2.035721219012409
 20
4.357776990870426
 30
0.0
  0
VERTEX
  5
4B4
  8
0
  6
CONTINUOUS
 62
    18
 10
2.059216336199909
 20
4.351943332016261
 30
0.0
  0
VERTEX
  5
4B5
  8
0
  6
CONTINUOUS
 62
    18
 10
2.080579291929076
 20
4.346043917953761
 30
0.0
  0
VERTEX
  5
4B6
  8
0
  6
CONTINUOUS
 62
    18
 10
2.099810086199909
 20
4.340078748682926
 30
0.0
  0
VERTEX
  5
4B7
  8
0
  6
CONTINUOUS
 62
    18
 10
2.116908719012409
 20
4.33404782420376
 30
0.0
  0
VERTEX
  5
4B8
  8
0
  6
CONTINUOUS
 62
    18
 10
2.131875190366576
 20
4.327951144516258
 30
0.0
  0
VERTEX
  5
4B9
  8
0
  6
CONTINUOUS
 62
    18
 10
2.144709500262409
 20
4.321788709620425
 30
0.0
  0
VERTEX
  5
4BA
  8
0
  6
CONTINUOUS
 62
    18
 10
2.161402615496784
 20
4.311643445948551
 30
0.0
  0
VERTEX
  5
4BB
  8
0
  6
CONTINUOUS
 62
    18
 10
2.176177273699909
 20
4.299793592432926
 30
0.0
  0
VERTEX
  5
4BC
  8
0
  6
CONTINUOUS
 62
    18
 10
2.189033474871784
 20
4.28623914907355
 30
0.0
  0
VERTEX
  5
4BD
  8
0
  6
CONTINUOUS
 62
    18
 10
2.199971219012409
 20
4.270980115870426
 30
0.0
  0
VERTEX
  5
4BE
  8
0
  6
CONTINUOUS
 62
    18
 10
2.208702420184284
 20
4.253920301417301
 30
0.0
  0
VERTEX
  5
4BF
  8
0
  6
CONTINUOUS
 62
    18
 10
2.214938992449909
 20
4.234963514307927
 30
0.0
  0
VERTEX
  5
4C0
  8
0
  6
CONTINUOUS
 62
    18
 10
2.218680935809284
 20
4.214109754542301
 30
0.0
  0
VERTEX
  5
4C1
  8
0
  6
CONTINUOUS
 62
    18
 10
2.219928250262409
 20
4.191359022120426
 30
0.0
  0
VERTEX
  5
4C2
  8
0
  6
CONTINUOUS
 62
    18
 10
2.218973406512409
 20
4.174389803370427
 30
0.0
  0
VERTEX
  5
4C3
  8
0
  6
CONTINUOUS
 62
    18
 10
2.216108875262409
 20
4.157857147120426
 30
0.0
  0
VERTEX
  5
4C4
  8
0
  6
CONTINUOUS
 62
    18
 10
2.211334656512409
 20
4.141761053370426
 30
0.0
  0
VERTEX
  5
4C5
  8
0
  6
CONTINUOUS
 62
    18
 10
2.204650750262409
 20
4.126101522120425
 30
0.0
  0
VERTEX
  5
4C6
  8
0
  6
CONTINUOUS
 62
    18
 10
2.196057156512409
 20
4.110878553370426
 30
0.0
  0
VERTEX
  5
4C7
  8
0
  6
CONTINUOUS
 62
    18
 10
2.185717469012409
 20
4.096644647120427
 30
0.0
  0
VERTEX
  5
4C8
  8
0
  6
CONTINUOUS
 62
    18
 10
2.173795281512409
 20
4.083952303370425
 30
0.0
  0
VERTEX
  5
4C9
  8
0
  6
CONTINUOUS
 62
    18
 10
2.160290594012409
 20
4.072801522120425
 30
0.0
  0
VERTEX
  5
4CA
  8
0
  6
CONTINUOUS
 62
    18
 10
2.145203406512409
 20
4.063192303370426
 30
0.0
  0
VERTEX
  5
4CB
  8
0
  6
CONTINUOUS
 62
    18
 10
2.128533719012409
 20
4.055124647120426
 30
0.0
  0
VERTEX
  5
4CC
  8
0
  6
CONTINUOUS
 62
    18
 10
2.113386258074909
 20
4.049550645384316
 30
0.0
  0
VERTEX
  5
4CD
  8
0
  6
CONTINUOUS
 62
    18
 10
2.097045437762409
 20
4.044990098509316
 30
0.0
  0
VERTEX
  5
4CE
  8
0
  6
CONTINUOUS
 62
    18
 10
2.079511258074909
 20
4.041443006495426
 30
0.0
  0
VERTEX
  5
4CF
  8
0
  6
CONTINUOUS
 62
    18
 10
2.060783719012409
 20
4.038909369342648
 30
0.0
  0
VERTEX
  5
4D0
  8
0
  6
CONTINUOUS
 62
    18
 10
2.040862820574909
 20
4.037389187050981
 30
0.0
  0
VERTEX
  5
4D1
  8
0
  6
CONTINUOUS
 62
    18
 10
2.019748562762409
 20
4.036882459620426
 30
0.0
  0
VERTEX
  5
4D2
  8
0
  6
CONTINUOUS
 62
    18
 10
1.996734768817096
 20
4.037567029932926
 30
0.0
  0
VERTEX
  5
4D3
  8
0
  6
CONTINUOUS
 62
    18
 10
1.975095730731159
 20
4.039620740870426
 30
0.0
  0
VERTEX
  5
4D4
  8
0
  6
CONTINUOUS
 62
    18
 10
1.954831448504597
 20
4.043043592432925
 30
0.0
  0
VERTEX
  5
4D5
  8
0
  6
CONTINUOUS
 62
    18
 10
1.935941922137409
 20
4.047835584620426
 30
0.0
  0
VERTEX
  5
4D6
  8
0
  6
CONTINUOUS
 62
    18
 10
1.918427151629597
 20
4.053996717432926
 30
0.0
  0
VERTEX
  5
4D7
  8
0
  6
CONTINUOUS
 62
    18
 10
1.902287136981159
 20
4.061526990870425
 30
0.0
  0
VERTEX
  5
4D8
  8
0
  6
CONTINUOUS
 62
    18
 10
1.887521878192096
 20
4.070426404932926
 30
0.0
  0
VERTEX
  5
4D9
  8
0
  6
CONTINUOUS
 62
    18
 10
1.874131375262409
 20
4.080694959620426
 30
0.0
  0
VERTEX
  5
4DA
  8
0
  6
CONTINUOUS
 62
    18
 10
1.862067654559284
 20
4.092274061182926
 30
0.0
  0
VERTEX
  5
4DB
  8
0
  6
CONTINUOUS
 62
    18
 10
1.851282742449909
 20
4.105105115870426
 30
0.0
  0
VERTEX
  5
4DC
  8
0
  6
CONTINUOUS
 62
    18
 10
1.841776638934284
 20
4.119188123682926
 30
0.0
  0
VERTEX
  5
4DD
  8
0
  6
CONTINUOUS
 62
    18
 10
1.833549344012409
 20
4.134523084620426
 30
0.0
  0
VERTEX
  5
4DE
  8
0
  6
CONTINUOUS
 62
    18
 10
1.826600857684284
 20
4.151109998682926
 30
0.0
  0
VERTEX
  5
4DF
  8
0
  6
CONTINUOUS
 62
    18
 10
1.820931179949909
 20
4.168948865870425
 30
0.0
  0
VERTEX
  5
4E0
  8
0
  6
CONTINUOUS
 62
    18
 10
1.816540310809284
 20
4.188039686182925
 30
0.0
  0
SEQEND
  5
6CB
  8
0
  6
CONTINUOUS
 62
    18
  0
POLYLINE
  5
4E1
  8
0
  6
CONTINUOUS
 62
    18
 66
     1
 10
0.0
 20
0.0
 30
0.0
 70
     1
  0
VERTEX
  5
4E2
  8
0
  6
CONTINUOUS
 62
    18
 10
2.513428250262409
 20
4.161882459620426
 30
0.0
  0
VERTEX
  5
4E3
  8
0
  6
CONTINUOUS
 62
    18
 10
2.608928250262409
 20
4.145882459620426
 30
0.0
  0
VERTEX
  5
4E4
  8
0
  6
CONTINUOUS
 62
    18
 10
2.600713719012409
 20
4.125863865870427
 30
0.0
  0
VERTEX
  5
4E5
  8
0
  6
CONTINUOUS
 62
    18
 10
2.590795125262409
 20
4.107851834620425
 30
0.0
  0
VERTEX
  5
4E6
  8
0
  6
CONTINUOUS
 62
    18
 10
2.579172469012409
 20
4.091846365870425
 30
0.0
  0
VERTEX
  5
4E7
  8
0
  6
CONTINUOUS
 62
    18
 10
2.565845750262409
 20
4.077847459620425
 30
0.0
  0
VERTEX
  5
4E8
  8
0
  6
CONTINUOUS
 62
    18
 10
2.550814969012409
 20
4.065855115870425
 30
0.0
  0
VERTEX
  5
4E9
  8
0
  6
CONTINUOUS
 62
    18
 10
2.537025363977687
 20
4.057460693127371
 30
0.0
  0
VERTEX
  5
4EA
  8
0
  6
CONTINUOUS
 62
    18
 10
2.522127903040187
 20
4.050592529064872
 30
0.0
  0
VERTEX
  5
4EB
  8
0
  6
CONTINUOUS
 62
    18
 10
2.506122586199909
 20
4.045250623682926
 30
0.0
  0
VERTEX
  5
4EC
  8
0
  6
CONTINUOUS
 62
    18
 10
2.489009413456854
 20
4.041434976981538
 30
0.0
  0
VERTEX
  5
4ED
  8
0
  6
CONTINUOUS
 62
    18
 10
2.47078838481102
 20
4.039145588960703
 30
0.0
  0
VERTEX
  5
4EE
  8
0
  6
CONTINUOUS
 62
    18
 10
2.451459500262409
 20
4.038382459620426
 30
0.0
  0
VERTEX
  5
4EF
  8
0
  6
CONTINUOUS
 62
    18
 10
2.428622952410847
 20
4.039345594386051
 30
0.0
  0
VERTEX
  5
4F0
  8
0
  6
CONTINUOUS
 62
    18
 10
2.407320340106159
 20
4.042234998682925
 30
0.0
  0
VERTEX
  5
4F1
  8
0
  6
CONTINUOUS
 62
    18
 10
2.387551663348347
 20
4.047050672511051
 30
0.0
  0
VERTEX
  5
4F2
  8
0
  6
CONTINUOUS
 62
    18
 10
2.369316922137409
 20
4.053792615870425
 30
0.0
  0
VERTEX
  5
4F3
  8
0
  6
CONTINUOUS
 62
    18
 10
2.352616116473347
 20
4.062460828761051
 30
0.0
  0
VERTEX
  5
4F4
  8
0
  6
CONTINUOUS
 62
    18
 10
2.337449246356159
 20
4.073055311182926
 30
0.0
  0
VERTEX
  5
4F5
  8
0
  6
CONTINUOUS
 62
    18
 10
2.323816311785847
 20
4.085576063136051
 30
0.0
  0
VERTEX
  5
4F6
  8
0
  6
CONTINUOUS
 62
    18
 10
2.311717312762409
 20
4.100023084620426
 30
0.0
  0
VERTEX
  5
4F7
  8
0
  6
CONTINUOUS
 62
    18
 10
2.30222225536445
 20
4.114658448140836
 30
0.0
  0
VERTEX
  5
4F8
  8
0
  6
CONTINUOUS
 62
    18
 10
2.294187976027716
 20
4.130350252987772
 30
0.0
  0
VERTEX
  5
4F9
  8
0
  6
CONTINUOUS
 62
    18
 10
2.287614474752205
 20
4.147098499161241
 30
0.0
  0
VERTEX
  5
4FA
  8
0
  6
CONTINUOUS
 62
    18
 10
2.282501751537919
 20
4.164903186661242
 30
0.0
  0
VERTEX
  5
4FB
  8
0
  6
CONTINUOUS
 62
    18
 10
2.278849806384858
 20
4.183764315487773
 30
0.0
  0
VERTEX
  5
4FC
  8
0
  6
CONTINUOUS
 62
    18
 10
2.276658639293021
 20
4.203681885640833
 30
0.0
  0
VERTEX
  5
4FD
  8
0
  6
CONTINUOUS
 62
    18
 10
2.275928250262409
 20
4.224655897120425
 30
0.0
  0
VERTEX
  5
4FE
  8
0
  6
CONTINUOUS
 62
    18
 10
2.27666293043819
 20
4.246523145655583
 30
0.0
  0
VERTEX
  5
4FF
  8
0
  6
CONTINUOUS
 62
    18
 10
2.278866970965534
 20
4.26717176626105
 30
0.0
  0
VERTEX
  5
500
  8
0
  6
CONTINUOUS
 62
    18
 10
2.282540371844441
 20
4.286601758936832
 30
0.0
  0
VERTEX
  5
501
  8
0
  6
CONTINUOUS
 62
    18
 10
2.287683133074909
 20
4.304813123682925
 30
0.0
  0
VERTEX
  5
502
  8
0
  6
CONTINUOUS
 62
    18
 10
2.29429525465694
 20
4.321805860499332
 30
0.0
  0
VERTEX
  5
503
  8
0
  6
CONTINUOUS
 62
    18
 10
2.302376736590534
 20
4.33757996938605
 30
0.0
  0
VERTEX
  5
504
  8
0
  6
CONTINUOUS
 62
    18
 10
2.31192757887569
 20
4.352135450343082
 30
0.0
  0
VERTEX
  5
505
  8
0
  6
CONTINUOUS
 62
    18
 10
2.322947781512409
 20
4.365472303370425
 30
0.0
  0
VERTEX
  5
506
  8
0
  6
CONTINUOUS
 62
    18
 10
2.33688950663996
 20
4.378979079518387
 30
0.0
  0
VERTEX
  5
507
  8
0
  6
CONTINUOUS
 62
    18
 10
2.351846378451184
 20
4.390407890105119
 30
0.0
  0
VERTEX
  5
508
  8
0
  6
CONTINUOUS
 62
    18
 10
2.367818396946082
 20
4.39975873513063
 30
0.0
  0
VERTEX
  5
509
  8
0
  6
CONTINUOUS
 62
    18
 10
2.384805562124654
 20
4.407031614594915
 30
0.0
  0
VERTEX
  5
50A
  8
0
  6
CONTINUOUS
 62
    18
 10
2.402807873986899
 20
4.412226528497976
 30
0.0
  0
VERTEX
  5
50B
  8
0
  6
CONTINUOUS
 62
    18
 10
2.421825332532817
 20
4.415343476839814
 30
0.0
  0
VERTEX
  5
50C
  8
0
  6
CONTINUOUS
 62
    18
 10
2.441857937762409
 20
4.416382459620426
 30
0.0
  0
VERTEX
  5
50D
  8
0
  6
CONTINUOUS
 62
    18
 10
2.464236046818532
 20
4.415295246610222
 30
0.0
  0
VERTEX
  5
50E
  8
0
  6
CONTINUOUS
 62
    18
 10
2.485223052558327
 20
4.41203360757961
 30
0.0
  0
VERTEX
  5
50F
  8
0
  6
CONTINUOUS
 62
    18
 10
2.504818954981797
 20
4.406597542528589
 30
0.0
  0
VERTEX
  5
510
  8
0
  6
CONTINUOUS
 62
    18
 10
2.52302375408894
 20
4.398987051457161
 30
0.0
  0
VERTEX
  5
511
  8
0
  6
CONTINUOUS
 62
    18
 10
2.539837449879756
 20
4.389202134365323
 30
0.0
  0
VERTEX
  5
512
  8
0
  6
CONTINUOUS
 62
    18
 10
2.555260042354246
 20
4.37724279125308
 30
0.0
  0
VERTEX
  5
513
  8
0
  6
CONTINUOUS
 62
    18
 10
2.569291531512409
 20
4.363109022120426
 30
0.0
  0
VERTEX
  5
514
  8
0
  6
CONTINUOUS
 62
    18
 10
2.579062509521668
 20
4.350570731225364
 30
0.0
  0
VERTEX
  5
515
  8
0
  6
CONTINUOUS
 62
    18
 10
2.58763065188278
 20
4.336632941873512
 30
0.0
  0
VERTEX
  5
516
  8
0
  6
CONTINUOUS
 62
    18
 10
2.594995958595742
 20
4.321295654064872
 30
0.0
  0
VERTEX
  5
517
  8
0
  6
CONTINUOUS
 62
    18
 10
2.601158429660557
 20
4.304558867799438
 30
0.0
  0
VERTEX
  5
518
  8
0
  6
CONTINUOUS
 62
    18
 10
2.606118065077224
 20
4.286422583077215
 30
0.0
  0
VERTEX
  5
519
  8
0
  6
CONTINUOUS
 62
    18
 10
2.609874864845743
 20
4.266886799898204
 30
0.0
  0
VERTEX
  5
51A
  8
0
  6
CONTINUOUS
 62
    18
 10
2.612428828966113
 20
4.245951518262401
 30
0.0
  0
VERTEX
  5
51B
  8
0
  6
CONTINUOUS
 62
    18
 10
2.613779957438335
 20
4.22361673816981
 30
0.0
  0
VERTEX
  5
51C
  8
0
  6
CONTINUOUS
 62
    18
 10
2.613928250262409
 20
4.199882459620426
 30
0.0
  0
VERTEX
  5
51D
  8
0
  6
CONTINUOUS
 62
    18
 10
2.373928250262409
 20
4.199882459620426
 30
0.0
  0
VERTEX
  5
51E
  8
0
  6
CONTINUOUS
 62
    18
 10
2.375761502215534
 20
4.179756727198551
 30
0.0
  0
VERTEX
  5
51F
  8
0
  6
CONTINUOUS
 62
    18
 10
2.380237820574909
 20
4.161996717432926
 30
0.0
  0
VERTEX
  5
520
  8
0
  6
CONTINUOUS
 62
    18
 10
2.387357205340534
 20
4.146602430323551
 30
0.0
  0
VERTEX
  5
521
  8
0
  6
CONTINUOUS
 62
    18
 10
2.397119656512409
 20
4.133573865870425
 30
0.0
  0
VERTEX
  5
522
  8
0
  6
CONTINUOUS
 62
    18
 10
2.413111409984631
 20
4.120411973509316
 30
0.0
  0
VERTEX
  5
523
  8
0
  6
CONTINUOUS
 62
    18
 10
2.431529378734631
 20
4.112514838092649
 30
0.0
  0
VERTEX
  5
524
  8
0
  6
CONTINUOUS
 62
    18
 10
2.452373562762409
 20
4.109882459620426
 30
0.0
  0
VERTEX
  5
525
  8
0
  6
CONTINUOUS
 62
    18
 10
2.473097195574909
 20
4.112961561182926
 30
0.0
  0
VERTEX
  5
526
  8
0
  6
CONTINUOUS
 62
    18
 10
2.490236844012409
 20
4.122198865870426
 30
0.0
  0
VERTEX
  5
527
  8
0
  6
CONTINUOUS
 62
    18
 10
2.499634847484632
 20
4.132082112398204
 30
0.0
  0
VERTEX
  5
528
  8
0
  6
CONTINUOUS
 62
    18
 10
2.507365316234631
 20
4.145309976981538
 30
0.0
  0
SEQEND
  5
6CA
  8
0
  6
CONTINUOUS
 62
    18
  0
POLYLINE
  5
529
  8
0
  6
CONTINUOUS
 62
    18
 66
     1
 10
0.0
 20
0.0
 30
0.0
 70
     1
  0
VERTEX
  5
52A
  8
0
  6
CONTINUOUS
 62
    18
 10
2.518928250262409
 20
4.258382459620425
 30
0.0
  0
VERTEX
  5
52B
  8
0
  6
CONTINUOUS
 62
    18
 10
2.517200955340534
 20
4.2778411998548
 30
0.0
  0
VERTEX
  5
52C
  8
0
  6
CONTINUOUS
 62
    18
 10
2.513042508074909
 20
4.294818983057926
 30
0.0
  0
VERTEX
  5
52D
  8
0
  6
CONTINUOUS
 62
    18
 10
2.506452908465534
 20
4.309315809229801
 30
0.0
  0
VERTEX
  5
52E
  8
0
  6
CONTINUOUS
 62
    18
 10
2.497432156512409
 20
4.321331678370425
 30
0.0
  0
VERTEX
  5
52F
  8
0
  6
CONTINUOUS
 62
    18
 10
2.482798909984631
 20
4.333304334620427
 30
0.0
  0
VERTEX
  5
530
  8
0
  6
CONTINUOUS
 62
    18
 10
2.466196045401298
 20
4.340487928370426
 30
0.0
  0
VERTEX
  5
531
  8
0
  6
CONTINUOUS
 62
    18
 10
2.447623562762409
 20
4.342882459620426
 30
0.0
  0
VERTEX
  5
532
  8
0
  6
CONTINUOUS
 62
    18
 10
2.427910021095743
 20
4.340356417953759
 30
0.0
  0
VERTEX
  5
533
  8
0
  6
CONTINUOUS
 62
    18
 10
2.410623562762409
 20
4.33277829295376
 30
0.0
  0
VERTEX
  5
534
  8
0
  6
CONTINUOUS
 62
    18
 10
2.395764187762409
 20
4.320148084620426
 30
0.0
  0
VERTEX
  5
535
  8
0
  6
CONTINUOUS
 62
    18
 10
2.386827176043659
 20
4.307759412745426
 30
0.0
  0
VERTEX
  5
536
  8
0
  6
CONTINUOUS
 62
    18
 10
2.380492703387409
 20
4.293335584620426
 30
0.0
  0
VERTEX
  5
537
  8
0
  6
CONTINUOUS
 62
    18
 10
2.376760769793659
 20
4.276876600245425
 30
0.0
  0
VERTEX
  5
538
  8
0
  6
CONTINUOUS
 62
    18
 10
2.375631375262409
 20
4.258382459620425
 30
0.0
  0
SEQEND
  5
6C9
  8
0
  6
CONTINUOUS
 62
    18
  0
POLYLINE
  5
539
  8
0
  6
CONTINUOUS
 62
    18
 66
     1
 10
0.0
 20
0.0
 30
0.0
 70
     1
  0
VERTEX
  5
53A
  8
0
  6
CONTINUOUS
 62
    18
 10
2.646928250262409
 20
4.408882459620425
 30
0.0
  0
VERTEX
  5
53B
  8
0
  6
CONTINUOUS
 62
    18
 10
2.748928250262409
 20
4.408882459620425
 30
0.0
  0
VERTEX
  5
53C
  8
0
  6
CONTINUOUS
 62
    18
 10
2.835678250262409
 20
4.151530897120425
 30
0.0
  0
VERTEX
  5
53D
  8
0
  6
CONTINUOUS
 62
    18
 10
2.920428250262409
 20
4.408882459620425
 30
0.0
  0
VERTEX
  5
53E
  8
0
  6
CONTINUOUS
 62
    18
 10
3.019428250262409
 20
4.408882459620425
 30
0.0
  0
VERTEX
  5
53F
  8
0
  6
CONTINUOUS
 62
    18
 10
2.891717312762409
 20
4.059780897120426
 30
0.0
  0
VERTEX
  5
540
  8
0
  6
CONTINUOUS
 62
    18
 10
2.868748562762409
 20
3.997007459620425
 30
0.0
  0
VERTEX
  5
541
  8
0
  6
CONTINUOUS
 62
    18
 10
2.860453857901298
 20
3.977514404064871
 30
0.0
  0
VERTEX
  5
542
  8
0
  6
CONTINUOUS
 62
    18
 10
2.852423909984632
 20
3.96135815406487
 30
0.0
  0
VERTEX
  5
543
  8
0
  6
CONTINUOUS
 62
    18
 10
2.844658719012409
 20
3.948538709620426
 30
0.0
  0
VERTEX
  5
544
  8
0
  6
CONTINUOUS
 62
    18
 10
2.832355984637409
 20
3.933391248682926
 30
0.0
  0
VERTEX
  5
545
  8
0
  6
CONTINUOUS
 62
    18
 10
2.818346219012409
 20
3.921401990870426
 30
0.0
  0
VERTEX
  5
546
  8
0
  6
CONTINUOUS
 62
    18
 10
2.801774929949909
 20
3.912143201807925
 30
0.0
  0
VERTEX
  5
547
  8
0
  6
CONTINUOUS
 62
    18
 10
2.781787625262409
 20
3.905187147120426
 30
0.0
  0
VERTEX
  5
548
  8
0
  6
CONTINUOUS
 62
    18
 10
2.766697347484632
 20
3.901962320731537
 30
0.0
  0
VERTEX
  5
549
  8
0
  6
CONTINUOUS
 62
    18
 10
2.750353597484631
 20
3.900027424898203
 30
0.0
  0
VERTEX
  5
54A
  8
0
  6
CONTINUOUS
 62
    18
 10
2.732756375262409
 20
3.899382459620425
 30
0.0
  0
VERTEX
  5
54B
  8
0
  6
CONTINUOUS
 62
    18
 10
2.714417833595743
 20
3.900027424898204
 30
0.0
  0
VERTEX
  5
54C
  8
0
  6
CONTINUOUS
 62
    18
 10
2.696308458595743
 20
3.901962320731537
 30
0.0
  0
VERTEX
  5
54D
  8
0
  6
CONTINUOUS
 62
    18
 10
2.678428250262409
 20
3.905187147120426
 30
0.0
  0
VERTEX
  5
54E
  8
0
  6
CONTINUOUS
 62
    18
 10
2.669928250262409
 20
3.980312147120426
 30
0.0
  0
VERTEX
  5
54F
  8
0
  6
CONTINUOUS
 62
    18
 10
2.691385281512409
 20
3.976989881495426
 30
0.0
  0
VERTEX
  5
550
  8
0
  6
CONTINUOUS
 62
    18
 10
2.710615750262409
 20
3.975882459620426
 30
0.0
  0
VERTEX
  5
551
  8
0
  6
CONTINUOUS
 62
    18
 10
2.731021132206854
 20
3.978059108925983
 30
0.0
  0
VERTEX
  5
552
  8
0
  6
CONTINUOUS
 62
    18
 10
2.747549778040187
 20
3.984589056842649
 30
0.0
  0
VERTEX
  5
553
  8
0
  6
CONTINUOUS
 62
    18
 10
2.760201687762409
 20
3.995472303370426
 30
0.0
  0
VERTEX
  5
554
  8
0
  6
CONTINUOUS
 62
    18
 10
2.770079291929076
 20
4.009724473509316
 30
0.0
  0
VERTEX
  5
555
  8
0
  6
CONTINUOUS
 62
    18
 10
2.778285021095742
 20
4.026361192259316
 30
0.0
  0
VERTEX
  5
556
  8
0
  6
CONTINUOUS
 62
    18
 10
2.784818875262409
 20
4.045382459620425
 30
0.0
  0
SEQEND
  5
6C8
  8
0
  6
CONTINUOUS
 62
    18
  0
POLYLINE
  5
557
  8
0
  6
CONTINUOUS
 62
    18
 66
     1
 10
0.0
 20
0.0
 30
0.0
 70
     1
  0
VERTEX
  5
558
  8
0
  6
CONTINUOUS
 62
    18
 10
3.037928250262409
 20
4.408882459620425
 30
0.0
  0
VERTEX
  5
559
  8
0
  6
CONTINUOUS
 62
    18
 10
3.090928250262409
 20
4.408882459620425
 30
0.0
  0
VERTEX
  5
55A
  8
0
  6
CONTINUOUS
 62
    18
 10
3.090928250262409
 20
4.436015272120426
 30
0.0
  0
VERTEX
  5
55B
  8
0
  6
CONTINUOUS
 62
    18
 10
3.091535183856159
 20
4.457296766261051
 30
0.0
  0
VERTEX
  5
55C
  8
0
  6
CONTINUOUS
 62
    18
 10
3.093355984637409
 20
4.475695936182926
 30
0.0
  0
VERTEX
  5
55D
  8
0
  6
CONTINUOUS
 62
    18
 10
3.096390652606159
 20
4.49121278188605
 30
0.0
  0
VERTEX
  5
55E
  8
0
  6
CONTINUOUS
 62
    18
 10
3.100639187762409
 20
4.503847303370426
 30
0.0
  0
VERTEX
  5
55F
  8
0
  6
CONTINUOUS
 62
    18
 10
3.108930420401299
 20
4.517848171425983
 30
0.0
  0
VERTEX
  5
560
  8
0
  6
CONTINUOUS
 62
    18
 10
3.120856201651298
 20
4.530001817259315
 30
0.0
  0
VERTEX
  5
561
  8
0
  6
CONTINUOUS
 62
    18
 10
3.136416531512409
 20
4.540308240870425
 30
0.0
  0
VERTEX
  5
562
  8
0
  6
CONTINUOUS
 62
    18
 10
3.150312283465534
 20
4.54646571157355
 30
0.0
  0
VERTEX
  5
563
  8
0
  6
CONTINUOUS
 62
    18
 10
3.165933133074909
 20
4.550863904932926
 30
0.0
  0
VERTEX
  5
564
  8
0
  6
CONTINUOUS
 62
    18
 10
3.183279080340534
 20
4.553502820948551
 30
0.0
  0
VERTEX
  5
565
  8
0
  6
CONTINUOUS
 62
    18
 10
3.202350125262409
 20
4.554382459620426
 30
0.0
  0
VERTEX
  5
566
  8
0
  6
CONTINUOUS
 62
    18
 10
3.222688992449909
 20
4.553616834620426
 30
0.0
  0
VERTEX
  5
567
  8
0
  6
CONTINUOUS
 62
    18
 10
3.242814969012409
 20
4.551319959620426
 30
0.0
  0
VERTEX
  5
568
  8
0
  6
CONTINUOUS
 62
    18
 10
3.262728054949909
 20
4.547491834620426
 30
0.0
  0
VERTEX
  5
569
  8
0
  6
CONTINUOUS
 62
    18
 10
3.282428250262409
 20
4.542132459620426
 30
0.0
  0
VERTEX
  5
56A
  8
0
  6
CONTINUOUS
 62
    18
 10
3.269678250262409
 20
4.475429334620426
 30
0.0
  0
VERTEX
  5
56B
  8
0
  6
CONTINUOUS
 62
    18
 10
3.254658284984631
 20
4.478458848509316
 30
0.0
  0
VERTEX
  5
56C
  8
0
  6
CONTINUOUS
 62
    18
 10
3.240015055817965
 20
4.480276556842648
 30
0.0
  0
VERTEX
  5
56D
  8
0
  6
CONTINUOUS
 62
    18
 10
3.225748562762409
 20
4.480882459620426
 30
0.0
  0
VERTEX
  5
56E
  8
0
  6
CONTINUOUS
 62
    18
 10
3.207912625262409
 20
4.478474256495426
 30
0.0
  0
VERTEX
  5
56F
  8
0
  6
CONTINUOUS
 62
    18
 10
3.195951687762409
 20
4.471249647120426
 30
0.0
  0
VERTEX
  5
570
  8
0
  6
CONTINUOUS
 62
    18
 10
3.189184109637409
 20
4.457179334620426
 30
0.0
  0
VERTEX
  5
571
  8
0
  6
CONTINUOUS
 62
    18
 10
3.186928250262409
 20
4.434234022120426
 30
0.0
  0
VERTEX
  5
572
  8
0
  6
CONTINUOUS
 62
    18
 10
3.186928250262409
 20
4.408882459620425
 30
0.0
  0
VERTEX
  5
573
  8
0
  6
CONTINUOUS
 62
    18
 10
3.258428250262409
 20
4.408882459620425
 30
0.0
  0
VERTEX
  5
574
  8
0
  6
CONTINUOUS
 62
    18
 10
3.258428250262409
 20
4.333382459620426
 30
0.0
  0
VERTEX
  5
575
  8
0
  6
CONTINUOUS
 62
    18
 10
3.186928250262409
 20
4.333382459620426
 30
0.0
  0
VERTEX
  5
576
  8
0
  6
CONTINUOUS
 62
    18
 10
3.186928250262409
 20
4.046382459620426
 30
0.0
  0
VERTEX
  5
577
  8
0
  6
CONTINUOUS
 62
    18
 10
3.090928250262409
 20
4.046382459620426
 30
0.0
  0
VERTEX
  5
578
  8
0
  6
CONTINUOUS
 62
    18
 10
3.090928250262409
 20
4.333382459620426
 30
0.0
  0
VERTEX
  5
579
  8
0
  6
CONTINUOUS
 62
    18
 10
3.037928250262409
 20
4.333382459620426
 30
0.0
  0
SEQEND
  5
6C7
  8
0
  6
CONTINUOUS
 62
    18
  0
POLYLINE
  5
57A
  8
0
  6
CONTINUOUS
 62
    18
 66
     1
 10
0.0
 20
0.0
 30
0.0
 70
     1
  0
VERTEX
  5
57B
  8
0
  6
CONTINUOUS
 62
    18
 10
3.550928250262409
 20
4.046382459620426
 30
0.0
  0
VERTEX
  5
57C
  8
0
  6
CONTINUOUS
 62
    18
 10
3.550928250262409
 20
4.100569959620426
 30
0.0
  0
VERTEX
  5
57D
  8
0
  6
CONTINUOUS
 62
    18
 10
3.540255886981159
 20
4.086858045557926
 30
0.0
  0
VERTEX
  5
57E
  8
0
  6
CONTINUOUS
 62
    18
 10
3.528027859637409
 20
4.074691053370426
 30
0.0
  0
VERTEX
  5
57F
  8
0
  6
CONTINUOUS
 62
    18
 10
3.514244168231159
 20
4.064068983057926
 30
0.0
  0
VERTEX
  5
580
  8
0
  6
CONTINUOUS
 62
    18
 10
3.498904812762409
 20
4.054991834620425
 30
0.0
  0
VERTEX
  5
581
  8
0
  6
CONTINUOUS
 62
    18
 10
3.482563504168659
 20
4.047725233057926
 30
0.0
  0
VERTEX
  5
582
  8
0
  6
CONTINUOUS
 62
    18
 10
3.465773953387409
 20
4.042534803370425
 30
0.0
  0
VERTEX
  5
583
  8
0
  6
CONTINUOUS
 62
    18
 10
3.448536160418659
 20
4.039420545557926
 30
0.0
  0
VERTEX
  5
584
  8
0
  6
CONTINUOUS
 62
    18
 10
3.430850125262409
 20
4.038382459620426
 30
0.0
  0
VERTEX
  5
585
  8
0
  6
CONTINUOUS
 62
    18
 10
3.413069119403034
 20
4.039384656886051
 30
0.0
  0
VERTEX
  5
586
  8
0
  6
CONTINUOUS
 62
    18
 10
3.396226101824909
 20
4.042391248682926
 30
0.0
  0
VERTEX
  5
587
  8
0
  6
CONTINUOUS
 62
    18
 10
3.380321072528034
 20
4.047402235011051
 30
0.0
  0
VERTEX
  5
588
  8
0
  6
CONTINUOUS
 62
    18
 10
3.365354031512409
 20
4.054417615870426
 30
0.0
  0
VERTEX
  5
589
  8
0
  6
CONTINUOUS
 62
    18
 10
3.351857937762409
 20
4.063245252589176
 30
0.0
  0
VERTEX
  5
58A
  8
0
  6
CONTINUOUS
 62
    18
 10
3.340365750262409
 20
4.073693006495426
 30
0.0
  0
VERTEX
  5
58B
  8
0
  6
CONTINUOUS
 62
    18
 10
3.330877469012409
 20
4.085760877589176
 30
0.0
  0
VERTEX
  5
58C
  8
0
  6
CONTINUOUS
 62
    18
 10
3.323393094012409
 20
4.099448865870426
 30
0.0
  0
VERTEX
  5
58D
  8
0
  6
CONTINUOUS
 62
    18
 10
3.317720974871784
 20
4.1153333873548
 30
0.0
  0
VERTEX
  5
58E
  8
0
  6
CONTINUOUS
 62
    18
 10
3.313669461199909
 20
4.133990858057926
 30
0.0
  0
VERTEX
  5
58F
  8
0
  6
CONTINUOUS
 62
    18
 10
3.311238552996784
 20
4.155421277979801
 30
0.0
  0
VERTEX
  5
590
  8
0
  6
CONTINUOUS
 62
    18
 10
3.310428250262409
 20
4.179624647120425
 30
0.0
  0
VERTEX
  5
591
  8
0
  6
CONTINUOUS
 62
    18
 10
3.310428250262409
 20
4.408882459620425
 30
0.0
  0
VERTEX
  5
592
  8
0
  6
CONTINUOUS
 62
    18
 10
3.406428250262409
 20
4.408882459620425
 30
0.0
  0
VERTEX
  5
593
  8
0
  6
CONTINUOUS
 62
    18
 10
3.406428250262409
 20
4.242671522120426
 30
0.0
  0
VERTEX
  5
594
  8
0
  6
CONTINUOUS
 62
    18
 10
3.40663918776241
 20
4.214516678370427
 30
0.0
  0
VERTEX
  5
595
  8
0
  6
CONTINUOUS
 62
    18
 10
3.407272000262409
 20
4.191089647120426
 30
0.0
  0
VERTEX
  5
596
  8
0
  6
CONTINUOUS
 62
    18
 10
3.408326687762409
 20
4.172390428370425
 30
0.0
  0
VERTEX
  5
597
  8
0
  6
CONTINUOUS
 62
    18
 10
3.409803250262409
 20
4.158419022120427
 30
0.0
  0
VERTEX
  5
598
  8
0
  6
CONTINUOUS
 62
    18
 10
3.411701687762409
 20
4.149175428370426
 30
0.0
  0
VERTEX
  5
599
  8
0
  6
CONTINUOUS
 62
    18
 10
3.419146023699909
 20
4.133764295557925
 30
0.0
  0
VERTEX
  5
59A
  8
0
  6
CONTINUOUS
 62
    18
 10
3.430932156512409
 20
4.121929334620425
 30
0.0
  0
VERTEX
  5
59B
  8
0
  6
CONTINUOUS
 62
    18
 10
3.446759304949909
 20
4.114394178370425
 30
0.0
  0
VERTEX
  5
59C
  8
0
  6
CONTINUOUS
 62
    18
 10
3.466326687762409
 20
4.111882459620426
 30
0.0
  0
VERTEX
  5
59D
  8
0
  6
CONTINUOUS
 62
    18
 10
3.482097521095743
 20
4.113377251287094
 30
0.0
  0
VERTEX
  5
59E
  8
0
  6
CONTINUOUS
 62
    18
 10
3.496732937762409
 20
4.117861626287093
 30
0.0
  0
VERTEX
  5
59F
  8
0
  6
CONTINUOUS
 62
    18
 10
3.510232937762409
 20
4.125335584620426
 30
0.0
  0
VERTEX
  5
5A0
  8
0
  6
CONTINUOUS
 62
    18
 10
3.521804118317965
 20
4.135023518648205
 30
0.0
  0
VERTEX
  5
5A1
  8
0
  6
CONTINUOUS
 62
    18
 10
3.530653076651298
 20
4.146149820731538
 30
0.0
  0
VERTEX
  5
5A2
  8
0
  6
CONTINUOUS
 62
    18
 10
3.536779812762409
 20
4.158714490870426
 30
0.0
  0
VERTEX
  5
5A3
  8
0
  6
CONTINUOUS
 62
    18
 10
3.538964057554076
 20
4.166960042085705
 30
0.0
  0
VERTEX
  5
5A4
  8
0
  6
CONTINUOUS
 62
    18
 10
3.540751166929076
 20
4.178412841564872
 30
0.0
  0
VERTEX
  5
5A5
  8
0
  6
CONTINUOUS
 62
    18
 10
3.542141140887409
 20
4.193072889307926
 30
0.0
  0
VERTEX
  5
5A6
  8
0
  6
CONTINUOUS
 62
    18
 10
3.543133979429076
 20
4.210940185314871
 30
0.0
  0
VERTEX
  5
5A7
  8
0
  6
CONTINUOUS
 62
    18
 10
3.543729682554075
 20
4.232014729585703
 30
0.0
  0
VERTEX
  5
5A8
  8
0
  6
CONTINUOUS
 62
    18
 10
3.543928250262409
 20
4.256296522120426
 30
0.0
  0
VERTEX
  5
5A9
  8
0
  6
CONTINUOUS
 62
    18
 10
3.543928250262409
 20
4.408882459620425
 30
0.0
  0
VERTEX
  5
5AA
  8
0
  6
CONTINUOUS
 62
    18
 10
3.639928250262409
 20
4.408882459620425
 30
0.0
  0
VERTEX
  5
5AB
  8
0
  6
CONTINUOUS
 62
    18
 10
3.639928250262409
 20
4.046382459620426
 30
0.0
  0
SEQEND
  5
6C6
  8
0
  6
CONTINUOUS
 62
    18
  0
POLYLINE
  5
5AC
  8
0
  6
CONTINUOUS
 62
    18
 66
     1
 10
0.0
 20
0.0
 30
0.0
 70
     1
  0
VERTEX
  5
5AD
  8
0
  6
CONTINUOUS
 62
    18
 10
3.738928250262409
 20
4.046382459620426
 30
0.0
  0
VERTEX
  5
5AE
  8
0
  6
CONTINUOUS
 62
    18
 10
3.738928250262409
 20
4.546382459620426
 30
0.0
  0
VERTEX
  5
5AF
  8
0
  6
CONTINUOUS
 62
    18
 10
3.834928250262409
 20
4.546382459620426
 30
0.0
  0
VERTEX
  5
5B0
  8
0
  6
CONTINUOUS
 62
    18
 10
3.834928250262409
 20
4.046382459620426
 30
0.0
  0
SEQEND
  5
6C5
  8
0
  6
CONTINUOUS
 62
    18
  0
POLYLINE
  5
5B1
  8
0
  6
CONTINUOUS
 62
    18
 66
     1
 10
0.0
 20
0.0
 30
0.0
 70
     1
  0
VERTEX
  5
5B2
  8
0
  6
CONTINUOUS
 62
    18
 10
3.932928250262409
 20
4.046382459620426
 30
0.0
  0
VERTEX
  5
5B3
  8
0
  6
CONTINUOUS
 62
    18
 10
3.932928250262409
 20
4.546382459620426
 30
0.0
  0
VERTEX
  5
5B4
  8
0
  6
CONTINUOUS
 62
    18
 10
4.028928250262409
 20
4.546382459620426
 30
0.0
  0
VERTEX
  5
5B5
  8
0
  6
CONTINUOUS
 62
    18
 10
4.028928250262409
 20
4.046382459620426
 30
0.0
  0
SEQEND
  5
6C4
  8
0
  6
CONTINUOUS
 62
    18
  0
POLYLINE
  5
5B6
  8
0
  6
CONTINUOUS
 62
    18
 66
     1
 10
0.0
 20
0.0
 30
0.0
 70
     1
  0
VERTEX
  5
5B7
  8
0
  6
CONTINUOUS
 62
    18
 10
4.198928250262409
 20
4.297382459620426
 30
0.0
  0
VERTEX
  5
5B8
  8
0
  6
CONTINUOUS
 62
    18
 10
4.111928250262409
 20
4.312882459620425
 30
0.0
  0
VERTEX
  5
5B9
  8
0
  6
CONTINUOUS
 62
    18
 10
4.11863262526241
 20
4.332898084620428
 30
0.0
  0
VERTEX
  5
5BA
  8
0
  6
CONTINUOUS
 62
    18
 10
4.127027000262409
 20
4.350719959620426
 30
0.0
  0
VERTEX
  5
5BB
  8
0
  6
CONTINUOUS
 62
    18
 10
4.137111375262409
 20
4.366348084620427
 30
0.0
  0
VERTEX
  5
5BC
  8
0
  6
CONTINUOUS
 62
    18
 10
4.148885750262409
 20
4.379782459620427
 30
0.0
  0
VERTEX
  5
5BD
  8
0
  6
CONTINUOUS
 62
    18
 10
4.162350125262408
 20
4.391023084620426
 30
0.0
  0
VERTEX
  5
5BE
  8
0
  6
CONTINUOUS
 62
    18
 10
4.175239665192965
 20
4.398771782537094
 30
0.0
  0
VERTEX
  5
5BF
  8
0
  6
CONTINUOUS
 62
    18
 10
4.190059326651298
 20
4.405111626287094
 30
0.0
  0
VERTEX
  5
5C0
  8
0
  6
CONTINUOUS
 62
    18
 10
4.206809109637408
 20
4.410042615870426
 30
0.0
  0
VERTEX
  5
5C1
  8
0
  6
CONTINUOUS
 62
    18
 10
4.225489014151298
 20
4.413564751287093
 30
0.0
  0
VERTEX
  5
5C2
  8
0
  6
CONTINUOUS
 62
    18
 10
4.246099040192964
 20
4.415678032537092
 30
0.0
  0
VERTEX
  5
5C3
  8
0
  6
CONTINUOUS
 62
    18
 10
4.268639187762409
 20
4.416382459620426
 30
0.0
  0
VERTEX
  5
5C4
  8
0
  6
CONTINUOUS
 62
    18
 10
4.29295246901241
 20
4.415776053370428
 30
0.0
  0
VERTEX
  5
5C5
  8
0
  6
CONTINUOUS
 62
    18
 10
4.314648562762409
 20
4.413956834620426
 30
0.0
  0
VERTEX
  5
5C6
  8
0
  6
CONTINUOUS
 62
    18
 10
4.333727469012409
 20
4.410924803370426
 30
0.0
  0
VERTEX
  5
5C7
  8
0
  6
CONTINUOUS
 62
    18
 10
4.350189187762409
 20
4.406679959620426
 30
0.0
  0
VERTEX
  5
5C8
  8
0
  6
CONTINUOUS
 62
    18
 10
4.364033719012409
 20
4.401222303370425
 30
0.0
  0
VERTEX
  5
5C9
  8
0
  6
CONTINUOUS
 62
    18
 10
4.382864448179076
 20
4.390206678370427
 30
0.0
  0
VERTEX
  5
5CA
  8
0
  6
CONTINUOUS
 62
    18
 10
4.397570177345743
 20
4.377373345037093
 30
0.0
  0
VERTEX
  5
5CB
  8
0
  6
CONTINUOUS
 62
    18
 10
4.408150906512409
 20
4.362722303370425
 30
0.0
  0
VERTEX
  5
5CC
  8
0
  6
CONTINUOUS
 62
    18
 10
4.412750750262409
 20
4.351826209620427
 30
0.0
  0
VERTEX
  5
5CD
  8
0
  6
CONTINUOUS
 62
    18
 10
4.416328406512409
 20
4.337809803370425
 30
0.0
  0
VERTEX
  5
5CE
  8
0
  6
CONTINUOUS
 62
    18
 10
4.418883875262408
 20
4.320673084620426
 30
0.0
  0
VERTEX
  5
5CF
  8
0
  6
CONTINUOUS
 62
    18
 10
4.420417156512409
 20
4.300416053370427
 30
0.0
  0
VERTEX
  5
5D0
  8
0
  6
CONTINUOUS
 62
    18
 10
4.420928250262408
 20
4.277038709620426
 30
0.0
  0
VERTEX
  5
5D1
  8
0
  6
CONTINUOUS
 62
    18
 10
4.419428250262409
 20
4.165288709620426
 30
0.0
  0
VERTEX
  5
5D2
  8
0
  6
CONTINUOUS
 62
    18
 10
4.419718289324909
 20
4.143002576807926
 30
0.0
  0
VERTEX
  5
5D3
  8
0
  6
CONTINUOUS
 62
    18
 10
4.420588406512408
 20
4.123847303370425
 30
0.0
  0
VERTEX
  5
5D4
  8
0
  6
CONTINUOUS
 62
    18
 10
4.422038601824909
 20
4.107822889307926
 30
0.0
  0
VERTEX
  5
5D5
  8
0
  6
CONTINUOUS
 62
    18
 10
4.424068875262408
 20
4.094929334620426
 30
0.0
  0
VERTEX
  5
5D6
  8
0
  6
CONTINUOUS
 62
    18
 10
4.428060194706854
 20
4.07946579295376
 30
0.0
  0
VERTEX
  5
5D7
  8
0
  6
CONTINUOUS
 62
    18
 10
4.433846653040186
 20
4.063283501287093
 30
0.0
  0
VERTEX
  5
5D8
  8
0
  6
CONTINUOUS
 62
    18
 10
4.441428250262408
 20
4.046382459620426
 30
0.0
  0
VERTEX
  5
5D9
  8
0
  6
CONTINUOUS
 62
    18
 10
4.346428250262409
 20
4.046382459620426
 30
0.0
  0
VERTEX
  5
5DA
  8
0
  6
CONTINUOUS
 62
    18
 10
4.342262234637409
 20
4.058263318995426
 30
0.0
  0
VERTEX
  5
5DB
  8
0
  6
CONTINUOUS
 62
    18
 10
4.337248562762409
 20
4.074765272120426
 30
0.0
  0
VERTEX
  5
5DC
  8
0
  6
CONTINUOUS
 62
    18
 10
4.335205594012409
 20
4.081859022120426
 30
0.0
  0
VERTEX
  5
5DD
  8
0
  6
CONTINUOUS
 62
    18
 10
4.333842312762409
 20
4.086046522120426
 30
0.0
  0
VERTEX
  5
5DE
  8
0
  6
CONTINUOUS
 62
    18
 10
4.321390896746784
 20
4.074876844386051
 30
0.0
  0
VERTEX
  5
5DF
  8
0
  6
CONTINUOUS
 62
    18
 10
4.308513211199909
 20
4.065195936182926
 30
0.0
  0
VERTEX
  5
5E0
  8
0
  6
CONTINUOUS
 62
    18
 10
4.295209256121784
 20
4.057003797511051
 30
0.0
  0
VERTEX
  5
5E1
  8
0
  6
CONTINUOUS
 62
    18
 10
4.281479031512409
 20
4.050300428370425
 30
0.0
  0
VERTEX
  5
5E2
  8
0
  6
CONTINUOUS
 62
    18
 10
4.262472521095742
 20
4.043679334620427
 30
0.0
  0
VERTEX
  5
5E3
  8
0
  6
CONTINUOUS
 62
    18
 10
4.242635281512409
 20
4.039706678370427
 30
0.0
  0
VERTEX
  5
5E4
  8
0
  6
CONTINUOUS
 62
    18
 10
4.221967312762409
 20
4.038382459620426
 30
0.0
  0
VERTEX
  5
5E5
  8
0
  6
CONTINUOUS
 62
    18
 10
4.200606219012409
 20
4.039591522120427
 30
0.0
  0
VERTEX
  5
5E6
  8
0
  6
CONTINUOUS
 62
    18
 10
4.181135437762409
 20
4.043218709620426
 30
0.0
  0
VERTEX
  5
5E7
  8
0
  6
CONTINUOUS
 62
    18
 10
4.163554969012409
 20
4.049264022120425
 30
0.0
  0
VERTEX
  5
5E8
  8
0
  6
CONTINUOUS
 62
    18
 10
4.147864812762409
 20
4.057727459620426
 30
0.0
  0
VERTEX
  5
5E9
  8
0
  6
CONTINUOUS
 62
    18
 10
4.134064969012408
 20
4.068609022120426
 30
0.0
  0
VERTEX
  5
5EA
  8
0
  6
CONTINUOUS
 62
    18
 10
4.122495750262409
 20
4.081338084620428
 30
0.0
  0
VERTEX
  5
5EB
  8
0
  6
CONTINUOUS
 62
    18
 10
4.113497469012408
 20
4.095344022120425
 30
0.0
  0
VERTEX
  5
5EC
  8
0
  6
CONTINUOUS
 62
    18
 10
4.107070125262409
 20
4.110626834620426
 30
0.0
  0
VERTEX
  5
5ED
  8
0
  6
CONTINUOUS
 62
    18
 10
4.103213719012409
 20
4.127186522120426
 30
0.0
  0
VERTEX
  5
5EE
  8
0
  6
CONTINUOUS
 62
    18
 10
4.101928250262409
 20
4.145023084620425
 30
0.0
  0
VERTEX
  5
5EF
  8
0
  6
CONTINUOUS
 62
    18
 10
4.10355325026241
 20
4.164662407537093
 30
0.0
  0
VERTEX
  5
5F0
  8
0
  6
CONTINUOUS
 62
    18
 10
4.108428250262409
 20
4.182830376287093
 30
0.0
  0
VERTEX
  5
5F1
  8
0
  6
CONTINUOUS
 62
    18
 10
4.116553250262409
 20
4.199526990870425
 30
0.0
  0
VERTEX
  5
5F2
  8
0
  6
CONTINUOUS
 62
    18
 10
4.127607503734632
 20
4.214242702675983
 30
0.0
  0
VERTEX
  5
5F3
  8
0
  6
CONTINUOUS
 62
    18
 10
4.141270264151298
 20
4.226467963092649
 30
0.0
  0
VERTEX
  5
5F4
  8
0
  6
CONTINUOUS
 62
    18
 10
4.157541531512408
 20
4.236202772120426
 30
0.0
  0
VERTEX
  5
5F5
  8
0
  6
CONTINUOUS
 62
    18
 10
4.172179470965533
 20
4.242368787745425
 30
0.0
  0
VERTEX
  5
5F6
  8
0
  6
CONTINUOUS
 62
    18
 10
4.189730008074909
 20
4.248132459620425
 30
0.0
  0
VERTEX
  5
5F7
  8
0
  6
CONTINUOUS
 62
    18
 10
4.210193142840533
 20
4.253493787745425
 30
0.0
  0
VERTEX
  5
5F8
  8
0
  6
CONTINUOUS
 62
    18
 10
4.233568875262408
 20
4.258452772120426
 30
0.0
  0
VERTEX
  5
5F9
  8
0
  6
CONTINUOUS
 62
    18
 10
4.258725750262409
 20
4.263409959620428
 30
0.0
  0
VERTEX
  5
5FA
  8
0
  6
CONTINUOUS
 62
    18
 10
4.280590125262409
 20
4.268231522120425
 30
0.0
  0
VERTEX
  5
5FB
  8
0
  6
CONTINUOUS
 62
    18
 10
4.299162000262409
 20
4.272917459620425
 30
0.0
  0
VERTEX
  5
5FC
  8
0
  6
CONTINUOUS
 62
    18
 10
4.314441375262409
 20
4.277467772120426
 30
0.0
  0
VERTEX
  5
5FD
  8
0
  6
CONTINUOUS
 62
    18
 10
4.326428250262408
 20
4.281882459620426
 30
0.0
  0
VERTEX
  5
5FE
  8
0
  6
CONTINUOUS
 62
    18
 10
4.326428250262408
 20
4.291476209620425
 30
0.0
  0
VERTEX
  5
5FF
  8
0
  6
CONTINUOUS
 62
    18
 10
4.324921305817965
 20
4.308211018648204
 30
0.0
  0
VERTEX
  5
600
  8
0
  6
CONTINUOUS
 62
    18
 10
4.32040047248463
 20
4.32140502906487
 30
0.0
  0
VERTEX
  5
601
  8
0
  6
CONTINUOUS
 62
    18
 10
4.312865750262409
 20
4.331058240870425
 30
0.0
  0
VERTEX
  5
602
  8
0
  6
CONTINUOUS
 62
    18
 10
4.301148736373521
 20
4.337627251287094
 30
0.0
  0
VERTEX
  5
603
  8
0
  6
CONTINUOUS
 62
    18
 10
4.284081028040187
 20
4.341568657537093
 30
0.0
  0
VERTEX
  5
604
  8
0
  6
CONTINUOUS
 62
    18
 10
4.261662625262408
 20
4.342882459620426
 30
0.0
  0
VERTEX
  5
605
  8
0
  6
CONTINUOUS
 62
    18
 10
4.245948649567965
 20
4.341760931842649
 30
0.0
  0
VERTEX
  5
606
  8
0
  6
CONTINUOUS
 62
    18
 10
4.232723389151298
 20
4.338396348509316
 30
0.0
  0
VERTEX
  5
607
  8
0
  6
CONTINUOUS
 62
    18
 10
4.221986844012409
 20
4.332788709620425
 30
0.0
  0
VERTEX
  5
608
  8
0
  6
CONTINUOUS
 62
    18
 10
4.213096653040187
 20
4.324368570731538
 30
0.0
  0
VERTEX
  5
609
  8
0
  6
CONTINUOUS
 62
    18
 10
4.20541045512352
 20
4.312566487398205
 30
0.0
  0
SEQEND
  5
6C3
  8
0
  6
CONTINUOUS
 62
    18
  0
POLYLINE
  5
60A
  8
0
  6
CONTINUOUS
 62
    18
 66
     1
 10
0.0
 20
0.0
 30
0.0
 70
     1
  0
VERTEX
  5
60B
  8
0
  6
CONTINUOUS
 62
    18
 10
4.326428250262408
 20
4.219382459620426
 30
0.0
  0
VERTEX
  5
60C
  8
0
  6
CONTINUOUS
 62
    18
 10
4.311847087067965
 20
4.21506735545376
 30
0.0
  0
VERTEX
  5
60D
  8
0
  6
CONTINUOUS
 62
    18
 10
4.292520264151298
 20
4.210226209620426
 30
0.0
  0
VERTEX
  5
60E
  8
0
  6
CONTINUOUS
 62
    18
 10
4.268447781512409
 20
4.204859022120425
 30
0.0
  0
VERTEX
  5
60F
  8
0
  6
CONTINUOUS
 62
    18
 10
4.245054118317965
 20
4.199266140175983
 30
0.0
  0
VERTEX
  5
610
  8
0
  6
CONTINUOUS
 62
    18
 10
4.227763753734632
 20
4.193747911009315
 30
0.0
  0
VERTEX
  5
611
  8
0
  6
CONTINUOUS
 62
    18
 10
4.216576687762409
 20
4.188304334620426
 30
0.0
  0
VERTEX
  5
612
  8
0
  6
CONTINUOUS
 62
    18
 10
4.202590359637409
 20
4.173359022120425
 30
0.0
  0
VERTEX
  5
613
  8
0
  6
CONTINUOUS
 62
    18
 10
4.197928250262409
 20
4.154866834620425
 30
0.0
  0
VERTEX
  5
614
  8
0
  6
CONTINUOUS
 62
    18
 10
4.201657742449909
 20
4.136282850245426
 30
0.0
  0
VERTEX
  5
615
  8
0
  6
CONTINUOUS
 62
    18
 10
4.212846219012409
 20
4.120405897120426
 30
0.0
  0
VERTEX
  5
616
  8
0
  6
CONTINUOUS
 62
    18
 10
4.223695611373521
 20
4.112337320731538
 30
0.0
  0
VERTEX
  5
617
  8
0
  6
CONTINUOUS
 62
    18
 10
4.236353163456854
 20
4.107496174898205
 30
0.0
  0
VERTEX
  5
618
  8
0
  6
CONTINUOUS
 62
    18
 10
4.250818875262409
 20
4.105882459620426
 30
0.0
  0
VERTEX
  5
619
  8
0
  6
CONTINUOUS
 62
    18
 10
4.267732937762409
 20
4.107759195731537
 30
0.0
  0
VERTEX
  5
61A
  8
0
  6
CONTINUOUS
 62
    18
 10
4.284120958595743
 20
4.113389404064871
 30
0.0
  0
VERTEX
  5
61B
  8
0
  6
CONTINUOUS
 62
    18
 10
4.299982937762408
 20
4.122773084620426
 30
0.0
  0
VERTEX
  5
61C
  8
0
  6
CONTINUOUS
 62
    18
 10
4.314307156512409
 20
4.137044568995424
 30
0.0
  0
VERTEX
  5
61D
  8
0
  6
CONTINUOUS
 62
    18
 10
4.322701687762409
 20
4.154187147120425
 30
0.0
  0
VERTEX
  5
61E
  8
0
  6
CONTINUOUS
 62
    18
 10
4.32477200026241
 20
4.164735758231538
 30
0.0
  0
VERTEX
  5
61F
  8
0
  6
CONTINUOUS
 62
    18
 10
4.326014187762409
 20
4.18016284156487
 30
0.0
  0
VERTEX
  5
620
  8
0
  6
CONTINUOUS
 62
    18
 10
4.326428250262408
 20
4.200468397120425
 30
0.0
  0
SEQEND
  5
6C2
  8
0
  6
CONTINUOUS
 62
    18
  0
POLYLINE
  5
621
  8
0
  6
CONTINUOUS
 62
    18
 66
     1
 10
0.0
 20
0.0
 30
0.0
 70
     1
  0
VERTEX
  5
622
  8
0
  6
CONTINUOUS
 62
    18
 10
4.610928250262408
 20
4.546382459620426
 30
0.0
  0
VERTEX
  5
623
  8
0
  6
CONTINUOUS
 62
    18
 10
4.610928250262408
 20
4.362569959620425
 30
0.0
  0
VERTEX
  5
624
  8
0
  6
CONTINUOUS
 62
    18
 10
4.624522000262409
 20
4.376846745334714
 30
0.0
  0
VERTEX
  5
625
  8
0
  6
CONTINUOUS
 62
    18
 10
4.638852357405265
 20
4.388927102477569
 30
0.0
  0
VERTEX
  5
626
  8
0
  6
CONTINUOUS
 62
    18
 10
4.65391932169098
 20
4.398811031048997
 30
0.0
  0
VERTEX
  5
627
  8
0
  6
CONTINUOUS
 62
    18
 10
4.669722893119552
 20
4.406498531048998
 30
0.0
  0
VERTEX
  5
628
  8
0
  6
CONTINUOUS
 62
    18
 10
4.68626307169098
 20
4.411989602477568
 30
0.0
  0
VERTEX
  5
629
  8
0
  6
CONTINUOUS
 62
    18
 10
4.703539857405266
 20
4.415284245334712
 30
0.0
  0
VERTEX
  5
62A
  8
0
  6
CONTINUOUS
 62
    18
 10
4.721553250262408
 20
4.416382459620426
 30
0.0
  0
VERTEX
  5
62B
  8
0
  6
CONTINUOUS
 62
    18
 10
4.742845350956854
 20
4.415019612398204
 30
0.0
  0
VERTEX
  5
62C
  8
0
  6
CONTINUOUS
 62
    18
 10
4.762700819706854
 20
4.410931070731538
 30
0.0
  0
VERTEX
  5
62D
  8
0
  6
CONTINUOUS
 62
    18
 10
4.781119656512409
 20
4.404116834620425
 30
0.0
  0
VERTEX
  5
62E
  8
0
  6
CONTINUOUS
 62
    18
 10
4.797364014151298
 20
4.395182806842649
 30
0.0
  0
VERTEX
  5
62F
  8
0
  6
CONTINUOUS
 62
    18
 10
4.810696045401298
 20
4.384734890175982
 30
0.0
  0
VERTEX
  5
630
  8
0
  6
CONTINUOUS
 62
    18
 10
4.821115750262408
 20
4.372773084620426
 30
0.0
  0
VERTEX
  5
631
  8
0
  6
CONTINUOUS
 62
    18
 10
4.829133545401298
 20
4.359599907537094
 30
0.0
  0
VERTEX
  5
632
  8
0
  6
CONTINUOUS
 62
    18
 10
4.835259847484632
 20
4.345517876287093
 30
0.0
  0
VERTEX
  5
633
  8
0
  6
CONTINUOUS
 62
    18
 10
4.839494656512409
 20
4.330526990870426
 30
0.0
  0
VERTEX
  5
634
  8
0
  6
CONTINUOUS
 62
    18
 10
4.841653103778034
 20
4.3173460826673
 30
0.0
  0
VERTEX
  5
635
  8
0
  6
CONTINUOUS
 62
    18
 10
4.843194851824909
 20
4.300971326807927
 30
0.0
  0
VERTEX
  5
636
  8
0
  6
CONTINUOUS
 62
    18
 10
4.844119900653034
 20
4.281402723292301
 30
0.0
  0
VERTEX
  5
637
  8
0
  6
CONTINUOUS
 62
    18
 10
4.844428250262409
 20
4.258640272120426
 30
0.0
  0
VERTEX
  5
638
  8
0
  6
CONTINUOUS
 62
    18
 10
4.844428250262409
 20
4.046382459620426
 30
0.0
  0
VERTEX
  5
639
  8
0
  6
CONTINUOUS
 62
    18
 10
4.748428250262409
 20
4.046382459620426
 30
0.0
  0
VERTEX
  5
63A
  8
0
  6
CONTINUOUS
 62
    18
 10
4.748428250262409
 20
4.237351209620425
 30
0.0
  0
VERTEX
  5
63B
  8
0
  6
CONTINUOUS
 62
    18
 10
4.748088650653034
 20
4.263181287745426
 30
0.0
  0
VERTEX
  5
63C
  8
0
  6
CONTINUOUS
 62
    18
 10
4.747069851824909
 20
4.283819959620426
 30
0.0
  0
VERTEX
  5
63D
  8
0
  6
CONTINUOUS
 62
    18
 10
4.745371853778034
 20
4.299267225245426
 30
0.0
  0
VERTEX
  5
63E
  8
0
  6
CONTINUOUS
 62
    18
 10
4.742994656512408
 20
4.309523084620426
 30
0.0
  0
VERTEX
  5
63F
  8
0
  6
CONTINUOUS
 62
    18
 10
4.735481961199909
 20
4.323268201807926
 30
0.0
  0
VERTEX
  5
640
  8
0
  6
CONTINUOUS
 62
    18
 10
4.723811062762408
 20
4.333862928370426
 30
0.0
  0
VERTEX
  5
641
  8
0
  6
CONTINUOUS
 62
    18
 10
4.708322781512408
 20
4.340627576807925
 30
0.0
  0
VERTEX
  5
642
  8
0
  6
CONTINUOUS
 62
    18
 10
4.689357937762408
 20
4.342882459620426
 30
0.0
  0
VERTEX
  5
643
  8
0
  6
CONTINUOUS
 62
    18
 10
4.674079725956854
 20
4.341596435314871
 30
0.0
  0
VERTEX
  5
644
  8
0
  6
CONTINUOUS
 62
    18
 10
4.659932590540187
 20
4.337738362398205
 30
0.0
  0
VERTEX
  5
645
  8
0
  6
CONTINUOUS
 62
    18
 10
4.646916531512408
 20
4.331308240870426
 30
0.0
  0
VERTEX
  5
646
  8
0
  6
CONTINUOUS
 62
    18
 10
4.635579291929076
 20
4.322287407537094
 30
0.0
  0
VERTEX
  5
647
  8
0
  6
CONTINUOUS
 62
    18
 10
4.626468614845742
 20
4.31065719920376
 30
0.0
  0
VERTEX
  5
648
  8
0
  6
CONTINUOUS
 62
    18
 10
4.619584500262409
 20
4.296417615870426
 30
0.0
  0
VERTEX
  5
649
  8
0
  6
CONTINUOUS
 62
    18
 10
4.615797390887408
 20
4.2833656139173
 30
0.0
  0
VERTEX
  5
64A
  8
0
  6
CONTINUOUS
 62
    18
 10
4.613092312762408
 20
4.267526014307926
 30
0.0
  0
VERTEX
  5
64B
  8
0
  6
CONTINUOUS
 62
    18
 10
4.611469265887409
 20
4.248898817042301
 30
0.0
  0
VERTEX
  5
64C
  8
0
  6
CONTINUOUS
 62
    18
 10
4.610928250262408
 20
4.227484022120426
 30
0.0
  0
VERTEX
  5
64D
  8
0
  6
CONTINUOUS
 62
    18
 10
4.610928250262408
 20
4.046382459620426
 30
0.0
  0
VERTEX
  5
64E
  8
0
  6
CONTINUOUS
 62
    18
 10
4.514928250262408
 20
4.046382459620426
 30
0.0
  0
VERTEX
  5
64F
  8
0
  6
CONTINUOUS
 62
    18
 10
4.514928250262408
 20
4.546382459620426
 30
0.0
  0
SEQEND
  5
6C1
  8
0
  6
CONTINUOUS
 62
    18
  0
POLYLINE
  5
650
  8
0
  6
CONTINUOUS
 62
    18
 66
     1
 10
0.0
 20
0.0
 30
0.0
 70
     1
  0
VERTEX
  5
651
  8
0
  6
CONTINUOUS
 62
    18
 10
6.314428250262409
 20
4.046382459620426
 30
0.0
  0
VERTEX
  5
652
  8
0
  6
CONTINUOUS
 62
    18
 10
6.204725125262409
 20
4.046382459620426
 30
0.0
  0
VERTEX
  5
653
  8
0
  6
CONTINUOUS
 62
    18
 10
6.161420437762409
 20
4.159882459620426
 30
0.0
  0
VERTEX
  5
654
  8
0
  6
CONTINUOUS
 62
    18
 10
5.961803250262409
 20
4.159882459620426
 30
0.0
  0
VERTEX
  5
655
  8
0
  6
CONTINUOUS
 62
    18
 10
5.920436062762409
 20
4.046382459620426
 30
0.0
  0
VERTEX
  5
656
  8
0
  6
CONTINUOUS
 62
    18
 10
5.813428250262409
 20
4.046382459620426
 30
0.0
  0
VERTEX
  5
657
  8
0
  6
CONTINUOUS
 62
    18
 10
6.007850125262409
 20
4.546382459620426
 30
0.0
  0
VERTEX
  5
658
  8
0
  6
CONTINUOUS
 62
    18
 10
6.114732937762409
 20
4.546382459620426
 30
0.0
  0
SEQEND
  5
6C0
  8
0
  6
CONTINUOUS
 62
    18
  0
POLYLINE
  5
659
  8
0
  6
CONTINUOUS
 62
    18
 66
     1
 10
0.0
 20
0.0
 30
0.0
 70
     1
  0
VERTEX
  5
65A
  8
0
  6
CONTINUOUS
 62
    18
 10
6.129029812762409
 20
4.244382459620426
 30
0.0
  0
VERTEX
  5
65B
  8
0
  6
CONTINUOUS
 62
    18
 10
6.060178250262409
 20
4.429882459620425
 30
0.0
  0
VERTEX
  5
65C
  8
0
  6
CONTINUOUS
 62
    18
 10
5.992584500262409
 20
4.244382459620426
 30
0.0
  0
SEQEND
  5
6BF
  8
0
  6
CONTINUOUS
 62
    18
  0
POLYLINE
  5
65D
  8
0
  6
CONTINUOUS
 62
    18
 66
     1
 10
0.0
 20
0.0
 30
0.0
 70
     1
  0
VERTEX
  5
65E
  8
0
  6
CONTINUOUS
 62
    18
 10
6.322428250262409
 20
4.408882459620425
 30
0.0
  0
VERTEX
  5
65F
  8
0
  6
CONTINUOUS
 62
    18
 10
6.424428250262409
 20
4.408882459620425
 30
0.0
  0
VERTEX
  5
660
  8
0
  6
CONTINUOUS
 62
    18
 10
6.511178250262408
 20
4.151530897120425
 30
0.0
  0
VERTEX
  5
661
  8
0
  6
CONTINUOUS
 62
    18
 10
6.595928250262409
 20
4.408882459620425
 30
0.0
  0
VERTEX
  5
662
  8
0
  6
CONTINUOUS
 62
    18
 10
6.694928250262409
 20
4.408882459620425
 30
0.0
  0
VERTEX
  5
663
  8
0
  6
CONTINUOUS
 62
    18
 10
6.567217312762408
 20
4.059780897120426
 30
0.0
  0
VERTEX
  5
664
  8
0
  6
CONTINUOUS
 62
    18
 10
6.544248562762409
 20
3.997007459620425
 30
0.0
  0
VERTEX
  5
665
  8
0
  6
CONTINUOUS
 62
    18
 10
6.535953857901299
 20
3.977514404064871
 30
0.0
  0
VERTEX
  5
666
  8
0
  6
CONTINUOUS
 62
    18
 10
6.527923909984632
 20
3.96135815406487
 30
0.0
  0
VERTEX
  5
667
  8
0
  6
CONTINUOUS
 62
    18
 10
6.520158719012408
 20
3.948538709620426
 30
0.0
  0
VERTEX
  5
668
  8
0
  6
CONTINUOUS
 62
    18
 10
6.507855984637408
 20
3.933391248682926
 30
0.0
  0
VERTEX
  5
669
  8
0
  6
CONTINUOUS
 62
    18
 10
6.493846219012409
 20
3.921401990870426
 30
0.0
  0
VERTEX
  5
66A
  8
0
  6
CONTINUOUS
 62
    18
 10
6.477274929949909
 20
3.912143201807925
 30
0.0
  0
VERTEX
  5
66B
  8
0
  6
CONTINUOUS
 62
    18
 10
6.457287625262409
 20
3.905187147120426
 30
0.0
  0
VERTEX
  5
66C
  8
0
  6
CONTINUOUS
 62
    18
 10
6.442197347484632
 20
3.901962320731537
 30
0.0
  0
VERTEX
  5
66D
  8
0
  6
CONTINUOUS
 62
    18
 10
6.425853597484632
 20
3.900027424898203
 30
0.0
  0
VERTEX
  5
66E
  8
0
  6
CONTINUOUS
 62
    18
 10
6.408256375262408
 20
3.899382459620425
 30
0.0
  0
VERTEX
  5
66F
  8
0
  6
CONTINUOUS
 62
    18
 10
6.389917833595743
 20
3.900027424898204
 30
0.0
  0
VERTEX
  5
670
  8
0
  6
CONTINUOUS
 62
    18
 10
6.371808458595743
 20
3.901962320731537
 30
0.0
  0
VERTEX
  5
671
  8
0
  6
CONTINUOUS
 62
    18
 10
6.353928250262409
 20
3.905187147120426
 30
0.0
  0
VERTEX
  5
672
  8
0
  6
CONTINUOUS
 62
    18
 10
6.345428250262408
 20
3.980312147120426
 30
0.0
  0
VERTEX
  5
673
  8
0
  6
CONTINUOUS
 62
    18
 10
6.366885281512409
 20
3.976989881495426
 30
0.0
  0
VERTEX
  5
674
  8
0
  6
CONTINUOUS
 62
    18
 10
6.386115750262409
 20
3.975882459620426
 30
0.0
  0
VERTEX
  5
675
  8
0
  6
CONTINUOUS
 62
    18
 10
6.406521132206854
 20
3.978059108925983
 30
0.0
  0
VERTEX
  5
676
  8
0
  6
CONTINUOUS
 62
    18
 10
6.423049778040187
 20
3.984589056842649
 30
0.0
  0
VERTEX
  5
677
  8
0
  6
CONTINUOUS
 62
    18
 10
6.435701687762409
 20
3.995472303370426
 30
0.0
  0
VERTEX
  5
678
  8
0
  6
CONTINUOUS
 62
    18
 10
6.445579291929076
 20
4.009724473509316
 30
0.0
  0
VERTEX
  5
679
  8
0
  6
CONTINUOUS
 62
    18
 10
6.453785021095743
 20
4.026361192259316
 30
0.0
  0
VERTEX
  5
67A
  8
0
  6
CONTINUOUS
 62
    18
 10
6.460318875262408
 20
4.045382459620425
 30
0.0
  0
SEQEND
  5
6BE
  8
0
  6
CONTINUOUS
 62
    18
  0
POLYLINE
  5
67B
  8
0
  6
CONTINUOUS
 62
    18
 66
     1
 10
0.0
 20
0.0
 30
0.0
 70
     1
  0
VERTEX
  5
67C
  8
0
  6
CONTINUOUS
 62
    18
 10
6.755428250262408
 20
4.046382459620426
 30
0.0
  0
VERTEX
  5
67D
  8
0
  6
CONTINUOUS
 62
    18
 10
6.755428250262408
 20
4.546382459620426
 30
0.0
  0
VERTEX
  5
67E
  8
0
  6
CONTINUOUS
 62
    18
 10
6.851428250262408
 20
4.546382459620426
 30
0.0
  0
VERTEX
  5
67F
  8
0
  6
CONTINUOUS
 62
    18
 10
6.851428250262408
 20
4.046382459620426
 30
0.0
  0
SEQEND
  5
6BD
  8
0
  6
CONTINUOUS
 62
    18
  0
POLYLINE
  5
680
  8
0
  6
CONTINUOUS
 62
    18
 66
     1
 10
0.0
 20
0.0
 30
0.0
 70
     1
  0
VERTEX
  5
681
  8
0
  6
CONTINUOUS
 62
    18
 10
6.949428250262408
 20
4.046382459620426
 30
0.0
  0
VERTEX
  5
682
  8
0
  6
CONTINUOUS
 62
    18
 10
6.949428250262408
 20
4.408882459620425
 30
0.0
  0
VERTEX
  5
683
  8
0
  6
CONTINUOUS
 62
    18
 10
7.045428250262408
 20
4.408882459620425
 30
0.0
  0
VERTEX
  5
684
  8
0
  6
CONTINUOUS
 62
    18
 10
7.045428250262408
 20
4.046382459620426
 30
0.0
  0
SEQEND
  5
6BC
  8
0
  6
CONTINUOUS
 62
    18
  0
POLYLINE
  5
685
  8
0
  6
CONTINUOUS
 62
    18
 66
     1
 10
0.0
 20
0.0
 30
0.0
 70
     1
  0
VERTEX
  5
686
  8
0
  6
CONTINUOUS
 62
    18
 10
6.949428250262408
 20
4.457882459620426
 30
0.0
  0
VERTEX
  5
687
  8
0
  6
CONTINUOUS
 62
    18
 10
6.949428250262408
 20
4.546382459620426
 30
0.0
  0
VERTEX
  5
688
  8
0
  6
CONTINUOUS
 62
    18
 10
7.045428250262408
 20
4.546382459620426
 30
0.0
  0
VERTEX
  5
689
  8
0
  6
CONTINUOUS
 62
    18
 10
7.045428250262408
 20
4.457882459620426
 30
0.0
  0
SEQEND
  5
6BB
  8
0
  6
CONTINUOUS
 62
    18
  0
POLYLINE
  5
68A
  8
0
  6
CONTINUOUS
 62
    18
 66
     1
 10
0.0
 20
0.0
 30
0.0
 70
     1
  0
VERTEX
  5
68B
  8
0
  6
CONTINUOUS
 62
    18
 10
7.472928250262409
 20
4.046382459620426
 30
0.0
  0
VERTEX
  5
68C
  8
0
  6
CONTINUOUS
 62
    18
 10
7.376928250262409
 20
4.046382459620426
 30
0.0
  0
VERTEX
  5
68D
  8
0
  6
CONTINUOUS
 62
    18
 10
7.376928250262409
 20
4.230890272120425
 30
0.0
  0
VERTEX
  5
68E
  8
0
  6
CONTINUOUS
 62
    18
 10
7.376544461199908
 20
4.25757899282355
 30
0.0
  0
VERTEX
  5
68F
  8
0
  6
CONTINUOUS
 62
    18
 10
7.375393094012408
 20
4.279098279932926
 30
0.0
  0
VERTEX
  5
690
  8
0
  6
CONTINUOUS
 62
    18
 10
7.373474148699908
 20
4.29544813344855
 30
0.0
  0
VERTEX
  5
691
  8
0
  6
CONTINUOUS
 62
    18
 10
7.370787625262408
 20
4.306628553370426
 30
0.0
  0
VERTEX
  5
692
  8
0
  6
CONTINUOUS
 62
    18
 10
7.362728054949907
 20
4.321904920557926
 30
0.0
  0
VERTEX
  5
693
  8
0
  6
CONTINUOUS
 62
    18
 10
7.350830594012408
 20
4.333351209620425
 30
0.0
  0
VERTEX
  5
694
  8
0
  6
CONTINUOUS
 62
    18
 10
7.335606961199908
 20
4.340499647120426
 30
0.0
  0
VERTEX
  5
695
  8
0
  6
CONTINUOUS
 62
    18
 10
7.317568875262409
 20
4.342882459620426
 30
0.0
  0
VERTEX
  5
696
  8
0
  6
CONTINUOUS
 62
    18
 10
7.301538059290187
 20
4.341369438787093
 30
0.0
  0
VERTEX
  5
697
  8
0
  6
CONTINUOUS
 62
    18
 10
7.286643528040186
 20
4.336830376287092
 30
0.0
  0
VERTEX
  5
698
  8
0
  6
CONTINUOUS
 62
    18
 10
7.272885281512409
 20
4.329265272120425
 30
0.0
  0
VERTEX
  5
699
  8
0
  6
CONTINUOUS
 62
    18
 10
7.26107842387352
 20
4.319204074203761
 30
0.0
  0
VERTEX
  5
69A
  8
0
  6
CONTINUOUS
 62
    18
 10
7.252038059290187
 20
4.30717673045376
 30
0.0
  0
VERTEX
  5
69B
  8
0
  6
CONTINUOUS
 62
    18
 10
7.245764187762409
 20
4.293183240870426
 30
0.0
  0
VERTEX
  5
69C
  8
0
  6
CONTINUOUS
 62
    18
 10
7.243123250262411
 20
4.282672147120427
 30
0.0
  0
VERTEX
  5
69D
  8
0
  6
CONTINUOUS
 62
    18
 10
7.241069187762408
 20
4.269110740870426
 30
0.0
  0
VERTEX
  5
69E
  8
0
  6
CONTINUOUS
 62
    18
 10
7.239602000262408
 20
4.252499022120425
 30
0.0
  0
VERTEX
  5
69F
  8
0
  6
CONTINUOUS
 62
    18
 10
7.238721687762408
 20
4.232836990870426
 30
0.0
  0
VERTEX
  5
6A0
  8
0
  6
CONTINUOUS
 62
    18
 10
7.238428250262408
 20
4.210124647120425
 30
0.0
  0
VERTEX
  5
6A1
  8
0
  6
CONTINUOUS
 62
    18
 10
7.238428250262408
 20
4.046382459620426
 30
0.0
  0
VERTEX
  5
6A2
  8
0
  6
CONTINUOUS
 62
    18
 10
7.142428250262409
 20
4.046382459620426
 30
0.0
  0
VERTEX
  5
6A3
  8
0
  6
CONTINUOUS
 62
    18
 10
7.142428250262409
 20
4.408882459620425
 30
0.0
  0
VERTEX
  5
6A4
  8
0
  6
CONTINUOUS
 62
    18
 10
7.231428250262408
 20
4.408882459620425
 30
0.0
  0
VERTEX
  5
6A5
  8
0
  6
CONTINUOUS
 62
    18
 10
7.231428250262408
 20
4.355710584620426
 30
0.0
  0
VERTEX
  5
6A6
  8
0
  6
CONTINUOUS
 62
    18
 10
7.245495055109349
 20
4.371807204518388
 30
0.0
  0
VERTEX
  5
6A7
  8
0
  6
CONTINUOUS
 62
    18
 10
7.260566005364449
 20
4.385427421355121
 30
0.0
  0
VERTEX
  5
6A8
  8
0
  6
CONTINUOUS
 62
    18
 10
7.276641101027714
 20
4.396571235130629
 30
0.0
  0
VERTEX
  5
6A9
  8
0
  6
CONTINUOUS
 62
    18
 10
7.293720342099143
 20
4.405238645844916
 30
0.0
  0
VERTEX
  5
6AA
  8
0
  6
CONTINUOUS
 62
    18
 10
7.311803728578735
 20
4.411429653497977
 30
0.0
  0
VERTEX
  5
6AB
  8
0
  6
CONTINUOUS
 62
    18
 10
7.33089126046649
 20
4.415144258089814
 30
0.0
  0
VERTEX
  5
6AC
  8
0
  6
CONTINUOUS
 62
    18
 10
7.350982937762408
 20
4.416382459620426
 30
0.0
  0
VERTEX
  5
6AD
  8
0
  6
CONTINUOUS
 62
    18
 10
7.371552816234633
 20
4.41511423045376
 30
0.0
  0
VERTEX
  5
6AE
  8
0
  6
CONTINUOUS
 62
    18
 10
7.390908284984632
 20
4.41130954295376
 30
0.0
  0
VERTEX
  5
6AF
  8
0
  6
CONTINUOUS
 62
    18
 10
7.409049344012408
 20
4.404968397120426
 30
0.0
  0
VERTEX
  5
6B0
  8
0
  6
CONTINUOUS
 62
    18
 10
7.42516045512352
 20
4.396658935314871
 30
0.0
  0
VERTEX
  5
6B1
  8
0
  6
CONTINUOUS
 62
    18
 10
7.43842608012352
 20
4.386949299898204
 30
0.0
  0
VERTEX
  5
6B2
  8
0
  6
CONTINUOUS
 62
    18
 10
7.448846219012409
 20
4.375839490870426
 30
0.0
  0
VERTEX
  5
6B3
  8
0
  6
CONTINUOUS
 62
    18
 10
7.456932156512409
 20
4.36349921309265
 30
0.0
  0
VERTEX
  5
6B4
  8
0
  6
CONTINUOUS
 62
    18
 10
7.463195177345742
 20
4.350098171425982
 30
0.0
  0
VERTEX
  5
6B5
  8
0
  6
CONTINUOUS
 62
    18
 10
7.467635281512409
 20
4.335636365870426
 30
0.0
  0
VERTEX
  5
6B6
  8
0
  6
CONTINUOUS
 62
    18
 10
7.469950955340533
 20
4.323178602198551
 30
0.0
  0
VERTEX
  5
6B7
  8
0
  6
CONTINUOUS
 62
    18
 10
7.471605008074908
 20
4.308293592432926
 30
0.0
  0
VERTEX
  5
6B8
  8
0
  6
CONTINUOUS
 62
    18
 10
7.472597439715535
 20
4.290981336573551
 30
0.0
  0
VERTEX
  5
6B9
  8
0
  6
CONTINUOUS
 62
    18
 10
7.472928250262409
 20
4.271241834620426
 30
0.0
  0
SEQEND
  5
6BA
  8
0
  6
CONTINUOUS
 62
    18
  0
POLYLINE
  5
7DE
  8
0
 62
    18
 66
     1
 10
0.0
 20
0.0
 30
0.0
 70
     1
  0
VERTEX
  5
8A3
  8
0
 62
    18
 10
5.413455633054387
 20
3.954382459620426
 30
0.0
  0
VERTEX
  5
8A4
  8
0
 62
    18
 10
5.438231844628861
 20
3.976441700428037
 30
0.0
  0
VERTEX
  5
8A5
  8
0
 62
    18
 10
5.462962115812542
 20
3.998555996083565
 30
0.0
  0
VERTEX
  5
8A6
  8
0
 62
    18
 10
5.487600506214632
 20
4.020780401434925
 30
0.0
  0
VERTEX
  5
8A7
  8
0
 62
    18
 10
5.512101075444339
 20
4.043169971330031
 30
0.0
  0
VERTEX
  5
8A8
  8
0
 62
    18
 10
5.536417883110869
 20
4.065779760616802
 30
0.0
  0
VERTEX
  5
8A9
  8
0
 62
    18
 10
5.560504988823427
 20
4.088664824143152
 30
0.0
  0
VERTEX
  5
8AA
  8
0
 62
    18
 10
5.584316452191216
 20
4.111880216756998
 30
0.0
  0
VERTEX
  5
8AB
  8
0
 62
    18
 10
5.607806332823447
 20
4.135480993306257
 30
0.0
  0
VERTEX
  5
8AC
  8
0
 62
    18
 10
5.630928690329323
 20
4.159522208638844
 30
0.0
  0
VERTEX
  5
8AD
  8
0
 62
    18
 10
5.653637584318048
 20
4.184058917602673
 30
0.0
  0
VERTEX
  5
8AE
  8
0
 62
    18
 10
5.675887074398829
 20
4.209146175045662
 30
0.0
  0
VERTEX
  5
8AF
  8
0
 62
    18
 10
5.69763122018087
 20
4.234839035815727
 30
0.0
  0
VERTEX
  5
8B0
  8
0
 62
    18
 10
5.718823760221234
 20
4.261192364027949
 30
0.0
  0
VERTEX
  5
8B1
  8
0
 62
    18
 10
5.739381769477577
 20
4.288239242437726
 30
0.0
  0
VERTEX
  5
8B2
  8
0
 62
    18
 10
5.759152262044707
 20
4.315971131568098
 30
0.0
  0
VERTEX
  5
8B3
  8
0
 62
    18
 10
5.77797436004229
 20
4.344374803424011
 30
0.0
  0
VERTEX
  5
8B4
  8
0
 62
    18
 10
5.795687185589987
 20
4.373437030010411
 30
0.0
  0
VERTEX
  5
8B5
  8
0
 62
    18
 10
5.812129860807462
 20
4.40314458333224
 30
0.0
  0
VERTEX
  5
8B6
  8
0
 62
    18
 10
5.827141507814376
 20
4.433484235394444
 30
0.0
  0
VERTEX
  5
8B7
  8
0
 62
    18
 10
5.840561248730394
 20
4.464442758201968
 30
0.0
  0
VERTEX
  5
8B8
  8
0
 62
    18
 10
5.852228205675174
 20
4.496006923759755
 30
0.0
  0
VERTEX
  5
8B9
  8
0
 62
    18
 10
5.861981500768384
 20
4.528163504072751
 30
0.0
  0
VERTEX
  5
8BA
  8
0
 62
    18
 10
5.869660256129682
 20
4.560899271145899
 30
0.0
  0
VERTEX
  5
8BB
  8
0
 62
    18
 10
5.875103593878733
 20
4.594200996984147
 30
0.0
  0
VERTEX
  5
8BC
  8
0
 62
    18
 10
5.878150636135199
 20
4.628055453592435
 30
0.0
  0
VERTEX
  5
8BD
  8
0
 62
    18
 10
5.878642575832429
 20
4.66242300886663
 30
0.0
  0
VERTEX
  5
8BE
  8
0
 62
    18
 10
5.876438864790913
 20
4.69703121900568
 30
0.0
  0
VERTEX
  5
8BF
  8
0
 62
    18
 10
5.871408456826661
 20
4.731486484100702
 30
0.0
  0
VERTEX
  5
8C0
  8
0
 62
    18
 10
5.863420387337179
 20
4.765394164030072
 30
0.0
  0
VERTEX
  5
8C1
  8
0
 62
    18
 10
5.852343691719975
 20
4.798359618672162
 30
0.0
  0
VERTEX
  5
8C2
  8
0
 62
    18
 10
5.838047405372555
 20
4.829988207905347
 30
0.0
  0
VERTEX
  5
8C3
  8
0
 62
    18
 10
5.820400563692424
 20
4.859885291608001
 30
0.0
  0
VERTEX
  5
8C4
  8
0
 62
    18
 10
5.799272202077092
 20
4.887656229658496
 30
0.0
  0
VERTEX
  5
8C5
  8
0
 62
    18
 10
5.774531355924063
 20
4.912906381935208
 30
0.0
  0
VERTEX
  5
8C6
  8
0
 62
    18
 10
5.746047060630847
 20
4.935241108316511
 30
0.0
  0
VERTEX
  5
8C7
  8
0
 62
    18
 10
5.713688351594946
 20
4.954265768680777
 30
0.0
  0
VERTEX
  5
8C8
  8
0
 62
    18
 10
5.67758250776671
 20
4.969540137027612
 30
0.0
  0
VERTEX
  5
8C9
  8
0
 62
    18
 10
5.638910990691043
 20
4.980437900078055
 30
0.0
  0
VERTEX
  5
8CA
  8
0
 62
    18
 10
5.599124218063874
 20
4.986285267656399
 30
0.0
  0
VERTEX
  5
8CB
  8
0
 62
    18
 10
5.559672607663065
 20
4.986408449572465
 30
0.0
  0
VERTEX
  5
8CC
  8
0
 62
    18
 10
5.522006577266481
 20
4.980133655636081
 30
0.0
  0
VERTEX
  5
8CD
  8
0
 62
    18
 10
5.487576544651982
 20
4.966787095657072
 30
0.0
  0
VERTEX
  5
8CE
  8
0
 62
    18
 10
5.457832927597436
 20
4.945694979445266
 30
0.0
  0
VERTEX
  5
8CF
  8
0
 62
    18
 10
5.434226143880704
 20
4.916183516810486
 30
0.0
  0
VERTEX
  5
8D0
  8
0
 62
    18
 10
5.418206611279651
 20
4.877578917562561
 30
0.0
  0
VERTEX
  5
8D1
  8
0
 62
    18
 10
5.411098254746137
 20
4.829827721131566
 30
0.0
  0
VERTEX
  5
8D2
  8
0
 62
    18
 10
5.411236891072117
 20
4.7875303572803
 30
0.0
  0
VERTEX
  5
8D3
  8
0
 62
    18
 10
5.413924450301716
 20
4.780073834165602
 30
0.0
  0
VERTEX
  5
8D4
  8
0
 62
    18
 10
5.413979805510692
 20
4.815555804684901
 30
0.0
  0
VERTEX
  5
8D5
  8
0
 62
    18
 10
5.406205573557906
 20
4.856442527665149
 30
0.0
  0
VERTEX
  5
8D6
  8
0
 62
    18
 10
5.390080489204894
 20
4.890705456446231
 30
0.0
  0
VERTEX
  5
8D7
  8
0
 62
    18
 10
5.366875060577991
 20
4.918562438095153
 30
0.0
  0
VERTEX
  5
8D8
  8
0
 62
    18
 10
5.337862911704933
 20
4.940252616209027
 30
0.0
  0
VERTEX
  5
8D9
  8
0
 62
    18
 10
5.304317666613456
 20
4.956015134384964
 30
0.0
  0
VERTEX
  5
8DA
  8
0
 62
    18
 10
5.267512949331299
 20
4.966089136220076
 30
0.0
  0
VERTEX
  5
8DB
  8
0
 62
    18
 10
5.2287223838862
 20
4.970713765311475
 30
0.0
  0
VERTEX
  5
8DC
  8
0
 62
    18
 10
5.18921959430589
 20
4.970128165256269
 30
0.0
  0
VERTEX
  5
8DD
  8
0
 62
    18
 10
5.150278204618113
 20
4.964571479651572
 30
0.0
  0
VERTEX
  5
8DE
  8
0
 62
    18
 10
5.113171838746962
 20
4.954282852113661
 30
0.0
  0
VERTEX
  5
8DF
  8
0
 62
    18
 10
5.078961500353146
 20
4.939540744614304
 30
0.0
  0
VERTEX
  5
8E0
  8
0
 62
    18
 10
5.047877710656893
 20
4.920777194345737
 30
0.0
  0
VERTEX
  5
8E1
  8
0
 62
    18
 10
5.019948252903861
 20
4.898461729394188
 30
0.0
  0
VERTEX
  5
8E2
  8
0
 62
    18
 10
4.995200910339712
 20
4.873063877845888
 30
0.0
  0
VERTEX
  5
8E3
  8
0
 62
    18
 10
4.973663466210104
 20
4.845053167787063
 30
0.0
  0
VERTEX
  5
8E4
  8
0
 62
    18
 10
4.9553637037607
 20
4.814899127303947
 30
0.0
  0
VERTEX
  5
8E5
  8
0
 62
    18
 10
4.940329406237157
 20
4.783071284482767
 30
0.0
  0
VERTEX
  5
8E6
  8
0
 62
    18
 10
4.928588356885136
 20
4.750039167409751
 30
0.0
  0
VERTEX
  5
8E7
  8
0
 62
    18
 10
4.920168338950298
 20
4.716272304171131
 30
0.0
  0
VERTEX
  5
8E8
  8
0
 62
    18
 10
4.915097135678304
 20
4.682240222853137
 30
0.0
  0
VERTEX
  5
8E9
  8
0
 62
    18
 10
4.91340227666429
 20
4.648412011728469
 30
0.0
  0
VERTEX
  5
8EA
  8
0
 62
    18
 10
4.915038297838631
 20
4.615130192795357
 30
0.0
  0
VERTEX
  5
8EB
  8
0
 62
    18
 10
4.91978623950878
 20
4.582436457908795
 30
0.0
  0
VERTEX
  5
8EC
  8
0
 62
    18
 10
4.927401924586861
 20
4.550328773597892
 30
0.0
  0
VERTEX
  5
8ED
  8
0
 62
    18
 10
4.937641175984991
 20
4.518805106391753
 30
0.0
  0
VERTEX
  5
8EE
  8
0
 62
    18
 10
4.950259816615289
 20
4.487863422819484
 30
0.0
  0
VERTEX
  5
8EF
  8
0
 62
    18
 10
4.965013669389877
 20
4.457501689410194
 30
0.0
  0
VERTEX
  5
8F0
  8
0
 62
    18
 10
4.981658557220872
 20
4.427717872692989
 30
0.0
  0
VERTEX
  5
8F1
  8
0
 62
    18
 10
4.999950303020396
 20
4.398509939196976
 30
0.0
  0
VERTEX
  5
8F2
  8
0
 62
    18
 10
5.019644729700567
 20
4.369875855451261
 30
0.0
  0
VERTEX
  5
8F3
  8
0
 62
    18
 10
5.040497660173507
 20
4.341813587984953
 30
0.0
  0
VERTEX
  5
8F4
  8
0
 62
    18
 10
5.062264917351333
 20
4.314321103327157
 30
0.0
  0
VERTEX
  5
8F5
  8
0
 62
    18
 10
5.084702324146166
 20
4.287396368006981
 30
0.0
  0
VERTEX
  5
8F6
  8
0
 62
    18
 10
5.107565703470125
 20
4.261037348553531
 30
0.0
  0
VERTEX
  5
8F7
  8
0
 62
    18
 10
5.130627001401358
 20
4.235239116890199
 30
0.0
  0
VERTEX
  5
8F8
  8
0
 62
    18
 10
5.153801297125047
 20
4.209971048131886
 30
0.0
  0
VERTEX
  5
8F9
  8
0
 62
    18
 10
5.177078572913274
 20
4.185189069978575
 30
0.0
  0
VERTEX
  5
8FA
  8
0
 62
    18
 10
5.200449466941991
 20
4.160848992375261
 30
0.0
  0
VERTEX
  5
8FB
  8
0
 62
    18
 10
5.223904617387148
 20
4.136906625266947
 30
0.0
  0
VERTEX
  5
8FC
  8
0
 62
    18
 10
5.247434662424696
 20
4.113317778598633
 30
0.0
  0
VERTEX
  5
8FD
  8
0
 62
    18
 10
5.271030240230587
 20
4.090038262315318
 30
0.0
  0
VERTEX
  5
8FE
  8
0
 62
    18
 10
5.294681988980773
 20
4.067023886362003
 30
0.0
  0
VERTEX
  5
8FF
  8
0
 62
    18
 10
5.318380546851202
 20
4.044230460683689
 30
0.0
  0
VERTEX
  5
900
  8
0
 62
    18
 10
5.342116552017826
 20
4.021613795225373
 30
0.0
  0
VERTEX
  5
901
  8
0
 62
    18
 10
5.365880642656597
 20
3.999129699932057
 30
0.0
  0
VERTEX
  5
902
  8
0
 62
    18
 10
5.389663456943468
 20
3.976733984748742
 30
0.0
  0
SEQEND
  5
959
  8
0
 62
    18
  0
INSERT
  5
7DF
  8
0
 62
     1
  2
*U5
 10
0.0
 20
0.0
 30
0.0
  0
INSERT
  5
7E2
  8
0
 62
     1
  2
*U6
 10
0.0
 20
0.0
 30
0.0
  0
INSERT
  5
7E3
  8
0
 62
     1
  2
*U7
 10
0.0
 20
0.0
 30
0.0
  0
INSERT
  5
7E5
  8
0
 62
   240
  2
*U8
 10
0.0
 20
0.0
 30
0.0
  0
INSERT
  5
7E6
  8
0
 62
   240
  2
*U9
 10
0.0
 20
0.0
 30
0.0
  0
INSERT
  5
7E7
  8
0
 62
   240
  2
*U10
 10
0.0
 20
0.0
 30
0.0
  0
INSERT
  5
7E8
  8
0
 62
   240
  2
*U11
 10
0.0
 20
0.0
 30
0.0
  0
INSERT
  5
7E9
  8
0
 62
   240
  2
*U12
 10
0.0
 20
0.0
 30
0.0
  0
INSERT
  5
7EA
  8
0
 62
   180
  2
*U13
 10
0.0
 20
0.0
 30
0.0
  0
INSERT
  5
7EB
  8
0
 62
   180
  2
*U14
 10
0.0
 20
0.0
 30
0.0
  0
POLYLINE
  5
807
  8
0
 62
   242
 66
     1
 10
0.0
 20
0.0
 30
0.0
  0
VERTEX
  5
90D
  8
0
 62
   242
 10
5.713428250262409
 20
5.054382459620426
 30
0.0
  0
VERTEX
  5
90E
  8
0
 62
   242
 10
5.013428250262409
 20
3.954382459620426
 30
0.0
  0
VERTEX
  5
90F
  8
0
 62
   242
 10
5.033169962799928
 20
4.150597909205496
 30
0.0
  0
VERTEX
  5
910
  8
0
 62
   242
 10
5.008124504656863
 20
4.150597909205496
 30
0.0
  0
VERTEX
  5
911
  8
0
 62
   242
 10
4.987165410737139
 20
3.917543330274234
 30
0.0
  0
VERTEX
  5
912
  8
0
 62
   242
 10
5.21389271603226
 20
3.963943336939281
 30
0.0
  0
VERTEX
  5
913
  8
0
 62
   242
 10
5.21389271603226
 20
3.992416068301925
 30
0.0
  0
VERTEX
  5
914
  8
0
 62
   242
 10
5.073638150431092
 20
3.966052428151329
 30
0.0
  0
VERTEX
  5
915
  8
0
 62
   242
 10
5.747261188101588
 20
5.037291332936658
 30
0.0
  0
VERTEX
  5
916
  8
0
 62
   242
 10
6.063539650265805
 20
5.090106242270318
 30
0.0
  0
VERTEX
  5
917
  8
0
 62
   242
 10
6.063539650265805
 20
5.116469882420914
 30
0.0
  0
VERTEX
  5
918
  8
0
 62
   242
 10
5.750471423477484
 20
5.071981239666784
 30
0.0
  0
VERTEX
  5
919
  8
0
 62
   242
 10
5.678621493057295
 20
5.295229007885387
 30
0.0
  0
VERTEX
  5
91A
  8
0
 62
   242
 10
5.654677952686151
 20
5.295229007885387
 30
0.0
  0
VERTEX
  5
91B
  8
0
 62
   242
 10
5.713428250262409
 20
5.064341190629
 30
0.0
  0
VERTEX
  5
91C
  8
0
 62
   242
 10
5.713428250262409
 20
5.054382459620426
 30
0.0
  0
SEQEND
  5
95A
  8
0
 62
   242
  0
INSERT
  5
85C
  8
0
 62
     1
  2
*U15
 10
0.0
 20
0.0
 30
0.0
  0
INSERT
  5
85D
  8
0
 62
   180
  2
*U16
 10
0.0
 20
0.0
 30
0.0
  0
INSERT
  5
85E
  8
0
 62
     1
  2
*U17
 10
0.0
 20
0.0
 30
0.0
  0
INSERT
  5
85F
  8
0
 62
     1
  2
*U18
 10
0.0
 20
0.0
 30
0.0
  0
INSERT
  5
860
  8
0
 62
     1
  2
*U19
 10
0.0
 20
0.0
 30
0.0
  0
INSERT
  5
86A
  8
0
 62
   242
  2
*U20
 10
0.0
 20
0.0
 30
0.0
  0
INSERT
  5
86B
  8
0
 62
   242
  2
*U21
 10
0.0
 20
0.0
 30
0.0
  0
INSERT
  5
86C
  8
0
 62
   242
  2
*U22
 10
0.0
 20
0.0
 30
0.0
  0
POLYLINE
  5
86F
  8
0
 62
   240
 66
     1
 10
0.0
 20
0.0
 30
0.0
  0
VERTEX
  5
925
  8
0
 62
   240
 10
1.587689437438233
 20
5.4
 30
0.0
  0
VERTEX
  5
926
  8
0
 62
   240
 10
1.4
 20
5.4
 30
0.0
  0
VERTEX
  5
927
  8
0
 62
   240
 10
1.4
 20
3.8
 30
0.0
  0
VERTEX
  5
928
  8
0
 62
   240
 10
7.9
 20
3.8
 30
0.0
  0
VERTEX
  5
929
  8
0
 62
   240
 10
7.9
 20
5.4
 30
0.0
  0
VERTEX
  5
92A
  8
0
 62
   240
 10
7.733064590823505
 20
5.4
 30
0.0
  0
SEQEND
  5
95B
  8
0
 62
   240
  0
CIRCLE
  5
870
  8
0
 62
     5
 10
2.0
 20
5.300000000000001
 30
0.0
 40
0.4242640687119292
  0
CIRCLE
  5
89A
  8
0
 62
     5
 10
7.322796889276441
 20
5.291924040289759
 30
0.0
 40
0.4242640687119292
  0
POLYLINE
  5
89B
  8
0
 62
   240
 66
     1
 10
0.0
 20
0.0
 30
0.0
  0
VERTEX
  5
92B
  8
0
 62
   240
 10
6.912529187729378
 20
5.4
 30
0.0
  0
VERTEX
  5
92C
  8
0
 62
   240
 10
4.374387658396744
 20
5.4
 30
0.0
  0
SEQEND
  5
95C
  8
0
 62
   240
  0
TEXT
  5
89C
  8
0
  6
CONTINUOUS
 62
     5
 10
1.764001551572209
 20
5.047110403868876
 30
0.0
 40
0.5
  1
S
  0
TEXT
  5
89D
  8
0
  6
CONTINUOUS
 62
     5
 10
7.092179039070245
 20
5.06205562332882
 30
0.0
 40
0.5
  1
A
  0
POLYLINE
  5
89F
  8
0
 62
   242
 66
     1
 10
0.0
 20
0.0
 30
0.0
 70
     1
  0
VERTEX
  5
92D
  8
0
 62
   242
 10
4.199348736303045
 20
4.7100544096737
 30
0.0
  0
VERTEX
  5
92E
  8
0
 62
   242
 10
4.486038333500436
 20
5.206615358021039
 30
0.0
  0
VERTEX
  5
92F
  8
0
 62
   242
 10
4.199348736303044
 20
5.703176306368378
 30
0.0
  0
VERTEX
  5
930
  8
0
 62
   242
 10
3.62596954190826
 20
5.703176306368378
 30
0.0
  0
VERTEX
  5
931
  8
0
 62
   242
 10
3.339279944710868
 20
5.206615358021039
 30
0.0
  0
VERTEX
  5
932
  8
0
 62
   242
 10
3.62596954190826
 20
4.7100544096737
 30
0.0
  0
SEQEND
  5
95D
  8
0
 62
   242
  0
POLYLINE
  5
8A1
  8
0
 62
   240
 66
     1
 10
0.0
 20
0.0
 30
0.0
  0
VERTEX
  5
933
  8
0
 62
   240
 10
3.450930619814561
 20
5.4
 30
0.0
  0
VERTEX
  5
934
  8
0
 62
   240
 10
2.412310562561768
 20
5.4
 30
0.0
  0
SEQEND
  5
95E
  8
0
 62
   240
  0
TEXT
  5
8A2
  8
0
  6
CONTINUOUS
 62
   242
 10
3.40776
 20
5.157916207506486
 30
0.0
 40
0.14
  1
17.07.2017
  0
ENDSEC
  0
EOF
