<?xml version="1.0" encoding="utf-8"?>
<!DOCTYPE eagle SYSTEM "eagle.dtd">
<eagle version="8.4.1">
<drawing>
<settings>
<setting alwaysvectorfont="no"/>
<setting keepoldvectorfont="yes"/>
<setting verticaltext="up"/>
</settings>
<grid distance="0.1" unitdist="inch" unit="inch" style="lines" multiple="1" display="no" altdistance="0.01" altunitdist="inch" altunit="inch"/>
<layers>
<layer number="1" name="Top" color="4" fill="1" visible="no" active="no"/>
<layer number="16" name="Bottom" color="1" fill="1" visible="no" active="no"/>
<layer number="17" name="Pads" color="2" fill="1" visible="no" active="no"/>
<layer number="18" name="Vias" color="2" fill="1" visible="no" active="no"/>
<layer number="19" name="Unrouted" color="6" fill="1" visible="no" active="no"/>
<layer number="20" name="Dimension" color="15" fill="1" visible="no" active="no"/>
<layer number="21" name="tPlace" color="7" fill="1" visible="no" active="no"/>
<layer number="22" name="bPlace" color="7" fill="1" visible="no" active="no"/>
<layer number="23" name="tOrigins" color="15" fill="1" visible="no" active="no"/>
<layer number="24" name="bOrigins" color="15" fill="1" visible="no" active="no"/>
<layer number="25" name="tNames" color="7" fill="1" visible="no" active="no"/>
<layer number="26" name="bNames" color="7" fill="1" visible="no" active="no"/>
<layer number="27" name="tValues" color="7" fill="1" visible="no" active="no"/>
<layer number="28" name="bValues" color="7" fill="1" visible="no" active="no"/>
<layer number="29" name="tStop" color="7" fill="3" visible="no" active="no"/>
<layer number="30" name="bStop" color="7" fill="6" visible="no" active="no"/>
<layer number="31" name="tCream" color="7" fill="4" visible="no" active="no"/>
<layer number="32" name="bCream" color="7" fill="5" visible="no" active="no"/>
<layer number="33" name="tFinish" color="6" fill="3" visible="no" active="no"/>
<layer number="34" name="bFinish" color="6" fill="6" visible="no" active="no"/>
<layer number="35" name="tGlue" color="7" fill="4" visible="no" active="no"/>
<layer number="36" name="bGlue" color="7" fill="5" visible="no" active="no"/>
<layer number="37" name="tTest" color="7" fill="1" visible="no" active="no"/>
<layer number="38" name="bTest" color="7" fill="1" visible="no" active="no"/>
<layer number="39" name="tKeepout" color="4" fill="11" visible="no" active="no"/>
<layer number="40" name="bKeepout" color="1" fill="11" visible="no" active="no"/>
<layer number="41" name="tRestrict" color="4" fill="10" visible="no" active="no"/>
<layer number="42" name="bRestrict" color="1" fill="10" visible="no" active="no"/>
<layer number="43" name="vRestrict" color="2" fill="10" visible="no" active="no"/>
<layer number="44" name="Drills" color="7" fill="1" visible="no" active="no"/>
<layer number="45" name="Holes" color="7" fill="1" visible="no" active="no"/>
<layer number="46" name="Milling" color="3" fill="1" visible="no" active="no"/>
<layer number="47" name="Measures" color="7" fill="1" visible="no" active="no"/>
<layer number="48" name="Document" color="7" fill="1" visible="no" active="no"/>
<layer number="49" name="Reference" color="7" fill="1" visible="no" active="no"/>
<layer number="50" name="dxf" color="7" fill="1" visible="no" active="no"/>
<layer number="51" name="tDocu" color="7" fill="1" visible="no" active="no"/>
<layer number="52" name="bDocu" color="7" fill="1" visible="no" active="no"/>
<layer number="53" name="tGND_GNDA" color="7" fill="9" visible="no" active="no"/>
<layer number="54" name="bGND_GNDA" color="1" fill="9" visible="no" active="no"/>
<layer number="56" name="wert" color="7" fill="1" visible="no" active="no"/>
<layer number="57" name="tCAD" color="7" fill="1" visible="no" active="no"/>
<layer number="59" name="tCarbon" color="7" fill="1" visible="no" active="no"/>
<layer number="60" name="bCarbon" color="7" fill="1" visible="no" active="no"/>
<layer number="90" name="Modules" color="5" fill="1" visible="yes" active="yes"/>
<layer number="91" name="Nets" color="2" fill="1" visible="yes" active="yes"/>
<layer number="92" name="Busses" color="1" fill="1" visible="yes" active="yes"/>
<layer number="93" name="Pins" color="2" fill="1" visible="no" active="yes"/>
<layer number="94" name="Symbols" color="4" fill="1" visible="yes" active="yes"/>
<layer number="95" name="Names" color="7" fill="1" visible="yes" active="yes"/>
<layer number="96" name="Values" color="7" fill="1" visible="yes" active="yes"/>
<layer number="97" name="Info" color="7" fill="1" visible="yes" active="yes"/>
<layer number="98" name="Guide" color="6" fill="1" visible="yes" active="yes"/>
<layer number="99" name="SpiceOrder" color="7" fill="1" visible="yes" active="yes"/>
<layer number="100" name="Muster" color="7" fill="1" visible="no" active="no"/>
<layer number="101" name="Patch_Top" color="12" fill="4" visible="yes" active="yes"/>
<layer number="102" name="Vscore" color="7" fill="1" visible="yes" active="yes"/>
<layer number="103" name="tMap" color="7" fill="1" visible="no" active="yes"/>
<layer number="104" name="Name" color="7" fill="1" visible="yes" active="yes"/>
<layer number="105" name="tPlate" color="7" fill="1" visible="no" active="yes"/>
<layer number="106" name="bPlate" color="7" fill="1" visible="no" active="yes"/>
<layer number="107" name="Crop" color="7" fill="1" visible="no" active="yes"/>
<layer number="108" name="tplace-old" color="10" fill="1" visible="no" active="yes"/>
<layer number="109" name="ref-old" color="11" fill="1" visible="no" active="yes"/>
<layer number="110" name="fp0" color="7" fill="1" visible="no" active="yes"/>
<layer number="111" name="LPC17xx" color="7" fill="1" visible="no" active="yes"/>
<layer number="112" name="tSilk" color="7" fill="1" visible="no" active="yes"/>
<layer number="113" name="IDFDebug" color="7" fill="1" visible="no" active="yes"/>
<layer number="116" name="Patch_BOT" color="9" fill="4" visible="yes" active="yes"/>
<layer number="118" name="Rect_Pads" color="7" fill="1" visible="no" active="yes"/>
<layer number="121" name="_tsilk" color="7" fill="1" visible="yes" active="yes"/>
<layer number="122" name="_bsilk" color="7" fill="1" visible="yes" active="yes"/>
<layer number="123" name="tTestmark" color="7" fill="1" visible="no" active="yes"/>
<layer number="124" name="bTestmark" color="7" fill="1" visible="no" active="yes"/>
<layer number="125" name="_tNames" color="7" fill="1" visible="no" active="yes"/>
<layer number="126" name="_bNames" color="7" fill="1" visible="no" active="yes"/>
<layer number="127" name="_tValues" color="7" fill="1" visible="no" active="yes"/>
<layer number="128" name="_bValues" color="7" fill="1" visible="no" active="yes"/>
<layer number="129" name="Mask" color="7" fill="1" visible="no" active="yes"/>
<layer number="131" name="tAdjust" color="7" fill="1" visible="no" active="yes"/>
<layer number="132" name="bAdjust" color="7" fill="1" visible="no" active="yes"/>
<layer number="144" name="Drill_legend" color="7" fill="1" visible="no" active="yes"/>
<layer number="150" name="Notes" color="7" fill="1" visible="no" active="yes"/>
<layer number="151" name="HeatSink" color="7" fill="1" visible="yes" active="yes"/>
<layer number="152" name="_bDocu" color="7" fill="1" visible="no" active="yes"/>
<layer number="153" name="FabDoc1" color="7" fill="1" visible="no" active="yes"/>
<layer number="154" name="FabDoc2" color="7" fill="1" visible="no" active="yes"/>
<layer number="155" name="FabDoc3" color="7" fill="1" visible="no" active="yes"/>
<layer number="199" name="Contour" color="7" fill="1" visible="no" active="yes"/>
<layer number="200" name="200bmp" color="1" fill="10" visible="yes" active="yes"/>
<layer number="201" name="201bmp" color="2" fill="10" visible="yes" active="yes"/>
<layer number="202" name="202bmp" color="3" fill="10" visible="yes" active="yes"/>
<layer number="203" name="203bmp" color="4" fill="10" visible="yes" active="yes"/>
<layer number="204" name="204bmp" color="5" fill="10" visible="yes" active="yes"/>
<layer number="205" name="205bmp" color="6" fill="10" visible="yes" active="yes"/>
<layer number="206" name="206bmp" color="7" fill="10" visible="yes" active="yes"/>
<layer number="207" name="207bmp" color="8" fill="10" visible="yes" active="yes"/>
<layer number="208" name="208bmp" color="9" fill="10" visible="yes" active="yes"/>
<layer number="209" name="209bmp" color="7" fill="1" visible="no" active="yes"/>
<layer number="210" name="210bmp" color="7" fill="1" visible="no" active="yes"/>
<layer number="211" name="211bmp" color="7" fill="1" visible="no" active="yes"/>
<layer number="212" name="212bmp" color="7" fill="1" visible="no" active="yes"/>
<layer number="213" name="213bmp" color="7" fill="1" visible="no" active="yes"/>
<layer number="214" name="214bmp" color="7" fill="1" visible="no" active="yes"/>
<layer number="215" name="215bmp" color="7" fill="1" visible="no" active="yes"/>
<layer number="216" name="216bmp" color="7" fill="1" visible="no" active="yes"/>
<layer number="217" name="217bmp" color="18" fill="1" visible="no" active="no"/>
<layer number="218" name="218bmp" color="19" fill="1" visible="no" active="no"/>
<layer number="219" name="219bmp" color="20" fill="1" visible="no" active="no"/>
<layer number="220" name="220bmp" color="21" fill="1" visible="no" active="no"/>
<layer number="221" name="221bmp" color="22" fill="1" visible="no" active="no"/>
<layer number="222" name="222bmp" color="23" fill="1" visible="no" active="no"/>
<layer number="223" name="223bmp" color="24" fill="1" visible="no" active="no"/>
<layer number="224" name="224bmp" color="25" fill="1" visible="no" active="no"/>
<layer number="225" name="225bmp" color="7" fill="1" visible="no" active="yes"/>
<layer number="226" name="226bmp" color="7" fill="1" visible="no" active="yes"/>
<layer number="227" name="227bmp" color="7" fill="1" visible="no" active="yes"/>
<layer number="228" name="228bmp" color="7" fill="1" visible="no" active="yes"/>
<layer number="229" name="229bmp" color="7" fill="1" visible="no" active="yes"/>
<layer number="230" name="230bmp" color="7" fill="1" visible="no" active="yes"/>
<layer number="231" name="231bmp" color="7" fill="1" visible="no" active="yes"/>
<layer number="248" name="Housing" color="7" fill="1" visible="no" active="yes"/>
<layer number="249" name="Edge" color="7" fill="1" visible="no" active="yes"/>
<layer number="250" name="Descript" color="3" fill="1" visible="no" active="no"/>
<layer number="251" name="SMDround" color="12" fill="11" visible="no" active="no"/>
<layer number="254" name="cooling" color="7" fill="1" visible="yes" active="yes"/>
<layer number="255" name="routoute" color="7" fill="1" visible="no" active="yes"/>
</layers>
<schematic xreflabel="%F%N/%S.%C%R" xrefpart="/%S.%C%R">
<libraries>
<library name="fab">
<packages>
<package name="SOIC8">
<description>&lt;B&gt;Wide Plastic Gull Wing Small Outline Package&lt;/B&gt;</description>
<wire x1="-2.6" y1="2.25" x2="-2.35" y2="2.5" width="0.1524" layer="21" curve="-90" cap="flat"/>
<wire x1="2.35" y1="2.5" x2="2.6" y2="2.25" width="0.1524" layer="21" curve="-90"/>
<wire x1="2.35" y1="-2.5" x2="2.6" y2="-2.25" width="0.1524" layer="21" curve="90" cap="flat"/>
<wire x1="-2.6" y1="-2.25" x2="-2.35" y2="-2.5" width="0.1524" layer="21" curve="90" cap="flat"/>
<wire x1="2.36" y1="-2.5" x2="-2.34" y2="-2.5" width="0.1524" layer="51"/>
<wire x1="-2.34" y1="2.5" x2="2.36" y2="2.5" width="0.1524" layer="51"/>
<wire x1="-2.21" y1="2.5" x2="-2.34" y2="2.5" width="0.1524" layer="21"/>
<wire x1="-1.59" y1="2.5" x2="-0.95" y2="2.5" width="0.1524" layer="21"/>
<wire x1="-0.32" y1="2.5" x2="0.32" y2="2.5" width="0.1524" layer="21"/>
<wire x1="0.95" y1="2.5" x2="1.59" y2="2.5" width="0.1524" layer="21"/>
<wire x1="2.21" y1="2.5" x2="2.36" y2="2.5" width="0.1524" layer="21"/>
<wire x1="2.2" y1="-2.5" x2="2.33" y2="-2.5" width="0.1524" layer="21"/>
<wire x1="1.59" y1="-2.5" x2="0.94" y2="-2.5" width="0.1524" layer="21"/>
<wire x1="0.32" y1="-2.5" x2="-0.33" y2="-2.5" width="0.1524" layer="21"/>
<wire x1="-0.95" y1="-2.5" x2="-1.59" y2="-2.5" width="0.1524" layer="21"/>
<wire x1="-2.21" y1="-2.5" x2="-2.34" y2="-2.5" width="0.1524" layer="21"/>
<wire x1="-2.6" y1="2.25" x2="-2.6" y2="-2.24" width="0.1524" layer="21"/>
<wire x1="2.6" y1="-2.25" x2="2.6" y2="2.25" width="0.1524" layer="21"/>
<circle x="-1.42" y="-1.115" radius="0.5" width="0.0508" layer="21"/>
<smd name="1" x="-1.905" y="-3.154" dx="0.5" dy="2.2" layer="1"/>
<smd name="2" x="-0.645" y="-3.154" dx="0.5" dy="2.2" layer="1"/>
<smd name="3" x="0.625" y="-3.154" dx="0.5" dy="2.2" layer="1"/>
<smd name="4" x="1.895" y="-3.154" dx="0.5" dy="2.2" layer="1"/>
<smd name="8" x="-1.905" y="3.154" dx="0.5" dy="2.2" layer="1"/>
<smd name="7" x="-0.635" y="3.154" dx="0.5" dy="2.2" layer="1"/>
<smd name="6" x="0.635" y="3.154" dx="0.5" dy="2.2" layer="1"/>
<smd name="5" x="1.905" y="3.154" dx="0.5" dy="2.2" layer="1"/>
<text x="-2.8575" y="-2.159" size="1.27" layer="25" ratio="10" rot="R90">&gt;NAME</text>
<text x="4.064" y="-2.159" size="1.27" layer="27" ratio="10" rot="R90">&gt;VALUE</text>
<rectangle x1="-2.08" y1="2.5" x2="-1.73" y2="3.4" layer="51"/>
<rectangle x1="-0.81" y1="2.5" x2="-0.46" y2="3.4" layer="51"/>
<rectangle x1="0.46" y1="2.5" x2="0.81" y2="3.4" layer="51"/>
<rectangle x1="1.73" y1="2.5" x2="2.08" y2="3.4" layer="51"/>
<rectangle x1="1.72" y1="-3.4" x2="2.07" y2="-2.5" layer="51"/>
<rectangle x1="0.45" y1="-3.4" x2="0.8" y2="-2.5" layer="51"/>
<rectangle x1="-0.82" y1="-3.4" x2="-0.47" y2="-2.5" layer="51"/>
<rectangle x1="-2.08" y1="-3.4" x2="-1.73" y2="-2.5" layer="51"/>
</package>
<package name="R1206">
<description>&lt;b&gt;RESISTOR&lt;/b&gt;</description>
<wire x1="0.9525" y1="-0.8128" x2="-0.9652" y2="-0.8128" width="0.1524" layer="51"/>
<wire x1="0.9525" y1="0.8128" x2="-0.9652" y2="0.8128" width="0.1524" layer="51"/>
<wire x1="-2.473" y1="0.983" x2="2.473" y2="0.983" width="0.0508" layer="39"/>
<wire x1="2.473" y1="0.983" x2="2.473" y2="-0.983" width="0.0508" layer="39"/>
<wire x1="2.473" y1="-0.983" x2="-2.473" y2="-0.983" width="0.0508" layer="39"/>
<wire x1="-2.473" y1="-0.983" x2="-2.473" y2="0.983" width="0.0508" layer="39"/>
<smd name="2" x="1.422" y="0" dx="1.6" dy="1.803" layer="1"/>
<smd name="1" x="-1.422" y="0" dx="1.6" dy="1.803" layer="1"/>
<text x="-1.27" y="1.27" size="1.27" layer="25">&gt;NAME</text>
<text x="-1.27" y="-2.54" size="1.27" layer="27">&gt;VALUE</text>
<rectangle x1="-1.6891" y1="-0.8763" x2="-0.9525" y2="0.8763" layer="51"/>
<rectangle x1="0.9525" y1="-0.8763" x2="1.6891" y2="0.8763" layer="51"/>
<rectangle x1="-0.3" y1="-0.7" x2="0.3" y2="0.7" layer="35"/>
</package>
<package name="R1206W">
<description>&lt;b&gt;RESISTOR&lt;/b&gt;&lt;p&gt;
wave soldering</description>
<wire x1="-0.913" y1="0.8" x2="0.888" y2="0.8" width="0.1524" layer="51"/>
<wire x1="-0.913" y1="-0.8" x2="0.888" y2="-0.8" width="0.1524" layer="51"/>
<wire x1="-2.473" y1="0.983" x2="2.473" y2="0.983" width="0.0508" layer="39"/>
<wire x1="2.473" y1="0.983" x2="2.473" y2="-0.983" width="0.0508" layer="39"/>
<wire x1="2.473" y1="-0.983" x2="-2.473" y2="-0.983" width="0.0508" layer="39"/>
<wire x1="-2.473" y1="-0.983" x2="-2.473" y2="0.983" width="0.0508" layer="39"/>
<smd name="1" x="-1.499" y="0" dx="1.8" dy="1.2" layer="1"/>
<smd name="2" x="1.499" y="0" dx="1.8" dy="1.2" layer="1"/>
<text x="-1.905" y="1.27" size="1.27" layer="25">&gt;NAME</text>
<text x="-1.905" y="-2.54" size="1.27" layer="27">&gt;VALUE</text>
<rectangle x1="-1.651" y1="-0.8763" x2="-0.9009" y2="0.8738" layer="51"/>
<rectangle x1="0.889" y1="-0.8763" x2="1.6391" y2="0.8738" layer="51"/>
<rectangle x1="-0.3" y1="-0.7" x2="0.3" y2="0.7" layer="35"/>
</package>
<package name="R1206FAB">
<wire x1="-2.032" y1="1.016" x2="2.032" y2="1.016" width="0.127" layer="21"/>
<wire x1="2.032" y1="1.016" x2="2.032" y2="-1.016" width="0.127" layer="21"/>
<wire x1="2.032" y1="-1.016" x2="-2.032" y2="-1.016" width="0.127" layer="21"/>
<wire x1="-2.032" y1="-1.016" x2="-2.032" y2="1.016" width="0.127" layer="21"/>
<smd name="1" x="-1.651" y="0" dx="1.27" dy="1.905" layer="1"/>
<smd name="2" x="1.651" y="0" dx="1.27" dy="1.905" layer="1"/>
<text x="-1.778" y="1.27" size="1.016" layer="25" ratio="15">&gt;NAME</text>
<text x="-1.778" y="-2.286" size="1.016" layer="27" ratio="15">&gt;VALUE</text>
</package>
</packages>
<symbols>
<symbol name="ATTINY45">
<wire x1="-52.07" y1="7.493" x2="-52.07" y2="5.08" width="0.4064" layer="94"/>
<wire x1="-52.07" y1="5.08" x2="-52.07" y2="2.54" width="0.4064" layer="94"/>
<wire x1="-52.07" y1="2.54" x2="-52.07" y2="0" width="0.4064" layer="94"/>
<wire x1="-52.07" y1="0" x2="-52.07" y2="-2.54" width="0.4064" layer="94"/>
<wire x1="-52.07" y1="-2.54" x2="-52.07" y2="-5.08" width="0.4064" layer="94"/>
<wire x1="-52.07" y1="-5.08" x2="34.29" y2="-5.08" width="0.4064" layer="94"/>
<wire x1="34.29" y1="-5.08" x2="34.29" y2="-2.54" width="0.4064" layer="94"/>
<wire x1="34.29" y1="-2.54" x2="34.29" y2="0" width="0.4064" layer="94"/>
<wire x1="34.29" y1="0" x2="34.29" y2="2.54" width="0.4064" layer="94"/>
<wire x1="34.29" y1="2.54" x2="34.29" y2="5.08" width="0.4064" layer="94"/>
<wire x1="34.29" y1="5.08" x2="34.29" y2="7.493" width="0.4064" layer="94"/>
<wire x1="34.29" y1="7.493" x2="-52.07" y2="7.493" width="0.4064" layer="94"/>
<wire x1="-53.34" y1="5.08" x2="-52.07" y2="5.08" width="0.254" layer="94"/>
<wire x1="-53.34" y1="2.54" x2="-52.07" y2="2.54" width="0.254" layer="94"/>
<wire x1="-53.34" y1="0" x2="-52.07" y2="0" width="0.254" layer="94"/>
<wire x1="-53.34" y1="-2.54" x2="-52.07" y2="-2.54" width="0.254" layer="94"/>
<wire x1="34.29" y1="5.08" x2="35.56" y2="5.08" width="0.254" layer="94"/>
<wire x1="34.29" y1="2.54" x2="35.56" y2="2.54" width="0.254" layer="94"/>
<wire x1="34.29" y1="0" x2="35.56" y2="0" width="0.254" layer="94"/>
<wire x1="34.29" y1="-2.54" x2="35.56" y2="-2.54" width="0.254" layer="94"/>
<text x="5.08" y="-7.62" size="1.778" layer="95">&gt;NAME</text>
<text x="-31.75" y="-7.62" size="1.778" layer="96">ATtiny45</text>
<rectangle x1="-51.816" y1="5.969" x2="-50.546" y2="7.239" layer="94"/>
<pin name="GND" x="-53.34" y="-2.54" length="point"/>
<pin name="PB5/PCINT5/-RESET/ADC0/DW" x="-53.34" y="5.08" length="point"/>
<pin name="PB3/PCINT3/XTAL1/CLKI/-OC1B/ADC3" x="-53.34" y="2.54" length="point"/>
<pin name="PB4/PCINT4/XTAL2/CLKO/OC1B/ADC2" x="-53.34" y="0" length="point"/>
<pin name="VCC" x="35.56" y="5.08" length="point" rot="R180"/>
<pin name="SCK/USCK/SCL/ADC1/T0/INT0/PCINT2/PB2" x="35.56" y="2.54" length="point" rot="R180"/>
<pin name="MISO/DO/AIN1/OC0B/OC1A/PCINT1/PB1" x="35.56" y="0" length="point" rot="R180"/>
<pin name="MOSI/DI/SDA/AIN0/OC0A/-OC1A/AREF/PCINT0/PB0" x="35.56" y="-2.54" length="point" rot="R180"/>
</symbol>
<symbol name="R-US">
<wire x1="-2.54" y1="0" x2="-2.159" y2="1.016" width="0.2032" layer="94"/>
<wire x1="-2.159" y1="1.016" x2="-1.524" y2="-1.016" width="0.2032" layer="94"/>
<wire x1="-1.524" y1="-1.016" x2="-0.889" y2="1.016" width="0.2032" layer="94"/>
<wire x1="-0.889" y1="1.016" x2="-0.254" y2="-1.016" width="0.2032" layer="94"/>
<wire x1="-0.254" y1="-1.016" x2="0.381" y2="1.016" width="0.2032" layer="94"/>
<wire x1="0.381" y1="1.016" x2="1.016" y2="-1.016" width="0.2032" layer="94"/>
<wire x1="1.016" y1="-1.016" x2="1.651" y2="1.016" width="0.2032" layer="94"/>
<wire x1="1.651" y1="1.016" x2="2.286" y2="-1.016" width="0.2032" layer="94"/>
<wire x1="2.286" y1="-1.016" x2="2.54" y2="0" width="0.2032" layer="94"/>
<text x="-3.81" y="1.4986" size="1.778" layer="95">&gt;NAME</text>
<text x="-3.81" y="-3.302" size="1.778" layer="96">&gt;VALUE</text>
<pin name="2" x="5.08" y="0" visible="off" length="short" direction="pas" swaplevel="1" rot="R180"/>
<pin name="1" x="-5.08" y="0" visible="off" length="short" direction="pas" swaplevel="1"/>
</symbol>
</symbols>
<devicesets>
<deviceset name="ATTINY45">
<gates>
<gate name="G$1" symbol="ATTINY45" x="10.16" y="0"/>
</gates>
<devices>
<device name="SI" package="SOIC8">
<connects>
<connect gate="G$1" pin="GND" pad="4"/>
<connect gate="G$1" pin="MISO/DO/AIN1/OC0B/OC1A/PCINT1/PB1" pad="6"/>
<connect gate="G$1" pin="MOSI/DI/SDA/AIN0/OC0A/-OC1A/AREF/PCINT0/PB0" pad="5"/>
<connect gate="G$1" pin="PB3/PCINT3/XTAL1/CLKI/-OC1B/ADC3" pad="2"/>
<connect gate="G$1" pin="PB4/PCINT4/XTAL2/CLKO/OC1B/ADC2" pad="3"/>
<connect gate="G$1" pin="PB5/PCINT5/-RESET/ADC0/DW" pad="1"/>
<connect gate="G$1" pin="SCK/USCK/SCL/ADC1/T0/INT0/PCINT2/PB2" pad="7"/>
<connect gate="G$1" pin="VCC" pad="8"/>
</connects>
<technologies>
<technology name=""/>
</technologies>
</device>
</devices>
</deviceset>
<deviceset name="RES-US" prefix="R" uservalue="yes">
<description>&lt;b&gt;Resistor (US Symbol)&lt;/b&gt;
&lt;p&gt;
Variants with postfix FAB are widened to allow the routing of internal traces</description>
<gates>
<gate name="G$1" symbol="R-US" x="0" y="0"/>
</gates>
<devices>
<device name="1206" package="R1206">
<connects>
<connect gate="G$1" pin="1" pad="1"/>
<connect gate="G$1" pin="2" pad="2"/>
</connects>
<technologies>
<technology name=""/>
</technologies>
</device>
<device name="1206W" package="R1206W">
<connects>
<connect gate="G$1" pin="1" pad="1"/>
<connect gate="G$1" pin="2" pad="2"/>
</connects>
<technologies>
<technology name=""/>
</technologies>
</device>
<device name="1206FAB" package="R1206FAB">
<connects>
<connect gate="G$1" pin="1" pad="1"/>
<connect gate="G$1" pin="2" pad="2"/>
</connects>
<technologies>
<technology name=""/>
</technologies>
</device>
</devices>
</deviceset>
</devicesets>
</library>
<library name="supply1">
<description>&lt;b&gt;Supply Symbols&lt;/b&gt;&lt;p&gt;
 GND, VCC, 0V, +5V, -5V, etc.&lt;p&gt;
 Please keep in mind, that these devices are necessary for the
 automatic wiring of the supply signals.&lt;p&gt;
 The pin name defined in the symbol is identical to the net which is to be wired automatically.&lt;p&gt;
 In this library the device names are the same as the pin names of the symbols, therefore the correct signal names appear next to the supply symbols in the schematic.&lt;p&gt;
 &lt;author&gt;Created by librarian@cadsoft.de&lt;/author&gt;</description>
<packages>
</packages>
<symbols>
<symbol name="GND">
<wire x1="-1.905" y1="0" x2="1.905" y2="0" width="0.254" layer="94"/>
<text x="-2.54" y="-2.54" size="1.778" layer="96">&gt;VALUE</text>
<pin name="GND" x="0" y="2.54" visible="off" length="short" direction="sup" rot="R270"/>
</symbol>
<symbol name="VCC">
<wire x1="1.27" y1="-1.905" x2="0" y2="0" width="0.254" layer="94"/>
<wire x1="0" y1="0" x2="-1.27" y2="-1.905" width="0.254" layer="94"/>
<text x="-2.54" y="-2.54" size="1.778" layer="96" rot="R90">&gt;VALUE</text>
<pin name="VCC" x="0" y="-2.54" visible="off" length="short" direction="sup" rot="R90"/>
</symbol>
</symbols>
<devicesets>
<deviceset name="GND" prefix="GND">
<description>&lt;b&gt;SUPPLY SYMBOL&lt;/b&gt;</description>
<gates>
<gate name="1" symbol="GND" x="0" y="0"/>
</gates>
<devices>
<device name="">
<technologies>
<technology name=""/>
</technologies>
</device>
</devices>
</deviceset>
<deviceset name="VCC" prefix="P+">
<description>&lt;b&gt;SUPPLY SYMBOL&lt;/b&gt;</description>
<gates>
<gate name="VCC" symbol="VCC" x="0" y="0"/>
</gates>
<devices>
<device name="">
<technologies>
<technology name=""/>
</technologies>
</device>
</devices>
</deviceset>
</devicesets>
</library>
<library name="fablab">
<packages>
<package name="LED1206">
<description>LED 1206 pads (standard pattern)</description>
<wire x1="0.9525" y1="-0.8128" x2="-0.9652" y2="-0.8128" width="0.1524" layer="51"/>
<wire x1="0.9525" y1="0.8128" x2="-0.9652" y2="0.8128" width="0.1524" layer="51"/>
<wire x1="-2.473" y1="0.983" x2="2.473" y2="0.983" width="0.0508" layer="39"/>
<wire x1="2.473" y1="0.983" x2="2.473" y2="-0.983" width="0.0508" layer="39"/>
<wire x1="2.473" y1="-0.983" x2="-2.473" y2="-0.983" width="0.0508" layer="39"/>
<wire x1="-2.473" y1="-0.983" x2="-2.473" y2="0.983" width="0.0508" layer="39"/>
<smd name="2" x="1.422" y="0" dx="1.6" dy="1.803" layer="1"/>
<smd name="1" x="-1.422" y="0" dx="1.6" dy="1.803" layer="1"/>
<text x="-1.27" y="1.27" size="1.27" layer="25">&gt;NAME</text>
<text x="-1.27" y="-2.54" size="1.27" layer="27">&gt;VALUE</text>
<rectangle x1="-1.6891" y1="-0.8763" x2="-0.9525" y2="0.8763" layer="51"/>
<rectangle x1="0.9525" y1="-0.8763" x2="1.6891" y2="0.8763" layer="51"/>
</package>
<package name="LED1206FAB">
<description>LED1206 FAB style (smaller pads to allow trace between)</description>
<wire x1="-2.032" y1="1.016" x2="2.032" y2="1.016" width="0.127" layer="21"/>
<wire x1="2.032" y1="1.016" x2="2.032" y2="-1.016" width="0.127" layer="21"/>
<wire x1="2.032" y1="-1.016" x2="-2.032" y2="-1.016" width="0.127" layer="21"/>
<wire x1="-2.032" y1="-1.016" x2="-2.032" y2="1.016" width="0.127" layer="21"/>
<smd name="1" x="-1.651" y="0" dx="1.27" dy="1.905" layer="1"/>
<smd name="2" x="1.651" y="0" dx="1.27" dy="1.905" layer="1"/>
<text x="-1.778" y="1.27" size="1.016" layer="25" ratio="15">&gt;NAME</text>
<text x="-1.778" y="-2.286" size="1.016" layer="27" ratio="15">&gt;VALUE</text>
</package>
<package name="5MM">
<description>5mm round through hole part.</description>
<wire x1="2.54" y1="-1.905" x2="2.54" y2="1.905" width="0.2032" layer="21"/>
<wire x1="2.54" y1="-1.905" x2="2.54" y2="1.905" width="0.254" layer="21" curve="-286.260205" cap="flat"/>
<wire x1="-1.143" y1="0" x2="0" y2="1.143" width="0.1524" layer="51" curve="-90" cap="flat"/>
<wire x1="0" y1="-1.143" x2="1.143" y2="0" width="0.1524" layer="51" curve="90" cap="flat"/>
<wire x1="-1.651" y1="0" x2="0" y2="1.651" width="0.1524" layer="51" curve="-90" cap="flat"/>
<wire x1="0" y1="-1.651" x2="1.651" y2="0" width="0.1524" layer="51" curve="90" cap="flat"/>
<wire x1="-2.159" y1="0" x2="0" y2="2.159" width="0.1524" layer="51" curve="-90" cap="flat"/>
<wire x1="0" y1="-2.159" x2="2.159" y2="0" width="0.1524" layer="51" curve="90" cap="flat"/>
<circle x="0" y="0" radius="2.54" width="0.1524" layer="21"/>
<pad name="IN" x="-1.27" y="0" drill="0.8128" diameter="1.4224"/>
<pad name="OUT" x="1.27" y="0" drill="0.8128" diameter="1.4224"/>
<text x="3.175" y="0.5334" size="1.27" layer="25" ratio="10">&gt;NAME</text>
<text x="3.2004" y="-1.8034" size="1.27" layer="27" ratio="10">&gt;VALUE</text>
</package>
<package name="R1206">
<description>&lt;b&gt;RESISTOR&lt;/b&gt;</description>
<wire x1="0.9525" y1="-0.8128" x2="-0.9652" y2="-0.8128" width="0.1524" layer="51"/>
<wire x1="0.9525" y1="0.8128" x2="-0.9652" y2="0.8128" width="0.1524" layer="51"/>
<wire x1="-2.473" y1="0.983" x2="2.473" y2="0.983" width="0.0508" layer="39"/>
<wire x1="2.473" y1="0.983" x2="2.473" y2="-0.983" width="0.0508" layer="39"/>
<wire x1="2.473" y1="-0.983" x2="-2.473" y2="-0.983" width="0.0508" layer="39"/>
<wire x1="-2.473" y1="-0.983" x2="-2.473" y2="0.983" width="0.0508" layer="39"/>
<smd name="2" x="1.422" y="0" dx="1.6" dy="1.803" layer="1"/>
<smd name="1" x="-1.422" y="0" dx="1.6" dy="1.803" layer="1"/>
<text x="-1.27" y="1.27" size="1.27" layer="25">&gt;NAME</text>
<text x="-1.27" y="-2.54" size="1.27" layer="27">&gt;VALUE</text>
<rectangle x1="-1.6891" y1="-0.8763" x2="-0.9525" y2="0.8763" layer="51"/>
<rectangle x1="0.9525" y1="-0.8763" x2="1.6891" y2="0.8763" layer="51"/>
<rectangle x1="-0.3" y1="-0.7" x2="0.3" y2="0.7" layer="35"/>
</package>
<package name="R1206W">
<description>&lt;b&gt;RESISTOR&lt;/b&gt;&lt;p&gt;
wave soldering</description>
<wire x1="-0.913" y1="0.8" x2="0.888" y2="0.8" width="0.1524" layer="51"/>
<wire x1="-0.913" y1="-0.8" x2="0.888" y2="-0.8" width="0.1524" layer="51"/>
<wire x1="-2.473" y1="0.983" x2="2.473" y2="0.983" width="0.0508" layer="39"/>
<wire x1="2.473" y1="0.983" x2="2.473" y2="-0.983" width="0.0508" layer="39"/>
<wire x1="2.473" y1="-0.983" x2="-2.473" y2="-0.983" width="0.0508" layer="39"/>
<wire x1="-2.473" y1="-0.983" x2="-2.473" y2="0.983" width="0.0508" layer="39"/>
<smd name="1" x="-1.499" y="0" dx="1.8" dy="1.2" layer="1"/>
<smd name="2" x="1.499" y="0" dx="1.8" dy="1.2" layer="1"/>
<text x="-1.905" y="1.27" size="1.27" layer="25">&gt;NAME</text>
<text x="-1.905" y="-2.54" size="1.27" layer="27">&gt;VALUE</text>
<rectangle x1="-1.651" y1="-0.8763" x2="-0.9009" y2="0.8738" layer="51"/>
<rectangle x1="0.889" y1="-0.8763" x2="1.6391" y2="0.8738" layer="51"/>
<rectangle x1="-0.3" y1="-0.7" x2="0.3" y2="0.7" layer="35"/>
</package>
<package name="R1206FAB">
<wire x1="-2.032" y1="1.016" x2="2.032" y2="1.016" width="0.127" layer="21"/>
<wire x1="2.032" y1="1.016" x2="2.032" y2="-1.016" width="0.127" layer="21"/>
<wire x1="2.032" y1="-1.016" x2="-2.032" y2="-1.016" width="0.127" layer="21"/>
<wire x1="-2.032" y1="-1.016" x2="-2.032" y2="1.016" width="0.127" layer="21"/>
<smd name="1" x="-1.651" y="0" dx="1.27" dy="1.905" layer="1"/>
<smd name="2" x="1.651" y="0" dx="1.27" dy="1.905" layer="1"/>
<text x="-1.778" y="1.27" size="1.016" layer="25" ratio="15">&gt;NAME</text>
<text x="-1.778" y="-2.286" size="1.016" layer="27" ratio="15">&gt;VALUE</text>
</package>
</packages>
<symbols>
<symbol name="LED">
<description>LED</description>
<wire x1="1.27" y1="2.54" x2="0" y2="0" width="0.254" layer="94"/>
<wire x1="0" y1="0" x2="-1.27" y2="2.54" width="0.254" layer="94"/>
<wire x1="1.27" y1="0" x2="0" y2="0" width="0.254" layer="94"/>
<wire x1="0" y1="0" x2="-1.27" y2="0" width="0.254" layer="94"/>
<wire x1="1.27" y1="2.54" x2="0" y2="2.54" width="0.254" layer="94"/>
<wire x1="0" y1="2.54" x2="-1.27" y2="2.54" width="0.254" layer="94"/>
<wire x1="0" y1="2.54" x2="0" y2="0" width="0.1524" layer="94"/>
<wire x1="-2.032" y1="1.778" x2="-3.429" y2="0.381" width="0.1524" layer="94"/>
<wire x1="-1.905" y1="0.635" x2="-3.302" y2="-0.762" width="0.1524" layer="94"/>
<text x="3.556" y="-2.032" size="1.778" layer="95" rot="R90">&gt;NAME</text>
<text x="5.715" y="-2.032" size="1.778" layer="96" rot="R90">&gt;VALUE</text>
<pin name="C" x="0" y="-2.54" visible="off" length="short" direction="pas" rot="R90"/>
<pin name="A" x="0" y="5.08" visible="off" length="short" direction="pas" rot="R270"/>
<polygon width="0.1524" layer="94">
<vertex x="-3.429" y="0.381"/>
<vertex x="-3.048" y="1.27"/>
<vertex x="-2.54" y="0.762"/>
</polygon>
<polygon width="0.1524" layer="94">
<vertex x="-3.302" y="-0.762"/>
<vertex x="-2.921" y="0.127"/>
<vertex x="-2.413" y="-0.381"/>
</polygon>
</symbol>
<symbol name="R-US">
<wire x1="-2.54" y1="0" x2="-2.159" y2="1.016" width="0.2032" layer="94"/>
<wire x1="-2.159" y1="1.016" x2="-1.524" y2="-1.016" width="0.2032" layer="94"/>
<wire x1="-1.524" y1="-1.016" x2="-0.889" y2="1.016" width="0.2032" layer="94"/>
<wire x1="-0.889" y1="1.016" x2="-0.254" y2="-1.016" width="0.2032" layer="94"/>
<wire x1="-0.254" y1="-1.016" x2="0.381" y2="1.016" width="0.2032" layer="94"/>
<wire x1="0.381" y1="1.016" x2="1.016" y2="-1.016" width="0.2032" layer="94"/>
<wire x1="1.016" y1="-1.016" x2="1.651" y2="1.016" width="0.2032" layer="94"/>
<wire x1="1.651" y1="1.016" x2="2.286" y2="-1.016" width="0.2032" layer="94"/>
<wire x1="2.286" y1="-1.016" x2="2.54" y2="0" width="0.2032" layer="94"/>
<text x="-3.81" y="1.4986" size="1.778" layer="95">&gt;NAME</text>
<text x="-3.81" y="-3.302" size="1.778" layer="96">&gt;VALUE</text>
<pin name="2" x="5.08" y="0" visible="off" length="short" direction="pas" swaplevel="1" rot="R180"/>
<pin name="1" x="-5.08" y="0" visible="off" length="short" direction="pas" swaplevel="1"/>
</symbol>
</symbols>
<devicesets>
<deviceset name="LED">
<description>LED</description>
<gates>
<gate name="G$1" symbol="LED" x="0" y="0"/>
</gates>
<devices>
<device name="" package="LED1206">
<connects>
<connect gate="G$1" pin="A" pad="1"/>
<connect gate="G$1" pin="C" pad="2"/>
</connects>
<technologies>
<technology name=""/>
</technologies>
</device>
<device name="FAB1206" package="LED1206FAB">
<connects>
<connect gate="G$1" pin="A" pad="1"/>
<connect gate="G$1" pin="C" pad="2"/>
</connects>
<technologies>
<technology name=""/>
</technologies>
</device>
<device name="5MM" package="5MM">
<connects>
<connect gate="G$1" pin="A" pad="IN"/>
<connect gate="G$1" pin="C" pad="OUT"/>
</connects>
<technologies>
<technology name=""/>
</technologies>
</device>
</devices>
</deviceset>
<deviceset name="RES-US" prefix="R" uservalue="yes">
<description>&lt;b&gt;Resistor (US Symbol)&lt;/b&gt;
&lt;p&gt;
Variants with postfix FAB are widened to allow the routing of internal traces</description>
<gates>
<gate name="G$1" symbol="R-US" x="0" y="0"/>
</gates>
<devices>
<device name="1206" package="R1206">
<connects>
<connect gate="G$1" pin="1" pad="1"/>
<connect gate="G$1" pin="2" pad="2"/>
</connects>
<technologies>
<technology name=""/>
</technologies>
</device>
<device name="1206W" package="R1206W">
<connects>
<connect gate="G$1" pin="1" pad="1"/>
<connect gate="G$1" pin="2" pad="2"/>
</connects>
<technologies>
<technology name=""/>
</technologies>
</device>
<device name="1206FAB" package="R1206FAB">
<connects>
<connect gate="G$1" pin="1" pad="1"/>
<connect gate="G$1" pin="2" pad="2"/>
</connects>
<technologies>
<technology name=""/>
</technologies>
</device>
</devices>
</deviceset>
</devicesets>
</library>
<library name="01_SparkFun">
<description>&lt;h3&gt;SparkFun Electronics' preferred foot prints&lt;/h3&gt;
We've spent an enormous amount of time creating and checking these footprints and parts. If you enjoy using this library, please buy one of our products at www.sparkfun.com.
&lt;br&gt;&lt;br&gt;
&lt;b&gt;Licensing:&lt;/b&gt; CC v3.0 Share-Alike You are welcome to use this library for commercial purposes. For attribution, we ask that when you begin to sell your device using our footprint, you email us with a link to the product being sold. We want bragging rights that we helped (in a very small part) to create your 8th world wonder. We would like the opportunity to feature your device on our homepage.</description>
<packages>
<package name="CAP-PTH-SMALL">
<wire x1="1.27" y1="0.635" x2="1.27" y2="-0.635" width="0.2032" layer="21"/>
<pad name="1" x="0" y="0" drill="0.7" diameter="1.651"/>
<pad name="2" x="2.54" y="0" drill="0.7" diameter="1.651"/>
<text x="0.508" y="1.27" size="0.4064" layer="25">&gt;Name</text>
<text x="0.254" y="-1.524" size="0.4064" layer="27">&gt;Value</text>
</package>
<package name="CAP-PTH-SMALL2">
<wire x1="1.27" y1="0.635" x2="1.27" y2="-0.635" width="0.2032" layer="21"/>
<wire x1="-1.27" y1="1.27" x2="3.81" y2="1.27" width="0.2032" layer="21"/>
<wire x1="3.81" y1="1.27" x2="3.81" y2="-1.27" width="0.2032" layer="21"/>
<wire x1="3.81" y1="-1.27" x2="-1.27" y2="-1.27" width="0.2032" layer="21"/>
<wire x1="-1.27" y1="-1.27" x2="-1.27" y2="1.27" width="0.2032" layer="21"/>
<pad name="1" x="0" y="0" drill="0.7" diameter="1.651"/>
<pad name="2" x="2.54" y="0" drill="0.7" diameter="1.651"/>
<text x="-1.27" y="1.905" size="0.6096" layer="25">&gt;Name</text>
<text x="-1.27" y="-2.54" size="0.6096" layer="27">&gt;Value</text>
</package>
<package name="0805">
<wire x1="-0.3" y1="0.6" x2="0.3" y2="0.6" width="0.1524" layer="21"/>
<wire x1="-0.3" y1="-0.6" x2="0.3" y2="-0.6" width="0.1524" layer="21"/>
<smd name="1" x="-0.9" y="0" dx="0.8" dy="1.2" layer="1"/>
<smd name="2" x="0.9" y="0" dx="0.8" dy="1.2" layer="1"/>
<text x="-0.762" y="0.8255" size="0.4064" layer="25">&gt;NAME</text>
<text x="-1.016" y="-1.397" size="0.4064" layer="27">&gt;VALUE</text>
</package>
<package name="CAP-PTH-LARGE">
<wire x1="0" y1="0.635" x2="0" y2="0" width="0.2032" layer="21"/>
<wire x1="0" y1="0" x2="0" y2="-0.635" width="0.2032" layer="21"/>
<wire x1="0" y1="0" x2="-2.54" y2="0" width="0.2032" layer="21"/>
<wire x1="0" y1="0" x2="2.54" y2="0" width="0.2032" layer="21"/>
<pad name="1" x="-4.826" y="0" drill="0.7" diameter="1.651"/>
<pad name="2" x="4.572" y="0" drill="0.7" diameter="1.651"/>
<text x="-0.762" y="1.27" size="0.4064" layer="25">&gt;Name</text>
<text x="-1.016" y="-1.524" size="0.4064" layer="27">&gt;Value</text>
</package>
<package name="GRM43D">
<wire x1="2.25" y1="1.6" x2="1.1" y2="1.6" width="0.127" layer="51"/>
<wire x1="1.1" y1="1.6" x2="-1.1" y2="1.6" width="0.127" layer="51"/>
<wire x1="-1.1" y1="1.6" x2="-2.25" y2="1.6" width="0.127" layer="51"/>
<wire x1="-2.25" y1="1.6" x2="-2.25" y2="-1.6" width="0.127" layer="51"/>
<wire x1="-2.25" y1="-1.6" x2="-1.1" y2="-1.6" width="0.127" layer="51"/>
<wire x1="-1.1" y1="-1.6" x2="1.1" y2="-1.6" width="0.127" layer="51"/>
<wire x1="1.1" y1="-1.6" x2="2.25" y2="-1.6" width="0.127" layer="51"/>
<wire x1="2.25" y1="-1.6" x2="2.25" y2="1.6" width="0.127" layer="51"/>
<wire x1="1.1" y1="1.6" x2="1.1" y2="-1.6" width="0.127" layer="51"/>
<wire x1="-1.1" y1="1.6" x2="-1.1" y2="-1.6" width="0.127" layer="51"/>
<wire x1="-2.3" y1="1.8" x2="2.3" y2="1.8" width="0.127" layer="21"/>
<wire x1="-2.3" y1="-1.8" x2="2.3" y2="-1.8" width="0.127" layer="21"/>
<smd name="A" x="1.927" y="0" dx="3.2" dy="1.65" layer="1" rot="R90"/>
<smd name="C" x="-1.927" y="0" dx="3.2" dy="1.65" layer="1" rot="R90"/>
<text x="-2" y="2" size="0.4064" layer="25">&gt;NAME</text>
<text x="0" y="-2" size="0.4064" layer="27" rot="R180">&gt;VALUE</text>
<rectangle x1="-2.2" y1="-1.6" x2="-1.1" y2="1.6" layer="51"/>
<rectangle x1="1.1" y1="-1.6" x2="2.2" y2="1.6" layer="51"/>
</package>
<package name="0603-CAP">
<wire x1="-1.473" y1="0.983" x2="1.473" y2="0.983" width="0.0508" layer="39"/>
<wire x1="1.473" y1="0.983" x2="1.473" y2="-0.983" width="0.0508" layer="39"/>
<wire x1="1.473" y1="-0.983" x2="-1.473" y2="-0.983" width="0.0508" layer="39"/>
<wire x1="-1.473" y1="-0.983" x2="-1.473" y2="0.983" width="0.0508" layer="39"/>
<wire x1="-0.356" y1="0.432" x2="0.356" y2="0.432" width="0.1016" layer="51"/>
<wire x1="-0.356" y1="-0.419" x2="0.356" y2="-0.419" width="0.1016" layer="51"/>
<wire x1="0" y1="0.0305" x2="0" y2="-0.0305" width="0.5588" layer="21"/>
<smd name="1" x="-0.85" y="0" dx="1.1" dy="1" layer="1"/>
<smd name="2" x="0.85" y="0" dx="1.1" dy="1" layer="1"/>
<text x="-0.889" y="0.762" size="0.4064" layer="25" font="vector">&gt;NAME</text>
<text x="-1.016" y="-1.143" size="0.4064" layer="27" font="vector">&gt;VALUE</text>
<rectangle x1="-0.8382" y1="-0.4699" x2="-0.3381" y2="0.4801" layer="51"/>
<rectangle x1="0.3302" y1="-0.4699" x2="0.8303" y2="0.4801" layer="51"/>
<rectangle x1="-0.1999" y1="-0.3" x2="0.1999" y2="0.3" layer="35"/>
</package>
<package name="0402-CAP">
<description>&lt;b&gt;CAPACITOR&lt;/b&gt;&lt;p&gt;
chip</description>
<wire x1="-0.245" y1="0.224" x2="0.245" y2="0.224" width="0.1524" layer="51"/>
<wire x1="0.245" y1="-0.224" x2="-0.245" y2="-0.224" width="0.1524" layer="51"/>
<wire x1="-1.473" y1="0.483" x2="1.473" y2="0.483" width="0.0508" layer="39"/>
<wire x1="1.473" y1="0.483" x2="1.473" y2="-0.483" width="0.0508" layer="39"/>
<wire x1="1.473" y1="-0.483" x2="-1.473" y2="-0.483" width="0.0508" layer="39"/>
<wire x1="-1.473" y1="-0.483" x2="-1.473" y2="0.483" width="0.0508" layer="39"/>
<wire x1="0" y1="0.0305" x2="0" y2="-0.0305" width="0.4064" layer="21"/>
<smd name="1" x="-0.65" y="0" dx="0.7" dy="0.9" layer="1"/>
<smd name="2" x="0.65" y="0" dx="0.7" dy="0.9" layer="1"/>
<text x="-0.889" y="0.6985" size="0.4064" layer="25">&gt;NAME</text>
<text x="-1.0795" y="-1.143" size="0.4064" layer="27">&gt;VALUE</text>
<rectangle x1="-0.554" y1="-0.3048" x2="-0.254" y2="0.2951" layer="51"/>
<rectangle x1="0.2588" y1="-0.3048" x2="0.5588" y2="0.2951" layer="51"/>
<rectangle x1="-0.1999" y1="-0.3" x2="0.1999" y2="0.3" layer="35"/>
</package>
<package name="CAP-PTH-5MM">
<wire x1="0" y1="0.635" x2="0" y2="-0.635" width="0.2032" layer="21"/>
<pad name="1" x="-2.5" y="0" drill="0.7" diameter="1.651"/>
<pad name="2" x="2.5" y="0" drill="0.7" diameter="1.651"/>
<text x="-0.762" y="1.27" size="0.4064" layer="25">&gt;Name</text>
<text x="-1.016" y="-1.524" size="0.4064" layer="27">&gt;Value</text>
</package>
<package name="AXIAL-5MM">
<wire x1="-1.14" y1="0.762" x2="1.14" y2="0.762" width="0.2032" layer="21"/>
<wire x1="1.14" y1="0.762" x2="1.14" y2="0" width="0.2032" layer="21"/>
<wire x1="1.14" y1="0" x2="1.14" y2="-0.762" width="0.2032" layer="21"/>
<wire x1="1.14" y1="-0.762" x2="-1.14" y2="-0.762" width="0.2032" layer="21"/>
<wire x1="-1.14" y1="-0.762" x2="-1.14" y2="0" width="0.2032" layer="21"/>
<wire x1="-1.14" y1="0" x2="-1.14" y2="0.762" width="0.2032" layer="21"/>
<wire x1="1.14" y1="0" x2="1.394" y2="0" width="0.2032" layer="21"/>
<wire x1="-1.14" y1="0" x2="-1.394" y2="0" width="0.2032" layer="21"/>
<pad name="P$1" x="-2.5" y="0" drill="0.9" diameter="1.8796"/>
<pad name="P$2" x="2.5" y="0" drill="0.9" diameter="1.8796"/>
<text x="-2.54" y="1.17" size="0.4" layer="25">&gt;Name</text>
<text x="-1.032" y="-0.208" size="0.4" layer="21" ratio="15">&gt;Value</text>
</package>
<package name="1210">
<wire x1="-1.6" y1="1.3" x2="1.6" y2="1.3" width="0.127" layer="51"/>
<wire x1="1.6" y1="1.3" x2="1.6" y2="-1.3" width="0.127" layer="51"/>
<wire x1="1.6" y1="-1.3" x2="-1.6" y2="-1.3" width="0.127" layer="51"/>
<wire x1="-1.6" y1="-1.3" x2="-1.6" y2="1.3" width="0.127" layer="51"/>
<wire x1="-1.6" y1="1.3" x2="1.6" y2="1.3" width="0.2032" layer="21"/>
<wire x1="-1.6" y1="-1.3" x2="1.6" y2="-1.3" width="0.2032" layer="21"/>
<smd name="1" x="-1.6" y="0" dx="1.2" dy="2" layer="1"/>
<smd name="2" x="1.6" y="0" dx="1.2" dy="2" layer="1"/>
<text x="-0.8" y="0.5" size="0.4064" layer="25">&gt;NAME</text>
<text x="-0.9" y="-0.7" size="0.4064" layer="27">&gt;VALUE</text>
</package>
<package name="1206">
<wire x1="-2.473" y1="0.983" x2="2.473" y2="0.983" width="0.0508" layer="39"/>
<wire x1="2.473" y1="-0.983" x2="-2.473" y2="-0.983" width="0.0508" layer="39"/>
<wire x1="-2.473" y1="-0.983" x2="-2.473" y2="0.983" width="0.0508" layer="39"/>
<wire x1="2.473" y1="0.983" x2="2.473" y2="-0.983" width="0.0508" layer="39"/>
<wire x1="-0.965" y1="0.787" x2="0.965" y2="0.787" width="0.1016" layer="51"/>
<wire x1="-0.965" y1="-0.787" x2="0.965" y2="-0.787" width="0.1016" layer="51"/>
<smd name="1" x="-1.4" y="0" dx="1.6" dy="1.8" layer="1"/>
<smd name="2" x="1.4" y="0" dx="1.6" dy="1.8" layer="1"/>
<text x="-1.27" y="1.143" size="0.4064" layer="25">&gt;NAME</text>
<text x="-1.397" y="-1.524" size="0.4064" layer="27">&gt;VALUE</text>
<rectangle x1="-1.7018" y1="-0.8509" x2="-0.9517" y2="0.8491" layer="51"/>
<rectangle x1="0.9517" y1="-0.8491" x2="1.7018" y2="0.8509" layer="51"/>
<rectangle x1="-0.1999" y1="-0.4001" x2="0.1999" y2="0.4001" layer="35"/>
</package>
<package name="1X01_LONGPAD">
<wire x1="-1.27" y1="0.635" x2="-1.27" y2="-0.635" width="0.2032" layer="21"/>
<wire x1="1.27" y1="0.635" x2="1.27" y2="-0.635" width="0.2032" layer="21"/>
<pad name="1" x="0" y="0" drill="1.016" diameter="1.8796" shape="long" rot="R90"/>
<text x="-1.3462" y="1.8288" size="1.27" layer="25" ratio="10">&gt;NAME</text>
<text x="-1.27" y="-3.175" size="1.27" layer="27">&gt;VALUE</text>
<rectangle x1="-0.254" y1="-0.254" x2="0.254" y2="0.254" layer="51"/>
</package>
<package name="LUXEON-PAD">
<smd name="P$1" x="0" y="0" dx="3.9" dy="2.4" layer="1" roundness="25"/>
<text x="-1.5" y="2" size="1.27" layer="25" ratio="10">&gt;NAME</text>
<text x="-1.5" y="-3" size="1.27" layer="27">&gt;VALUE</text>
</package>
<package name="SMTSO-256-ET">
<wire x1="-2.286" y1="1.016" x2="-1.016" y2="2.286" width="1.016" layer="31" curve="-42.075022"/>
<wire x1="1.016" y1="2.286" x2="2.286" y2="1.016" width="1.016" layer="31" curve="-42.075022"/>
<wire x1="2.286" y1="-1.016" x2="1.016" y2="-2.286" width="1.016" layer="31" curve="-42.075022"/>
<wire x1="-1.016" y1="-2.286" x2="-2.286" y2="-1.016" width="1.016" layer="31" curve="-42.075022"/>
<circle x="0" y="0" radius="1.016" width="0.127" layer="51"/>
<pad name="P$1" x="0" y="0" drill="3.81" diameter="6.1976"/>
</package>
<package name="SMTRA-256-8-6">
<pad name="P$1" x="-1.9939" y="0" drill="1.3462"/>
<pad name="P$2" x="1.9939" y="0" drill="1.3462"/>
<smd name="P$3" x="0" y="0" dx="6.6548" dy="4.3434" layer="1" cream="no"/>
<text x="1.27" y="2.54" size="0.4064" layer="27">&gt;Value</text>
<text x="-2.54" y="2.54" size="0.4064" layer="25">&gt;Name</text>
<rectangle x1="-3.302" y1="0.762" x2="3.302" y2="2.032" layer="31"/>
<rectangle x1="-1.016" y1="0.508" x2="1.016" y2="0.762" layer="31"/>
<rectangle x1="-1.016" y1="-1.016" x2="1.016" y2="-0.762" layer="31"/>
<rectangle x1="-3.302" y1="-2.032" x2="3.302" y2="-0.762" layer="31"/>
<rectangle x1="-1.016" y1="-0.762" x2="1.016" y2="-0.508" layer="31"/>
<rectangle x1="2.794" y1="0.508" x2="3.302" y2="0.762" layer="31"/>
<rectangle x1="2.794" y1="-0.762" x2="3.302" y2="-0.508" layer="31"/>
<rectangle x1="-3.302" y1="-0.762" x2="-2.794" y2="-0.508" layer="31"/>
<rectangle x1="-3.302" y1="0.508" x2="-2.794" y2="0.762" layer="31"/>
</package>
<package name="1X01NS">
<pad name="1" x="0" y="0" drill="1.016" diameter="1.8796" rot="R90"/>
</package>
<package name="1X01">
<wire x1="1.27" y1="0.635" x2="0.635" y2="1.27" width="0.2032" layer="21"/>
<wire x1="0.635" y1="1.27" x2="-0.635" y2="1.27" width="0.2032" layer="21"/>
<wire x1="-0.635" y1="1.27" x2="-1.27" y2="0.635" width="0.2032" layer="21"/>
<wire x1="-1.27" y1="0.635" x2="-1.27" y2="-0.635" width="0.2032" layer="21"/>
<wire x1="-1.27" y1="-0.635" x2="-0.635" y2="-1.27" width="0.2032" layer="21"/>
<wire x1="-0.635" y1="-1.27" x2="0.635" y2="-1.27" width="0.2032" layer="21"/>
<wire x1="0.635" y1="-1.27" x2="1.27" y2="-0.635" width="0.2032" layer="21"/>
<wire x1="1.27" y1="-0.635" x2="1.27" y2="0.635" width="0.2032" layer="21"/>
<pad name="1" x="0" y="0" drill="1.016" diameter="1.8796" rot="R90"/>
<text x="1.1938" y="1.8288" size="1.27" layer="25">&gt;NAME</text>
<text x="-1.27" y="-3.175" size="1.27" layer="27">&gt;VALUE</text>
<rectangle x1="-0.254" y1="-0.254" x2="0.254" y2="0.254" layer="51"/>
</package>
<package name="1X01_2MM">
<pad name="1" x="0" y="0" drill="2" diameter="3.302" rot="R90"/>
<text x="-1.3462" y="1.8288" size="1.27" layer="25">&gt;NAME</text>
<text x="-1.27" y="-3.175" size="1.27" layer="27">&gt;VALUE</text>
</package>
<package name="1X01_OFFSET">
<wire x1="-1.27" y1="0.635" x2="-1.27" y2="-0.635" width="0.2032" layer="21"/>
<wire x1="-1.27" y1="-0.635" x2="-0.635" y2="-1.27" width="0.2032" layer="21"/>
<wire x1="-0.635" y1="-1.27" x2="0.635" y2="-1.27" width="0.2032" layer="21"/>
<wire x1="0.635" y1="-1.27" x2="1.27" y2="-0.635" width="0.2032" layer="21"/>
<wire x1="1.27" y1="-0.635" x2="1.27" y2="0.635" width="0.2032" layer="21"/>
<pad name="1" x="0" y="0" drill="1.016" diameter="1.8796" shape="offset" rot="R90"/>
<text x="1.1938" y="1.8288" size="1.27" layer="25">&gt;NAME</text>
<text x="-1.27" y="-3.175" size="1.27" layer="27">&gt;VALUE</text>
<rectangle x1="-0.254" y1="-0.254" x2="0.254" y2="0.254" layer="51"/>
</package>
<package name="PAD-1.5X4.5">
<smd name="P$1" x="0" y="0" dx="1.5" dy="2" layer="1"/>
</package>
<package name="1X01_POGOPIN_HOLE_LARGE">
<circle x="0" y="0" radius="0.635" width="0.127" layer="51"/>
<pad name="1" x="0" y="0" drill="0.9" diameter="0.8128" rot="R90" thermals="no"/>
<hole x="0" y="0" drill="1.5494"/>
</package>
</packages>
<symbols>
<symbol name="CAP">
<wire x1="0" y1="2.54" x2="0" y2="2.032" width="0.1524" layer="94"/>
<wire x1="0" y1="0" x2="0" y2="0.508" width="0.1524" layer="94"/>
<text x="1.524" y="2.921" size="1.778" layer="95">&gt;NAME</text>
<text x="1.524" y="-2.159" size="1.778" layer="96">&gt;VALUE</text>
<rectangle x1="-2.032" y1="0.508" x2="2.032" y2="1.016" layer="94"/>
<rectangle x1="-2.032" y1="1.524" x2="2.032" y2="2.032" layer="94"/>
<pin name="1" x="0" y="5.08" visible="off" length="short" direction="pas" swaplevel="1" rot="R270"/>
<pin name="2" x="0" y="-2.54" visible="off" length="short" direction="pas" swaplevel="1" rot="R90"/>
</symbol>
<symbol name="M01">
<wire x1="3.81" y1="-2.54" x2="-2.54" y2="-2.54" width="0.4064" layer="94"/>
<wire x1="1.27" y1="0" x2="2.54" y2="0" width="0.6096" layer="94"/>
<wire x1="-2.54" y1="2.54" x2="-2.54" y2="-2.54" width="0.4064" layer="94"/>
<wire x1="3.81" y1="-2.54" x2="3.81" y2="2.54" width="0.4064" layer="94"/>
<wire x1="-2.54" y1="2.54" x2="3.81" y2="2.54" width="0.4064" layer="94"/>
<text x="-2.54" y="-5.08" size="1.778" layer="96">&gt;VALUE</text>
<text x="-2.54" y="3.302" size="1.778" layer="95">&gt;NAME</text>
<pin name="1" x="7.62" y="0" visible="off" length="middle" direction="pas" swaplevel="1" rot="R180"/>
</symbol>
</symbols>
<devicesets>
<deviceset name="CAP" prefix="C" uservalue="yes">
<description>&lt;b&gt;Capacitor&lt;/b&gt;
Standard 0603 ceramic capacitor, and 0.1" leaded capacitor.</description>
<gates>
<gate name="G$1" symbol="CAP" x="0" y="0"/>
</gates>
<devices>
<device name="PTH" package="CAP-PTH-SMALL">
<connects>
<connect gate="G$1" pin="1" pad="1"/>
<connect gate="G$1" pin="2" pad="2"/>
</connects>
<technologies>
<technology name=""/>
</technologies>
</device>
<device name="PTH2" package="CAP-PTH-SMALL2">
<connects>
<connect gate="G$1" pin="1" pad="1"/>
<connect gate="G$1" pin="2" pad="2"/>
</connects>
<technologies>
<technology name=""/>
</technologies>
</device>
<device name="0805" package="0805">
<connects>
<connect gate="G$1" pin="1" pad="1"/>
<connect gate="G$1" pin="2" pad="2"/>
</connects>
<technologies>
<technology name=""/>
</technologies>
</device>
<device name="PTH3" package="CAP-PTH-LARGE">
<connects>
<connect gate="G$1" pin="1" pad="1"/>
<connect gate="G$1" pin="2" pad="2"/>
</connects>
<technologies>
<technology name=""/>
</technologies>
</device>
<device name="SMD" package="GRM43D">
<connects>
<connect gate="G$1" pin="1" pad="A"/>
<connect gate="G$1" pin="2" pad="C"/>
</connects>
<technologies>
<technology name=""/>
</technologies>
</device>
<device name="0603-CAP" package="0603-CAP">
<connects>
<connect gate="G$1" pin="1" pad="1"/>
<connect gate="G$1" pin="2" pad="2"/>
</connects>
<technologies>
<technology name=""/>
</technologies>
</device>
<device name="0402-CAP" package="0402-CAP">
<connects>
<connect gate="G$1" pin="1" pad="1"/>
<connect gate="G$1" pin="2" pad="2"/>
</connects>
<technologies>
<technology name=""/>
</technologies>
</device>
<device name="PTH1" package="CAP-PTH-5MM">
<connects>
<connect gate="G$1" pin="1" pad="1"/>
<connect gate="G$1" pin="2" pad="2"/>
</connects>
<technologies>
<technology name=""/>
</technologies>
</device>
<device name="_" package="AXIAL-5MM">
<connects>
<connect gate="G$1" pin="1" pad="P$1"/>
<connect gate="G$1" pin="2" pad="P$2"/>
</connects>
<technologies>
<technology name=""/>
</technologies>
</device>
<device name="1210" package="1210">
<connects>
<connect gate="G$1" pin="1" pad="1"/>
<connect gate="G$1" pin="2" pad="2"/>
</connects>
<technologies>
<technology name=""/>
</technologies>
</device>
<device name="1206" package="1206">
<connects>
<connect gate="G$1" pin="1" pad="1"/>
<connect gate="G$1" pin="2" pad="2"/>
</connects>
<technologies>
<technology name=""/>
</technologies>
</device>
</devices>
</deviceset>
<deviceset name="M01" prefix="JP">
<description>&lt;b&gt;Header 1&lt;/b&gt;
Standard 1-pin 0.1" header. Use with straight break away headers (SKU : PRT-00116), right angle break away headers (PRT-00553), swiss pins (PRT-00743), machine pins (PRT-00117), and female headers (PRT-00115).</description>
<gates>
<gate name="G$1" symbol="M01" x="0" y="0"/>
</gates>
<devices>
<device name="PTH_LONGPAD" package="1X01_LONGPAD">
<connects>
<connect gate="G$1" pin="1" pad="1"/>
</connects>
<technologies>
<technology name=""/>
</technologies>
</device>
<device name="SMD" package="LUXEON-PAD">
<connects>
<connect gate="G$1" pin="1" pad="P$1"/>
</connects>
<technologies>
<technology name=""/>
</technologies>
</device>
<device name="-SMTSO-256-ET" package="SMTSO-256-ET">
<connects>
<connect gate="G$1" pin="1" pad="P$1"/>
</connects>
<technologies>
<technology name=""/>
</technologies>
</device>
<device name="SMTRA-256-8-6" package="SMTRA-256-8-6">
<connects>
<connect gate="G$1" pin="1" pad="P$1"/>
</connects>
<technologies>
<technology name=""/>
</technologies>
</device>
<device name="SMDNS" package="1X01NS">
<connects>
<connect gate="G$1" pin="1" pad="1"/>
</connects>
<technologies>
<technology name=""/>
</technologies>
</device>
<device name="PTH" package="1X01">
<connects>
<connect gate="G$1" pin="1" pad="1"/>
</connects>
<technologies>
<technology name=""/>
</technologies>
</device>
<device name="PTH_2MM" package="1X01_2MM">
<connects>
<connect gate="G$1" pin="1" pad="1"/>
</connects>
<technologies>
<technology name=""/>
</technologies>
</device>
<device name="OFFSET" package="1X01_OFFSET">
<connects>
<connect gate="G$1" pin="1" pad="1"/>
</connects>
<technologies>
<technology name=""/>
</technologies>
</device>
<device name="SMD-4.5X1.5" package="PAD-1.5X4.5">
<connects>
<connect gate="G$1" pin="1" pad="P$1"/>
</connects>
<technologies>
<technology name=""/>
</technologies>
</device>
<device name="POGOPIN_HOLE_LARGE" package="1X01_POGOPIN_HOLE_LARGE">
<connects>
<connect gate="G$1" pin="1" pad="1"/>
</connects>
<technologies>
<technology name=""/>
</technologies>
</device>
</devices>
</deviceset>
</devicesets>
</library>
<library name="con-amp-quick">
<description>&lt;b&gt;AMP Connectors, Type QUICK&lt;/b&gt;&lt;p&gt;
&lt;author&gt;Created by librarian@cadsoft.de&lt;/author&gt;</description>
<packages>
<package name="02P">
<description>&lt;b&gt;AMP QUICK CONNECTOR&lt;/b&gt;</description>
<wire x1="-2.286" y1="2.54" x2="-2.286" y2="1.778" width="0.1524" layer="21"/>
<wire x1="-2.286" y1="1.778" x2="-0.381" y2="1.778" width="0.1524" layer="21"/>
<wire x1="-0.381" y1="1.778" x2="-0.254" y2="1.651" width="0.1524" layer="21"/>
<wire x1="-0.254" y1="1.651" x2="0" y2="1.397" width="0.1524" layer="21"/>
<wire x1="0" y1="1.397" x2="0.254" y2="1.651" width="0.1524" layer="21"/>
<wire x1="0.254" y1="1.651" x2="0.381" y2="1.778" width="0.1524" layer="21"/>
<wire x1="-0.254" y1="-2.159" x2="-0.254" y2="-2.286" width="0.1524" layer="21"/>
<wire x1="-0.254" y1="-2.286" x2="-2.286" y2="-2.286" width="0.1524" layer="21"/>
<wire x1="0.254" y1="-2.159" x2="-0.254" y2="-2.159" width="0.1524" layer="21"/>
<wire x1="0.254" y1="-2.159" x2="0.254" y2="-2.286" width="0.1524" layer="21"/>
<wire x1="2.286" y1="-2.286" x2="0.254" y2="-2.286" width="0.1524" layer="21"/>
<wire x1="0.381" y1="1.778" x2="2.286" y2="1.778" width="0.1524" layer="21"/>
<wire x1="2.286" y1="1.778" x2="2.286" y2="2.54" width="0.1524" layer="21"/>
<wire x1="-2.286" y1="1.778" x2="-2.286" y2="-1.524" width="0.1524" layer="21"/>
<wire x1="-2.286" y1="-1.778" x2="-2.286" y2="-2.286" width="0.1524" layer="21"/>
<wire x1="-2.286" y1="-1.778" x2="-1.905" y2="-1.778" width="0.1524" layer="21"/>
<wire x1="2.286" y1="-1.778" x2="2.286" y2="-2.286" width="0.1524" layer="21"/>
<wire x1="2.286" y1="-1.778" x2="1.905" y2="-1.778" width="0.1524" layer="21"/>
<wire x1="2.286" y1="1.778" x2="2.286" y2="-1.524" width="0.1524" layer="21"/>
<wire x1="1.905" y1="-1.778" x2="1.905" y2="-1.524" width="0.1524" layer="21"/>
<wire x1="0.635" y1="-1.27" x2="1.905" y2="-1.27" width="0.1524" layer="21"/>
<wire x1="-0.635" y1="-1.778" x2="-0.635" y2="-1.524" width="0.1524" layer="21"/>
<wire x1="-1.905" y1="-1.778" x2="-1.905" y2="-1.524" width="0.1524" layer="21"/>
<wire x1="-1.905" y1="-1.27" x2="-0.635" y2="-1.27" width="0.1524" layer="21"/>
<wire x1="-0.635" y1="-1.778" x2="0.635" y2="-1.778" width="0.1524" layer="21"/>
<wire x1="-0.635" y1="-1.524" x2="-0.635" y2="-1.27" width="0.1524" layer="21"/>
<wire x1="0.635" y1="-1.778" x2="0.635" y2="-1.524" width="0.1524" layer="21"/>
<wire x1="0.635" y1="-1.524" x2="0.635" y2="-1.27" width="0.1524" layer="21"/>
<wire x1="0.254" y1="-1.524" x2="0.635" y2="-1.524" width="0.1524" layer="21"/>
<wire x1="0.254" y1="-1.524" x2="0.254" y2="1.651" width="0.1524" layer="21"/>
<wire x1="-0.635" y1="-1.524" x2="-0.254" y2="-1.524" width="0.1524" layer="21"/>
<wire x1="-0.254" y1="-1.524" x2="0.254" y2="-1.524" width="0.1524" layer="21"/>
<wire x1="-0.254" y1="-1.524" x2="-0.254" y2="1.651" width="0.1524" layer="21"/>
<wire x1="1.905" y1="-1.524" x2="2.286" y2="-1.524" width="0.1524" layer="21"/>
<wire x1="1.905" y1="-1.524" x2="1.905" y2="-1.27" width="0.1524" layer="21"/>
<wire x1="2.286" y1="-1.524" x2="2.286" y2="-1.778" width="0.1524" layer="21"/>
<wire x1="-1.905" y1="-1.524" x2="-2.286" y2="-1.524" width="0.1524" layer="21"/>
<wire x1="-1.905" y1="-1.524" x2="-1.905" y2="-1.27" width="0.1524" layer="21"/>
<wire x1="-2.286" y1="-1.524" x2="-2.286" y2="-1.778" width="0.1524" layer="21"/>
<wire x1="-2.286" y1="2.54" x2="-1.524" y2="2.54" width="0.1524" layer="21"/>
<wire x1="-1.524" y1="2.54" x2="-1.524" y2="2.667" width="0.1524" layer="21"/>
<wire x1="-1.016" y1="2.54" x2="-1.016" y2="2.667" width="0.1524" layer="21"/>
<wire x1="-1.016" y1="2.667" x2="-1.524" y2="2.667" width="0.1524" layer="21"/>
<wire x1="1.016" y1="2.54" x2="1.016" y2="2.667" width="0.1524" layer="21"/>
<wire x1="1.524" y1="2.54" x2="2.286" y2="2.54" width="0.1524" layer="21"/>
<wire x1="1.524" y1="2.54" x2="1.524" y2="2.667" width="0.1524" layer="21"/>
<wire x1="1.524" y1="2.667" x2="1.016" y2="2.667" width="0.1524" layer="21"/>
<wire x1="0.254" y1="2.413" x2="0.254" y2="2.54" width="0.1524" layer="21"/>
<wire x1="0.254" y1="2.54" x2="1.016" y2="2.54" width="0.1524" layer="21"/>
<wire x1="0.254" y1="2.413" x2="-0.254" y2="2.413" width="0.1524" layer="21"/>
<wire x1="-0.254" y1="2.413" x2="-0.254" y2="2.54" width="0.1524" layer="21"/>
<wire x1="-0.254" y1="2.54" x2="-1.016" y2="2.54" width="0.1524" layer="21"/>
<pad name="1" x="-1.27" y="0" drill="0.9144" shape="long" rot="R90"/>
<pad name="2" x="1.27" y="0" drill="0.9144" shape="long" rot="R90"/>
<text x="-0.762" y="0.9398" size="0.9906" layer="21" ratio="12" rot="R90">1</text>
<text x="-2.286" y="2.9464" size="1.27" layer="25" ratio="10">&gt;NAME</text>
<text x="-2.286" y="-3.8354" size="1.27" layer="27" ratio="10">&gt;VALUE</text>
<rectangle x1="-1.6002" y1="-0.3302" x2="-0.9398" y2="0.3302" layer="51"/>
<rectangle x1="0.9398" y1="-0.3302" x2="1.6002" y2="0.3302" layer="51"/>
</package>
<package name="05P">
<description>&lt;b&gt;AMP QUICK CONNECTOR&lt;/b&gt;</description>
<wire x1="-4.191" y1="1.778" x2="-4.064" y2="1.651" width="0.1524" layer="21"/>
<wire x1="-4.064" y1="1.651" x2="-3.81" y2="1.397" width="0.1524" layer="21"/>
<wire x1="-3.81" y1="1.397" x2="-3.556" y2="1.651" width="0.1524" layer="21"/>
<wire x1="-3.556" y1="1.651" x2="-3.429" y2="1.778" width="0.1524" layer="21"/>
<wire x1="-4.064" y1="-2.159" x2="-4.064" y2="-2.286" width="0.1524" layer="21"/>
<wire x1="-4.064" y1="-2.286" x2="-6.096" y2="-2.286" width="0.1524" layer="21"/>
<wire x1="-3.556" y1="-2.159" x2="-4.064" y2="-2.159" width="0.1524" layer="21"/>
<wire x1="-3.556" y1="-2.159" x2="-3.556" y2="-2.286" width="0.1524" layer="21"/>
<wire x1="-6.096" y1="2.54" x2="-6.096" y2="1.778" width="0.1524" layer="21"/>
<wire x1="-6.096" y1="1.778" x2="-6.096" y2="-1.524" width="0.1524" layer="21"/>
<wire x1="-6.096" y1="-1.778" x2="-6.096" y2="-2.286" width="0.1524" layer="21"/>
<wire x1="-6.096" y1="-1.778" x2="-5.715" y2="-1.778" width="0.1524" layer="21"/>
<wire x1="-4.445" y1="-1.778" x2="-4.445" y2="-1.524" width="0.1524" layer="21"/>
<wire x1="-5.715" y1="-1.778" x2="-5.715" y2="-1.524" width="0.1524" layer="21"/>
<wire x1="-5.715" y1="-1.27" x2="-4.445" y2="-1.27" width="0.1524" layer="21"/>
<wire x1="-4.445" y1="-1.524" x2="-4.445" y2="-1.27" width="0.1524" layer="21"/>
<wire x1="-3.175" y1="-1.778" x2="-3.175" y2="-1.524" width="0.1524" layer="21"/>
<wire x1="-3.175" y1="-1.524" x2="-3.175" y2="-1.27" width="0.1524" layer="21"/>
<wire x1="-4.445" y1="-1.524" x2="-4.064" y2="-1.524" width="0.1524" layer="21"/>
<wire x1="-4.064" y1="-1.524" x2="-3.556" y2="-1.524" width="0.1524" layer="21"/>
<wire x1="-3.556" y1="-1.524" x2="-3.175" y2="-1.524" width="0.1524" layer="21"/>
<wire x1="-5.715" y1="-1.524" x2="-6.096" y2="-1.524" width="0.1524" layer="21"/>
<wire x1="-5.715" y1="-1.524" x2="-5.715" y2="-1.27" width="0.1524" layer="21"/>
<wire x1="-6.096" y1="-1.524" x2="-6.096" y2="-1.778" width="0.1524" layer="21"/>
<wire x1="-6.096" y1="2.54" x2="-5.334" y2="2.54" width="0.1524" layer="21"/>
<wire x1="-5.334" y1="2.54" x2="-5.334" y2="2.667" width="0.1524" layer="21"/>
<wire x1="-4.826" y1="2.54" x2="-4.826" y2="2.667" width="0.1524" layer="21"/>
<wire x1="-4.826" y1="2.667" x2="-5.334" y2="2.667" width="0.1524" layer="21"/>
<wire x1="-2.794" y1="2.54" x2="-2.794" y2="2.667" width="0.1524" layer="21"/>
<wire x1="-2.286" y1="2.54" x2="-2.286" y2="2.667" width="0.1524" layer="21"/>
<wire x1="-3.556" y1="2.413" x2="-3.556" y2="2.54" width="0.1524" layer="21"/>
<wire x1="-4.064" y1="2.413" x2="-4.064" y2="2.54" width="0.1524" layer="21"/>
<wire x1="-1.016" y1="-2.159" x2="-1.524" y2="-2.159" width="0.1524" layer="21"/>
<wire x1="-1.016" y1="-2.159" x2="-1.016" y2="-2.286" width="0.1524" layer="21"/>
<wire x1="1.016" y1="-2.286" x2="-1.016" y2="-2.286" width="0.1524" layer="21"/>
<wire x1="1.016" y1="1.778" x2="1.016" y2="-1.524" width="0.1524" layer="21"/>
<wire x1="0.635" y1="-1.778" x2="0.635" y2="-1.524" width="0.1524" layer="21"/>
<wire x1="-0.635" y1="-1.27" x2="0.635" y2="-1.27" width="0.1524" layer="21"/>
<wire x1="-1.905" y1="-1.778" x2="-1.905" y2="-1.524" width="0.1524" layer="21"/>
<wire x1="-1.905" y1="-1.524" x2="-1.905" y2="-1.27" width="0.1524" layer="21"/>
<wire x1="-0.635" y1="-1.778" x2="-0.635" y2="-1.524" width="0.1524" layer="21"/>
<wire x1="-0.635" y1="-1.524" x2="-0.635" y2="-1.27" width="0.1524" layer="21"/>
<wire x1="-1.905" y1="-1.524" x2="-1.524" y2="-1.524" width="0.1524" layer="21"/>
<wire x1="-1.524" y1="-1.524" x2="-1.016" y2="-1.524" width="0.1524" layer="21"/>
<wire x1="-1.016" y1="-1.524" x2="-0.635" y2="-1.524" width="0.1524" layer="21"/>
<wire x1="0.635" y1="-1.524" x2="1.016" y2="-1.524" width="0.1524" layer="21"/>
<wire x1="0.635" y1="-1.524" x2="0.635" y2="-1.27" width="0.1524" layer="21"/>
<wire x1="-0.254" y1="2.54" x2="-0.254" y2="2.667" width="0.1524" layer="21"/>
<wire x1="0.254" y1="2.54" x2="1.016" y2="2.54" width="0.1524" layer="21"/>
<wire x1="0.254" y1="2.54" x2="0.254" y2="2.667" width="0.1524" layer="21"/>
<wire x1="0.254" y1="2.667" x2="-0.254" y2="2.667" width="0.1524" layer="21"/>
<wire x1="-1.016" y1="2.413" x2="-1.016" y2="2.54" width="0.1524" layer="21"/>
<wire x1="-1.016" y1="2.54" x2="-0.254" y2="2.54" width="0.1524" layer="21"/>
<wire x1="-1.016" y1="2.413" x2="-1.524" y2="2.413" width="0.1524" layer="21"/>
<wire x1="-1.524" y1="2.413" x2="-1.524" y2="2.54" width="0.1524" layer="21"/>
<wire x1="-2.286" y1="2.54" x2="-1.524" y2="2.54" width="0.1524" layer="21"/>
<wire x1="-2.286" y1="2.667" x2="-2.794" y2="2.667" width="0.1524" layer="21"/>
<wire x1="-3.556" y1="2.54" x2="-2.794" y2="2.54" width="0.1524" layer="21"/>
<wire x1="-4.064" y1="2.413" x2="-3.556" y2="2.413" width="0.1524" layer="21"/>
<wire x1="-4.064" y1="2.54" x2="-4.826" y2="2.54" width="0.1524" layer="21"/>
<wire x1="-4.191" y1="1.778" x2="-6.096" y2="1.778" width="0.1524" layer="21"/>
<wire x1="-3.429" y1="1.778" x2="-1.524" y2="1.778" width="0.1524" layer="21"/>
<wire x1="-1.524" y1="1.778" x2="-1.016" y2="1.778" width="0.1524" layer="21"/>
<wire x1="-3.556" y1="1.651" x2="-3.556" y2="-1.524" width="0.1524" layer="21"/>
<wire x1="-4.064" y1="1.651" x2="-4.064" y2="-1.524" width="0.1524" layer="21"/>
<wire x1="-1.524" y1="1.778" x2="-1.524" y2="-1.524" width="0.1524" layer="21"/>
<wire x1="-1.016" y1="1.778" x2="-1.016" y2="-1.524" width="0.1524" layer="21"/>
<wire x1="-3.175" y1="-1.27" x2="-1.905" y2="-1.27" width="0.1524" layer="21"/>
<wire x1="-3.175" y1="-1.778" x2="-4.445" y2="-1.778" width="0.1524" layer="21"/>
<wire x1="-3.556" y1="-2.286" x2="-1.524" y2="-2.286" width="0.1524" layer="21"/>
<wire x1="-1.905" y1="-1.778" x2="-0.635" y2="-1.778" width="0.1524" layer="21"/>
<wire x1="-1.524" y1="-2.159" x2="-1.524" y2="-2.286" width="0.1524" layer="21"/>
<wire x1="1.524" y1="1.778" x2="1.524" y2="-1.524" width="0.1524" layer="21"/>
<wire x1="1.905" y1="-1.778" x2="1.905" y2="-1.524" width="0.1524" layer="21"/>
<wire x1="1.905" y1="-1.524" x2="1.524" y2="-1.524" width="0.1524" layer="21"/>
<wire x1="1.905" y1="-1.524" x2="1.905" y2="-1.27" width="0.1524" layer="21"/>
<wire x1="2.286" y1="2.54" x2="2.286" y2="2.667" width="0.1524" layer="21"/>
<wire x1="2.794" y1="2.54" x2="2.794" y2="2.667" width="0.1524" layer="21"/>
<wire x1="3.81" y1="1.397" x2="4.064" y2="1.651" width="0.1524" layer="21"/>
<wire x1="4.064" y1="1.651" x2="4.191" y2="1.778" width="0.1524" layer="21"/>
<wire x1="4.064" y1="-2.159" x2="3.556" y2="-2.159" width="0.1524" layer="21"/>
<wire x1="4.064" y1="-2.159" x2="4.064" y2="-2.286" width="0.1524" layer="21"/>
<wire x1="6.096" y1="-2.286" x2="4.064" y2="-2.286" width="0.1524" layer="21"/>
<wire x1="4.191" y1="1.778" x2="6.096" y2="1.778" width="0.1524" layer="21"/>
<wire x1="6.096" y1="1.778" x2="6.096" y2="2.54" width="0.1524" layer="21"/>
<wire x1="6.096" y1="-1.778" x2="6.096" y2="-2.286" width="0.1524" layer="21"/>
<wire x1="6.096" y1="-1.778" x2="5.715" y2="-1.778" width="0.1524" layer="21"/>
<wire x1="6.096" y1="1.778" x2="6.096" y2="-1.524" width="0.1524" layer="21"/>
<wire x1="5.715" y1="-1.778" x2="5.715" y2="-1.524" width="0.1524" layer="21"/>
<wire x1="4.445" y1="-1.27" x2="5.715" y2="-1.27" width="0.1524" layer="21"/>
<wire x1="3.175" y1="-1.778" x2="3.175" y2="-1.524" width="0.1524" layer="21"/>
<wire x1="3.175" y1="-1.524" x2="3.175" y2="-1.27" width="0.1524" layer="21"/>
<wire x1="4.445" y1="-1.778" x2="4.445" y2="-1.524" width="0.1524" layer="21"/>
<wire x1="4.445" y1="-1.524" x2="4.445" y2="-1.27" width="0.1524" layer="21"/>
<wire x1="3.175" y1="-1.524" x2="3.556" y2="-1.524" width="0.1524" layer="21"/>
<wire x1="3.556" y1="-1.524" x2="4.064" y2="-1.524" width="0.1524" layer="21"/>
<wire x1="4.064" y1="-1.524" x2="4.445" y2="-1.524" width="0.1524" layer="21"/>
<wire x1="5.715" y1="-1.524" x2="6.096" y2="-1.524" width="0.1524" layer="21"/>
<wire x1="5.715" y1="-1.524" x2="5.715" y2="-1.27" width="0.1524" layer="21"/>
<wire x1="6.096" y1="-1.524" x2="6.096" y2="-1.778" width="0.1524" layer="21"/>
<wire x1="4.826" y1="2.54" x2="4.826" y2="2.667" width="0.1524" layer="21"/>
<wire x1="5.334" y1="2.54" x2="6.096" y2="2.54" width="0.1524" layer="21"/>
<wire x1="5.334" y1="2.54" x2="5.334" y2="2.667" width="0.1524" layer="21"/>
<wire x1="5.334" y1="2.667" x2="4.826" y2="2.667" width="0.1524" layer="21"/>
<wire x1="4.064" y1="2.413" x2="4.064" y2="2.54" width="0.1524" layer="21"/>
<wire x1="4.064" y1="2.54" x2="4.826" y2="2.54" width="0.1524" layer="21"/>
<wire x1="4.064" y1="2.413" x2="3.556" y2="2.413" width="0.1524" layer="21"/>
<wire x1="3.556" y1="2.413" x2="3.556" y2="2.54" width="0.1524" layer="21"/>
<wire x1="3.429" y1="1.778" x2="3.556" y2="1.651" width="0.1524" layer="21"/>
<wire x1="3.556" y1="1.651" x2="3.81" y2="1.397" width="0.1524" layer="21"/>
<wire x1="2.794" y1="2.54" x2="3.556" y2="2.54" width="0.1524" layer="21"/>
<wire x1="2.794" y1="2.667" x2="2.286" y2="2.667" width="0.1524" layer="21"/>
<wire x1="1.524" y1="2.54" x2="2.286" y2="2.54" width="0.1524" layer="21"/>
<wire x1="3.556" y1="1.651" x2="3.556" y2="-1.524" width="0.1524" layer="21"/>
<wire x1="4.064" y1="1.651" x2="4.064" y2="-1.524" width="0.1524" layer="21"/>
<wire x1="1.524" y1="-2.286" x2="3.556" y2="-2.286" width="0.1524" layer="21"/>
<wire x1="3.175" y1="-1.778" x2="4.445" y2="-1.778" width="0.1524" layer="21"/>
<wire x1="3.556" y1="-2.159" x2="3.556" y2="-2.286" width="0.1524" layer="21"/>
<wire x1="-1.016" y1="1.778" x2="1.016" y2="1.778" width="0.1524" layer="21"/>
<wire x1="1.524" y1="1.778" x2="3.429" y2="1.778" width="0.1524" layer="21"/>
<wire x1="1.016" y1="-2.159" x2="1.016" y2="-2.286" width="0.1524" layer="21"/>
<wire x1="1.524" y1="-2.159" x2="1.524" y2="-2.286" width="0.1524" layer="21"/>
<wire x1="1.524" y1="-2.159" x2="1.016" y2="-2.159" width="0.1524" layer="21"/>
<wire x1="1.905" y1="-1.778" x2="0.635" y2="-1.778" width="0.1524" layer="21"/>
<wire x1="1.524" y1="-1.524" x2="1.016" y2="-1.524" width="0.1524" layer="21"/>
<wire x1="1.524" y1="1.778" x2="1.016" y2="1.778" width="0.1524" layer="21"/>
<wire x1="1.524" y1="2.413" x2="1.016" y2="2.413" width="0.1524" layer="21"/>
<wire x1="1.016" y1="2.54" x2="1.016" y2="2.413" width="0.1524" layer="21"/>
<wire x1="1.524" y1="2.54" x2="1.524" y2="2.413" width="0.1524" layer="21"/>
<wire x1="1.905" y1="-1.27" x2="3.175" y2="-1.27" width="0.1524" layer="21"/>
<pad name="1" x="-5.08" y="0" drill="0.9144" shape="long" rot="R90"/>
<pad name="2" x="-2.54" y="0" drill="0.9144" shape="long" rot="R90"/>
<pad name="3" x="0" y="0" drill="0.9144" shape="long" rot="R90"/>
<pad name="4" x="2.54" y="0" drill="0.9144" shape="long" rot="R90"/>
<pad name="5" x="5.08" y="0" drill="0.9144" shape="long" rot="R90"/>
<text x="-4.572" y="0.9398" size="0.9906" layer="21" ratio="12" rot="R90">1</text>
<text x="-6.096" y="2.9464" size="1.27" layer="25" ratio="10">&gt;NAME</text>
<text x="-6.096" y="-3.8354" size="1.27" layer="27" ratio="10">&gt;VALUE</text>
<rectangle x1="-5.4102" y1="-0.3302" x2="-4.7498" y2="0.3302" layer="51"/>
<rectangle x1="-2.8702" y1="-0.3302" x2="-2.2098" y2="0.3302" layer="51"/>
<rectangle x1="-0.3302" y1="-0.3302" x2="0.3302" y2="0.3302" layer="51"/>
<rectangle x1="2.2098" y1="-0.3302" x2="2.8702" y2="0.3302" layer="51"/>
<rectangle x1="4.7498" y1="-0.3302" x2="5.4102" y2="0.3302" layer="51"/>
</package>
</packages>
<symbols>
<symbol name="M02">
<wire x1="3.81" y1="-2.54" x2="-2.54" y2="-2.54" width="0.4064" layer="94"/>
<wire x1="1.27" y1="2.54" x2="2.54" y2="2.54" width="0.6096" layer="94"/>
<wire x1="1.27" y1="0" x2="2.54" y2="0" width="0.6096" layer="94"/>
<wire x1="-2.54" y1="5.08" x2="-2.54" y2="-2.54" width="0.4064" layer="94"/>
<wire x1="3.81" y1="-2.54" x2="3.81" y2="5.08" width="0.4064" layer="94"/>
<wire x1="-2.54" y1="5.08" x2="3.81" y2="5.08" width="0.4064" layer="94"/>
<text x="-2.54" y="-5.08" size="1.778" layer="96">&gt;VALUE</text>
<text x="-2.54" y="5.842" size="1.778" layer="95">&gt;NAME</text>
<pin name="1" x="7.62" y="0" visible="pad" length="middle" direction="pas" swaplevel="1" rot="R180"/>
<pin name="2" x="7.62" y="2.54" visible="pad" length="middle" direction="pas" swaplevel="1" rot="R180"/>
</symbol>
<symbol name="M05">
<wire x1="3.81" y1="-7.62" x2="-2.54" y2="-7.62" width="0.4064" layer="94"/>
<wire x1="1.27" y1="0" x2="2.54" y2="0" width="0.6096" layer="94"/>
<wire x1="1.27" y1="-2.54" x2="2.54" y2="-2.54" width="0.6096" layer="94"/>
<wire x1="1.27" y1="-5.08" x2="2.54" y2="-5.08" width="0.6096" layer="94"/>
<wire x1="-2.54" y1="7.62" x2="-2.54" y2="-7.62" width="0.4064" layer="94"/>
<wire x1="3.81" y1="-7.62" x2="3.81" y2="7.62" width="0.4064" layer="94"/>
<wire x1="-2.54" y1="7.62" x2="3.81" y2="7.62" width="0.4064" layer="94"/>
<wire x1="1.27" y1="5.08" x2="2.54" y2="5.08" width="0.6096" layer="94"/>
<wire x1="1.27" y1="2.54" x2="2.54" y2="2.54" width="0.6096" layer="94"/>
<text x="-2.54" y="-10.16" size="1.778" layer="96">&gt;VALUE</text>
<text x="-2.54" y="8.382" size="1.778" layer="95">&gt;NAME</text>
<pin name="1" x="7.62" y="-5.08" visible="pad" length="middle" direction="pas" swaplevel="1" rot="R180"/>
<pin name="2" x="7.62" y="-2.54" visible="pad" length="middle" direction="pas" swaplevel="1" rot="R180"/>
<pin name="3" x="7.62" y="0" visible="pad" length="middle" direction="pas" swaplevel="1" rot="R180"/>
<pin name="4" x="7.62" y="2.54" visible="pad" length="middle" direction="pas" swaplevel="1" rot="R180"/>
<pin name="5" x="7.62" y="5.08" visible="pad" length="middle" direction="pas" swaplevel="1" rot="R180"/>
</symbol>
</symbols>
<devicesets>
<deviceset name="M02" prefix="SL" uservalue="yes">
<description>&lt;b&gt;AMP QUICK CONNECTOR&lt;/b&gt;</description>
<gates>
<gate name="G$1" symbol="M02" x="-2.54" y="0"/>
</gates>
<devices>
<device name="" package="02P">
<connects>
<connect gate="G$1" pin="1" pad="1"/>
<connect gate="G$1" pin="2" pad="2"/>
</connects>
<technologies>
<technology name="">
<attribute name="MF" value="" constant="no"/>
<attribute name="MPN" value="" constant="no"/>
<attribute name="OC_FARNELL" value="unknown" constant="no"/>
<attribute name="OC_NEWARK" value="unknown" constant="no"/>
</technology>
</technologies>
</device>
</devices>
</deviceset>
<deviceset name="M05" prefix="SL" uservalue="yes">
<description>&lt;b&gt;AMP QUICK CONNECTOR&lt;/b&gt;</description>
<gates>
<gate name="G$1" symbol="M05" x="-2.54" y="0"/>
</gates>
<devices>
<device name="" package="05P">
<connects>
<connect gate="G$1" pin="1" pad="1"/>
<connect gate="G$1" pin="2" pad="2"/>
<connect gate="G$1" pin="3" pad="3"/>
<connect gate="G$1" pin="4" pad="4"/>
<connect gate="G$1" pin="5" pad="5"/>
</connects>
<technologies>
<technology name="">
<attribute name="MF" value="" constant="no"/>
<attribute name="MPN" value="" constant="no"/>
<attribute name="OC_FARNELL" value="unknown" constant="no"/>
<attribute name="OC_NEWARK" value="unknown" constant="no"/>
</technology>
</technologies>
</device>
</devices>
</deviceset>
</devicesets>
</library>
</libraries>
<attributes>
</attributes>
<variantdefs>
</variantdefs>
<classes>
<class number="0" name="default" width="0" drill="0">
</class>
</classes>
<parts>
<part name="001" library="fab" deviceset="ATTINY45" device="SI"/>
<part name="R1" library="fab" deviceset="RES-US" device="1206FAB" value="10K"/>
<part name="P+2" library="supply1" deviceset="VCC" device=""/>
<part name="GND4" library="supply1" deviceset="GND" device=""/>
<part name="P+6" library="supply1" deviceset="VCC" device="" value="5V"/>
<part name="P+7" library="supply1" deviceset="VCC" device="" value="5V"/>
<part name="GND7" library="supply1" deviceset="GND" device=""/>
<part name="R2" library="fablab" deviceset="RES-US" device="1206FAB" value="499"/>
<part name="GND8" library="supply1" deviceset="GND" device=""/>
<part name="LED" library="fablab" deviceset="LED" device="FAB1206" value="YELLOW"/>
<part name="C3" library="01_SparkFun" deviceset="CAP" device="1206" value="100nF"/>
<part name="C1" library="01_SparkFun" deviceset="CAP" device="1206" value="1uF"/>
<part name="C2" library="01_SparkFun" deviceset="CAP" device="1206" value="10uF"/>
<part name="POWER_1" library="con-amp-quick" deviceset="M02" device=""/>
<part name="POWER_2" library="con-amp-quick" deviceset="M02" device=""/>
<part name="GND1" library="supply1" deviceset="GND" device=""/>
<part name="GND2" library="supply1" deviceset="GND" device=""/>
<part name="P+1" library="supply1" deviceset="VCC" device="" value="5V"/>
<part name="P+3" library="supply1" deviceset="VCC" device="" value="5V"/>
<part name="M05" library="con-amp-quick" deviceset="M05" device=""/>
<part name="RST" library="01_SparkFun" deviceset="M01" device="PTH_LONGPAD" value="M01"/>
</parts>
<sheets>
<sheet>
<plain>
</plain>
<instances>
<instance part="001" gate="G$1" x="7.62" y="0"/>
<instance part="R1" gate="G$1" x="-60.96" y="12.7" rot="R180"/>
<instance part="P+2" gate="VCC" x="71.12" y="12.7" rot="R270"/>
<instance part="GND4" gate="1" x="-73.66" y="-10.16" rot="R270"/>
<instance part="P+6" gate="VCC" x="-73.66" y="12.7" rot="R90"/>
<instance part="P+7" gate="VCC" x="-5.08" y="30.48" rot="R270"/>
<instance part="GND7" gate="1" x="-43.18" y="30.48" rot="R270"/>
<instance part="R2" gate="G$1" x="25.4" y="20.32" rot="R180"/>
<instance part="GND8" gate="1" x="2.54" y="20.32" rot="R270"/>
<instance part="LED" gate="G$1" x="10.16" y="20.32" rot="R270"/>
<instance part="C3" gate="G$1" x="-25.4" y="30.48" rot="R270"/>
<instance part="C1" gate="G$1" x="-25.4" y="20.32" rot="R270"/>
<instance part="C2" gate="G$1" x="-25.4" y="40.64" rot="R270"/>
<instance part="POWER_1" gate="G$1" x="-15.24" y="-17.78" rot="R180"/>
<instance part="POWER_2" gate="G$1" x="-15.24" y="-33.02" rot="R180"/>
<instance part="GND1" gate="1" x="-35.56" y="-15.24" rot="R270"/>
<instance part="GND2" gate="1" x="-35.56" y="-30.48" rot="R270"/>
<instance part="P+1" gate="VCC" x="-35.56" y="-22.86" rot="R90"/>
<instance part="P+3" gate="VCC" x="-35.56" y="-38.1" rot="R90"/>
<instance part="M05" gate="G$1" x="27.94" y="-22.86" rot="R180"/>
<instance part="RST" gate="G$1" x="-71.12" y="30.48"/>
</instances>
<busses>
</busses>
<nets>
<net name="VCC" class="0">
<segment>
<pinref part="P+7" gate="VCC" pin="VCC"/>
<wire x1="-7.62" y1="30.48" x2="-12.7" y2="30.48" width="0.1524" layer="91"/>
<pinref part="C3" gate="G$1" pin="1"/>
<pinref part="C1" gate="G$1" pin="1"/>
<wire x1="-12.7" y1="30.48" x2="-20.32" y2="30.48" width="0.1524" layer="91"/>
<wire x1="-20.32" y1="20.32" x2="-12.7" y2="20.32" width="0.1524" layer="91"/>
<wire x1="-12.7" y1="20.32" x2="-12.7" y2="30.48" width="0.1524" layer="91"/>
<junction x="-12.7" y="30.48"/>
<pinref part="C2" gate="G$1" pin="1"/>
<wire x1="-20.32" y1="40.64" x2="-12.7" y2="40.64" width="0.1524" layer="91"/>
<wire x1="-12.7" y1="40.64" x2="-12.7" y2="30.48" width="0.1524" layer="91"/>
</segment>
<segment>
<pinref part="P+6" gate="VCC" pin="VCC"/>
<pinref part="R1" gate="G$1" pin="2"/>
<wire x1="-71.12" y1="12.7" x2="-66.04" y2="12.7" width="0.1524" layer="91"/>
</segment>
<segment>
<pinref part="001" gate="G$1" pin="VCC"/>
<wire x1="43.18" y1="5.08" x2="48.26" y2="5.08" width="0.1524" layer="91"/>
<wire x1="48.26" y1="5.08" x2="48.26" y2="12.7" width="0.1524" layer="91"/>
<pinref part="P+2" gate="VCC" pin="VCC"/>
<wire x1="48.26" y1="12.7" x2="68.58" y2="12.7" width="0.1524" layer="91"/>
</segment>
<segment>
<pinref part="POWER_1" gate="G$1" pin="2"/>
<wire x1="-22.86" y1="-20.32" x2="-27.94" y2="-20.32" width="0.1524" layer="91"/>
<wire x1="-27.94" y1="-20.32" x2="-27.94" y2="-22.86" width="0.1524" layer="91"/>
<pinref part="P+1" gate="VCC" pin="VCC"/>
<wire x1="-27.94" y1="-22.86" x2="-33.02" y2="-22.86" width="0.1524" layer="91"/>
</segment>
<segment>
<pinref part="POWER_2" gate="G$1" pin="2"/>
<wire x1="-22.86" y1="-35.56" x2="-27.94" y2="-35.56" width="0.1524" layer="91"/>
<wire x1="-27.94" y1="-35.56" x2="-27.94" y2="-38.1" width="0.1524" layer="91"/>
<pinref part="P+3" gate="VCC" pin="VCC"/>
<wire x1="-27.94" y1="-38.1" x2="-33.02" y2="-38.1" width="0.1524" layer="91"/>
</segment>
</net>
<net name="GND" class="0">
<segment>
<wire x1="-27.94" y1="30.48" x2="-35.56" y2="30.48" width="0.1524" layer="91"/>
<pinref part="GND7" gate="1" pin="GND"/>
<pinref part="C3" gate="G$1" pin="2"/>
<pinref part="C2" gate="G$1" pin="2"/>
<wire x1="-35.56" y1="30.48" x2="-40.64" y2="30.48" width="0.1524" layer="91"/>
<wire x1="-27.94" y1="40.64" x2="-35.56" y2="40.64" width="0.1524" layer="91"/>
<wire x1="-35.56" y1="40.64" x2="-35.56" y2="30.48" width="0.1524" layer="91"/>
<junction x="-35.56" y="30.48"/>
<pinref part="C1" gate="G$1" pin="2"/>
<wire x1="-27.94" y1="20.32" x2="-35.56" y2="20.32" width="0.1524" layer="91"/>
<wire x1="-35.56" y1="20.32" x2="-35.56" y2="30.48" width="0.1524" layer="91"/>
</segment>
<segment>
<wire x1="7.62" y1="20.32" x2="5.08" y2="20.32" width="0.1524" layer="91"/>
<pinref part="GND8" gate="1" pin="GND"/>
<pinref part="LED" gate="G$1" pin="C"/>
</segment>
<segment>
<pinref part="001" gate="G$1" pin="GND"/>
<wire x1="-45.72" y1="-2.54" x2="-50.8" y2="-2.54" width="0.1524" layer="91"/>
<wire x1="-50.8" y1="-2.54" x2="-50.8" y2="-10.16" width="0.1524" layer="91"/>
<wire x1="-50.8" y1="-10.16" x2="-71.12" y2="-10.16" width="0.1524" layer="91"/>
<pinref part="GND4" gate="1" pin="GND"/>
</segment>
<segment>
<pinref part="POWER_1" gate="G$1" pin="1"/>
<wire x1="-22.86" y1="-17.78" x2="-27.94" y2="-17.78" width="0.1524" layer="91"/>
<wire x1="-27.94" y1="-17.78" x2="-27.94" y2="-15.24" width="0.1524" layer="91"/>
<pinref part="GND1" gate="1" pin="GND"/>
<wire x1="-27.94" y1="-15.24" x2="-33.02" y2="-15.24" width="0.1524" layer="91"/>
</segment>
<segment>
<pinref part="POWER_2" gate="G$1" pin="1"/>
<wire x1="-22.86" y1="-33.02" x2="-27.94" y2="-33.02" width="0.1524" layer="91"/>
<wire x1="-27.94" y1="-33.02" x2="-27.94" y2="-30.48" width="0.1524" layer="91"/>
<pinref part="GND2" gate="1" pin="GND"/>
<wire x1="-27.94" y1="-30.48" x2="-33.02" y2="-30.48" width="0.1524" layer="91"/>
</segment>
</net>
<net name="N$8" class="0">
<segment>
<wire x1="15.24" y1="20.32" x2="20.32" y2="20.32" width="0.1524" layer="91"/>
<pinref part="R2" gate="G$1" pin="2"/>
<pinref part="LED" gate="G$1" pin="A"/>
</segment>
</net>
<net name="MISO" class="0">
<segment>
<pinref part="001" gate="G$1" pin="MISO/DO/AIN1/OC0B/OC1A/PCINT1/PB1"/>
<wire x1="43.18" y1="0" x2="53.34" y2="0" width="0.1524" layer="91"/>
<wire x1="53.34" y1="0" x2="53.34" y2="-2.54" width="0.1524" layer="91"/>
<wire x1="53.34" y1="-2.54" x2="68.58" y2="-2.54" width="0.1524" layer="91"/>
<label x="68.58" y="-2.54" size="1.778" layer="95" xref="yes"/>
</segment>
<segment>
<pinref part="M05" gate="G$1" pin="4"/>
<wire x1="20.32" y1="-25.4" x2="12.7" y2="-25.4" width="0.1524" layer="91"/>
<label x="12.7" y="-25.4" size="1.778" layer="95" rot="R180" xref="yes"/>
</segment>
</net>
<net name="RST" class="0">
<segment>
<pinref part="001" gate="G$1" pin="PB5/PCINT5/-RESET/ADC0/DW"/>
<wire x1="-45.72" y1="5.08" x2="-50.8" y2="5.08" width="0.1524" layer="91"/>
<wire x1="-50.8" y1="5.08" x2="-50.8" y2="12.7" width="0.1524" layer="91"/>
<pinref part="R1" gate="G$1" pin="1"/>
<wire x1="-50.8" y1="12.7" x2="-55.88" y2="12.7" width="0.1524" layer="91"/>
<wire x1="-50.8" y1="12.7" x2="-50.8" y2="17.78" width="0.1524" layer="91"/>
<junction x="-50.8" y="12.7"/>
<label x="-50.8" y="17.78" size="1.778" layer="95" rot="R90" xref="yes"/>
</segment>
<segment>
<pinref part="RST" gate="G$1" pin="1"/>
<wire x1="-63.5" y1="30.48" x2="-60.96" y2="30.48" width="0.1524" layer="91"/>
<label x="-60.96" y="30.48" size="1.778" layer="95" xref="yes"/>
</segment>
</net>
<net name="ADC3" class="0">
<segment>
<pinref part="001" gate="G$1" pin="PB3/PCINT3/XTAL1/CLKI/-OC1B/ADC3"/>
<wire x1="-45.72" y1="2.54" x2="-55.88" y2="2.54" width="0.1524" layer="91"/>
<wire x1="-55.88" y1="2.54" x2="-55.88" y2="5.08" width="0.1524" layer="91"/>
<wire x1="-55.88" y1="5.08" x2="-71.12" y2="5.08" width="0.1524" layer="91"/>
<label x="-71.12" y="5.08" size="1.778" layer="95" rot="R180" xref="yes"/>
</segment>
<segment>
<pinref part="M05" gate="G$1" pin="1"/>
<wire x1="20.32" y1="-17.78" x2="12.7" y2="-17.78" width="0.1524" layer="91"/>
<label x="12.7" y="-17.78" size="1.778" layer="95" rot="R180" xref="yes"/>
</segment>
</net>
<net name="ADC2" class="0">
<segment>
<pinref part="001" gate="G$1" pin="PB4/PCINT4/XTAL2/CLKO/OC1B/ADC2"/>
<wire x1="-45.72" y1="0" x2="-55.88" y2="0" width="0.1524" layer="91"/>
<wire x1="-55.88" y1="0" x2="-55.88" y2="-2.54" width="0.1524" layer="91"/>
<wire x1="-55.88" y1="-2.54" x2="-71.12" y2="-2.54" width="0.1524" layer="91"/>
<label x="-71.12" y="-2.54" size="1.778" layer="95" rot="R180" xref="yes"/>
</segment>
<segment>
<pinref part="M05" gate="G$1" pin="2"/>
<wire x1="20.32" y1="-20.32" x2="12.7" y2="-20.32" width="0.1524" layer="91"/>
<label x="12.7" y="-20.32" size="1.778" layer="95" rot="R180" xref="yes"/>
</segment>
</net>
<net name="MOSI" class="0">
<segment>
<pinref part="001" gate="G$1" pin="MOSI/DI/SDA/AIN0/OC0A/-OC1A/AREF/PCINT0/PB0"/>
<wire x1="43.18" y1="-2.54" x2="48.26" y2="-2.54" width="0.1524" layer="91"/>
<wire x1="48.26" y1="-2.54" x2="48.26" y2="-10.16" width="0.1524" layer="91"/>
<wire x1="48.26" y1="-10.16" x2="68.58" y2="-10.16" width="0.1524" layer="91"/>
<label x="68.58" y="-10.16" size="1.778" layer="95" xref="yes"/>
<wire x1="48.26" y1="-10.16" x2="68.58" y2="-10.16" width="0.1524" layer="91"/>
</segment>
<segment>
<pinref part="M05" gate="G$1" pin="5"/>
<wire x1="20.32" y1="-27.94" x2="12.7" y2="-27.94" width="0.1524" layer="91"/>
<label x="12.7" y="-27.94" size="1.778" layer="95" rot="R180" xref="yes"/>
</segment>
</net>
<net name="SCK" class="0">
<segment>
<pinref part="001" gate="G$1" pin="SCK/USCK/SCL/ADC1/T0/INT0/PCINT2/PB2"/>
<wire x1="43.18" y1="2.54" x2="53.34" y2="2.54" width="0.1524" layer="91"/>
<wire x1="53.34" y1="2.54" x2="53.34" y2="5.08" width="0.1524" layer="91"/>
<wire x1="53.34" y1="5.08" x2="68.58" y2="5.08" width="0.1524" layer="91"/>
<label x="68.58" y="5.08" size="1.778" layer="95" xref="yes"/>
</segment>
<segment>
<pinref part="R2" gate="G$1" pin="1"/>
<wire x1="30.48" y1="20.32" x2="35.56" y2="20.32" width="0.1524" layer="91"/>
<label x="35.56" y="20.32" size="1.778" layer="95" xref="yes"/>
</segment>
<segment>
<pinref part="M05" gate="G$1" pin="3"/>
<wire x1="20.32" y1="-22.86" x2="12.7" y2="-22.86" width="0.1524" layer="91"/>
<label x="12.7" y="-22.86" size="1.778" layer="95" rot="R180" xref="yes"/>
</segment>
</net>
</nets>
</sheet>
</sheets>
</schematic>
</drawing>
</eagle>
