<?xml version="1.0" encoding="utf-8"?>
<!-- Generator: Adobe Illustrator 22.0.0, SVG Export Plug-In . SVG Version: 6.00 Build 0)  -->
<svg version="1.1" id="Layer_1" xmlns="http://www.w3.org/2000/svg" xmlns:xlink="http://www.w3.org/1999/xlink" x="0px" y="0px"
	 viewBox="0 0 1133.9 283.5" style="enable-background:new 0 0 1133.9 283.5;" xml:space="preserve">
<style type="text/css">
	.st0{fill:none;stroke:#000000;stroke-width:1.5024;stroke-linecap:round;stroke-linejoin:round;stroke-miterlimit:10;}
	.st1{font-family:'MyriadPro-Regular';}
	.st2{font-size:24px;}
	.st3{letter-spacing:3;}
</style>
<g id="Right_Side">
	<path class="st0" d="M1063.7,229l-507.4-97l-2.9-0.5l-8.3-1.6l-2.5-0.5L59.8,37L39.3,83.7c0,0-31.7-39.1-23.1-75.7h526.4v63.5h13.8
		V8H1088C816.5,130.9,1114.3,121.9,1063.7,229z"/>
</g>
<g id="Left_Side">
	<path class="st0" d="M70.7,55.1l507.6,97.1v63.1h13.6v-60.5l482.7,92.3l20.5-46.7c0,0,31.7,39.1,23.1,75.7H591.8H578H46.4
		C317.9,153.2,20.1,162.3,70.7,55.1z"/>
</g>
<text transform="matrix(1 0 0 1 187.7146 262.8602)" class="st1 st2 st3">FabLab </text>
<text transform="matrix(-1 0 0 -1 947.8691 21.9102)" class="st1 st2 st3">Majestiqx</text>
<image style="overflow:visible;enable-background:new    ;" width="750" height="579" xlink:href="elephant.png"  transform="matrix(0.2125 2.515130e-02 -2.756587e-02 0.2329 291.7098 118.4975)">
</image>
<image style="overflow:visible;enable-background:new    ;" width="750" height="579" xlink:href="elephant.png"  transform="matrix(-0.2125 -2.515130e-02 2.756587e-02 -0.2329 826.7324 161.7128)">
</image>
</svg>
