  0
SECTION
  2
HEADER
  9
$ACADVER
  1
AC1009
  9
$DWGCODEPAGE
  3
ansi_1252
  9
$INSBASE
 10
0.0
 20
0.0
 30
0.0
  9
$EXTMIN
 10
-279.9999999999999
 20
-29.99999999999999
 30
0.0
  9
$EXTMAX
 10
100.0
 20
100.0
 30
0.0
  9
$LIMMIN
 10
0.0
 20
0.0
  9
$LIMMAX
 10
420.0
 20
297.0
  9
$ORTHOMODE
 70
     0
  9
$REGENMODE
 70
     1
  9
$FILLMODE
 70
     1
  9
$QTEXTMODE
 70
     0
  9
$MIRRTEXT
 70
     0
  9
$DRAGMODE
 70
     2
  9
$LTSCALE
 40
1.0
  9
$OSMODE
 70
     0
  9
$ATTMODE
 70
     1
  9
$TEXTSIZE
 40
2.5
  9
$TRACEWID
 40
1.0
  9
$TEXTSTYLE
  7
STANDARD
  9
$CLAYER
  8
0
  9
$CELTYPE
  6
BYLAYER
  9
$CECOLOR
 62
   256
  9
$DIMSCALE
 40
1.0
  9
$DIMASZ
 40
2.5
  9
$DIMEXO
 40
0.625
  9
$DIMDLI
 40
3.75
  9
$DIMRND
 40
0.0
  9
$DIMDLE
 40
0.0
  9
$DIMEXE
 40
1.25
  9
$DIMTP
 40
0.0
  9
$DIMTM
 40
0.0
  9
$DIMTXT
 40
2.5
  9
$DIMCEN
 40
2.5
  9
$DIMTSZ
 40
0.0
  9
$DIMTOL
 70
     0
  9
$DIMLIM
 70
     0
  9
$DIMTIH
 70
     0
  9
$DIMTOH
 70
     0
  9
$DIMSE1
 70
     0
  9
$DIMSE2
 70
     0
  9
$DIMTAD
 70
     1
  9
$DIMZIN
 70
     8
  9
$DIMBLK
  1

  9
$DIMASO
 70
     1
  9
$DIMSHO
 70
     1
  9
$DIMPOST
  1

  9
$DIMAPOST
  1

  9
$DIMALT
 70
     0
  9
$DIMALTD
 70
     3
  9
$DIMALTF
 40
0.03937007874016
  9
$DIMLFAC
 40
1.0
  9
$DIMTOFL
 70
     1
  9
$DIMTVP
 40
0.0
  9
$DIMTIX
 70
     0
  9
$DIMSOXD
 70
     0
  9
$DIMSAH
 70
     0
  9
$DIMBLK1
  1

  9
$DIMBLK2
  1

  9
$DIMSTYLE
  2
ISO-25
  9
$DIMCLRD
 70
     0
  9
$DIMCLRE
 70
     0
  9
$DIMCLRT
 70
     0
  9
$DIMTFAC
 40
1.0
  9
$DIMGAP
 40
0.625
  9
$LUNITS
 70
     2
  9
$LUPREC
 70
     3
  9
$SKETCHINC
 40
1.0
  9
$FILLETRAD
 40
10.0
  9
$AUNITS
 70
     0
  9
$AUPREC
 70
     0
  9
$MENU
  1
.
  9
$ELEVATION
 40
0.0
  9
$PELEVATION
 40
0.0
  9
$THICKNESS
 40
0.0
  9
$LIMCHECK
 70
     0
  9
$CHAMFERA
 40
10.0
  9
$CHAMFERB
 40
10.0
  9
$SKPOLY
 70
     0
  9
$TDCREATE
 40
2455022.720692836
  9
$TDUPDATE
 40
2458052.469276979
  9
$TDINDWG
 40
0.0065394792
  9
$TDUSRTIMER
 40
0.0440567014
  9
$USRTIMER
 70
     1
  9
$ANGBASE
 50
0.0
  9
$ANGDIR
 70
     0
  9
$PDMODE
 70
     0
  9
$PDSIZE
 40
0.0
  9
$PLINEWID
 40
0.0
  9
$COORDS
 70
     1
  9
$SPLFRAME
 70
     0
  9
$SPLINETYPE
 70
     6
  9
$SPLINESEGS
 70
     8
  9
$ATTDIA
 70
     0
  9
$ATTREQ
 70
     1
  9
$HANDLING
 70
     1
  9
$HANDSEED
  5
30B
  9
$SURFTAB1
 70
     6
  9
$SURFTAB2
 70
     6
  9
$SURFTYPE
 70
     6
  9
$SURFU
 70
     6
  9
$SURFV
 70
     6
  9
$UCSNAME
  2

  9
$UCSORG
 10
0.0
 20
0.0
 30
0.0
  9
$UCSXDIR
 10
1.0
 20
0.0
 30
0.0
  9
$UCSYDIR
 10
0.0
 20
1.0
 30
0.0
  9
$PUCSNAME
  2

  9
$PUCSORG
 10
0.0
 20
0.0
 30
0.0
  9
$PUCSXDIR
 10
1.0
 20
0.0
 30
0.0
  9
$PUCSYDIR
 10
0.0
 20
1.0
 30
0.0
  9
$USERI1
 70
     0
  9
$USERI2
 70
     0
  9
$USERI3
 70
     0
  9
$USERI4
 70
     0
  9
$USERI5
 70
     0
  9
$USERR1
 40
0.0
  9
$USERR2
 40
0.0
  9
$USERR3
 40
0.0
  9
$USERR4
 40
0.0
  9
$USERR5
 40
0.0
  9
$WORLDVIEW
 70
     1
  9
$SHADEDGE
 70
     3
  9
$SHADEDIF
 70
    70
  9
$TILEMODE
 70
     1
  9
$MAXACTVP
 70
    64
  9
$PLIMCHECK
 70
     0
  9
$PEXTMIN
 10
1.000000000000000E+20
 20
1.000000000000000E+20
 30
1.000000000000000E+20
  9
$PEXTMAX
 10
-1.000000000000000E+20
 20
-1.000000000000000E+20
 30
-1.000000000000000E+20
  9
$PLIMMIN
 10
0.0
 20
0.0
  9
$PLIMMAX
 10
0.0
 20
0.0
  9
$UNITMODE
 70
     0
  9
$VISRETAIN
 70
     1
  9
$PLINEGEN
 70
     0
  9
$PSLTSCALE
 70
     1
  0
ENDSEC
  0
SECTION
  2
TABLES
  0
TABLE
  2
VPORT
 70
     1
  0
VPORT
  2
*ACTIVE
 70
     0
 10
0.0
 20
0.0
 11
1.0
 21
1.0
 12
-77.29382097730712
 22
26.7350779281994
 13
0.0
 23
0.0
 14
10.0
 24
10.0
 15
10.0
 25
10.0
 16
0.0
 26
0.0
 36
1.0
 17
-134.1869158878504
 27
0.0
 37
0.0
 40
177.1470764194372
 41
2.175398633257403
 42
50.0
 43
0.0
 44
0.0
 50
0.0
 51
0.0
 71
    16
 72
  1000
 73
     1
 74
     3
 75
     1
 76
     1
 77
     0
 78
     0
  0
ENDTAB
  0
TABLE
  2
LTYPE
 70
     1
  0
LTYPE
  2
CONTINUOUS
 70
     0
  3
Solid line
 72
    65
 73
     0
 40
0.0
  0
ENDTAB
  0
TABLE
  2
LAYER
 70
     1
  0
LAYER
  2
0
 70
     0
 62
     7
  6
CONTINUOUS
  0
ENDTAB
  0
TABLE
  2
STYLE
 70
     2
  0
STYLE
  2
STANDARD
 70
     0
 40
0.0
 41
1.0
 50
0.0
 71
     0
 42
2.5
  3
arial.ttf
  4

  0
STYLE
  2
ANNOTATIVE
 70
     0
 40
0.0
 41
1.0
 50
0.0
 71
     0
 42
2.5
  3
arial.ttf
  4

  0
ENDTAB
  0
TABLE
  2
VIEW
 70
     0
  0
ENDTAB
  0
TABLE
  2
UCS
 70
     0
  0
ENDTAB
  0
TABLE
  2
APPID
 70
     2
  0
APPID
  2
ACAD
 70
     0
  0
APPID
  2
ACADANNOTATIVE
 70
     0
  0
ENDTAB
  0
TABLE
  2
DIMSTYLE
 70
     2
  0
DIMSTYLE
  2
ISO-25
 70
     0
  3

  4

  5

  6

  7

 40
1.0
 41
2.5
 42
0.625
 43
3.75
 44
1.25
 45
0.0
 46
0.0
 47
0.0
 48
0.0
140
2.5
141
2.5
142
0.0
143
0.03937007874016
144
1.0
145
0.0
146
1.0
147
0.625
 71
     0
 72
     0
 73
     0
 74
     0
 75
     0
 76
     0
 77
     1
 78
     8
170
     0
171
     3
172
     1
173
     0
174
     0
175
     0
176
     0
177
     0
178
     0
  0
DIMSTYLE
  2
ANNOTATIVE
 70
     0
  3

  4

  5

  6

  7

 40
0.0
 41
2.5
 42
0.625
 43
3.75
 44
1.25
 45
0.0
 46
0.0
 47
0.0
 48
0.0
140
2.5
141
2.5
142
0.0
143
0.03937007874016
144
1.0
145
0.0
146
1.0
147
0.625
 71
     0
 72
     0
 73
     0
 74
     0
 75
     0
 76
     0
 77
     1
 78
     8
170
     0
171
     3
172
     1
173
     0
174
     0
175
     0
176
     0
177
     0
178
     0
  0
ENDTAB
  0
ENDSEC
  0
SECTION
  2
BLOCKS
  0
BLOCK
  8
0
  2
$MODEL_SPACE
 70
     0
 10
0.0
 20
0.0
 30
0.0
  3
$MODEL_SPACE
  1

  0
ENDBLK
  5
21
  8
0
  0
BLOCK
 67
     1
  8
0
  2
$PAPER_SPACE
 70
     0
 10
0.0
 20
0.0
 30
0.0
  3
$PAPER_SPACE
  1

  0
ENDBLK
  5
1D
 67
     1
  8
0
  0
ENDSEC
  0
SECTION
  2
ENTITIES
  0
LINE
  5
C0
  8
0
 10
0.0
 20
10.0
 30
0.0
 11
0.0
 21
90.0
 31
0.0
  0
LINE
  5
C1
  8
0
 10
10.0
 20
100.0
 30
0.0
 11
90.0
 21
100.0
 31
0.0
  0
LINE
  5
C3
  8
0
 10
100.0
 20
90.0
 30
0.0
 11
100.0
 21
10.0
 31
0.0
  0
LINE
  5
C4
  8
0
 10
90.0
 20
0.0
 30
0.0
 11
10.0
 21
0.0
 31
0.0
  0
LINE
  5
C5
  8
0
 10
0.0
 20
0.0
 30
0.0
 11
0.0
 21
0.0
 31
0.0
  0
LINE
  5
CC
  8
0
 10
50.0
 20
20.0
 30
0.0
 11
20.0
 21
50.0
 31
0.0
  0
ARC
  5
CE
  8
0
 10
32.52090473588737
 20
66.25484267894421
 30
0.0
 40
20.25618274406193
 50
30.71081077716642
 51
223.2285420425083
  0
ARC
  5
CF
  8
0
 10
67.35165100764296
 20
66.25484267894421
 30
0.0
 40
20.25618274406193
 50
316.7714579574918
 51
149.2891892228336
  0
LINE
  5
D0
  8
0
 10
49.87255574353033
 20
20.0
 30
0.0
 11
79.87255574353033
 21
50.0
 31
0.0
  0
LINE
  5
13F
  8
0
 10
79.87255574353033
 20
50.0
 30
0.0
 11
82.11086336826395
 21
52.38117734295875
 31
0.0
  0
LINE
  5
140
  8
0
 10
20.0
 20
50.0
 30
0.0
 11
17.76169237526637
 21
52.38117734295875
 31
0.0
  0
ARC
  5
14C
  8
0
 10
9.999999999999996
 20
90.0
 30
0.0
 40
9.999999999999996
 50
89.99999999999996
 51
180.0
  0
ARC
  5
14D
  8
0
 10
90.0
 20
90.0
 30
0.0
 40
9.999999999999996
 50
0.0
 51
90.00000000000006
  0
ARC
  5
14E
  8
0
 10
90.0
 20
9.999999999999996
 30
0.0
 40
9.999999999999996
 50
269.9999999999999
 51
0.0
  0
ARC
  5
14F
  8
0
 10
9.999999999999996
 20
9.999999999999996
 30
0.0
 40
9.999999999999996
 50
180.0
 51
270.0000000000001
  0
TEXT
  5
154
  8
0
  6
CONTINUOUS
 10
42.46775
 20
44.467
 30
0.0
 40
5.5
  1
L + P
  0
TEXT
  5
155
  8
0
  6
CONTINUOUS
 10
18.84455726342712
 20
63.5
 30
0.0
 40
6.5
  1
09. August 2015
  0
LINE
  5
1C6
  8
0
 10
-29.99999999999999
 20
100.0
 30
0.0
 11
-29.99999999999999
 21
100.0
 31
0.0
  0
LINE
  5
1DC
  8
0
 10
-79.99999999999999
 20
9.999999999999998
 30
0.0
 11
-89.99999999999999
 21
9.999999999999998
 31
0.0
  0
LINE
  5
1E0
  8
0
 10
-89.99999999999999
 20
9.999999999999998
 30
0.0
 11
-89.99999999999999
 21
20.0
 31
0.0
  0
LINE
  5
1E1
  8
0
 10
-89.99999999999999
 20
20.0
 30
0.0
 11
-100.0
 21
20.0
 31
0.0
  0
LINE
  5
1E2
  8
0
 10
-100.0
 20
20.0
 30
0.0
 11
-100.0
 21
9.999999999999998
 31
0.0
  0
LINE
  5
1E3
  8
0
 10
-100.0
 20
9.999999999999998
 30
0.0
 11
-110.0
 21
9.999999999999998
 31
0.0
  0
LINE
  5
1E4
  8
0
 10
-110.0
 20
9.999999999999998
 30
0.0
 11
-110.0
 21
20.0
 31
0.0
  0
LINE
  5
1E5
  8
0
 10
-110.0
 20
20.0
 30
0.0
 11
-89.99999999999999
 21
89.99999999999999
 31
0.0
  0
LINE
  5
1E9
  8
0
 10
-79.99999999999999
 20
20.0
 30
0.0
 11
-79.99999999999999
 21
10.08313351258369
 31
0.0
  0
LINE
  5
1EA
  8
0
 10
-59.99999999999999
 20
89.99999999999999
 30
0.0
 11
-79.99999999999999
 21
20.0
 31
0.0
  0
LINE
  5
22E
  8
0
 10
-169.9999999999999
 20
100.0
 30
0.0
 11
-169.9999999999999
 21
100.0
 31
0.0
  0
LINE
  5
23A
  8
0
 10
-229.9999999999999
 20
9.999999999999996
 30
0.0
 11
-229.9999999999999
 21
19.99999999999999
 31
0.0
  0
LINE
  5
23C
  8
0
 10
-239.9999999999999
 20
19.99999999999999
 30
0.0
 11
-239.9999999999999
 21
9.999999999999996
 31
0.0
  0
LINE
  5
23E
  8
0
 10
-249.9999999999999
 20
9.999999999999996
 30
0.0
 11
-249.9999999999999
 21
19.99999999999999
 31
0.0
  0
LINE
  5
243
  8
0
 10
-219.9999999999999
 20
19.99999999999999
 30
0.0
 11
-219.9999999999999
 21
10.08313351258369
 31
0.0
  0
LINE
  5
245
  8
0
 10
-239.9999999999999
 20
9.999999999999998
 30
0.0
 11
-229.6222551690624
 21
9.999999999999998
 31
0.0
  0
LINE
  5
246
  8
0
 10
-230.0
 20
20.0
 30
0.0
 11
-220.0
 21
20.0
 31
0.0
  0
LINE
  5
248
  8
0
 10
-239.9999999999999
 20
20.0
 30
0.0
 11
-249.9999999999999
 21
20.0
 31
0.0
  0
LINE
  5
249
  8
0
 10
-200.0
 20
89.99999999999999
 30
0.0
 11
-220.0
 21
9.999999999999998
 31
0.0
  0
LINE
  5
24A
  8
0
 10
-259.9999999999999
 20
9.999999999999998
 30
0.0
 11
-239.9999999999999
 21
89.99999999999999
 31
0.0
  0
LINE
  5
24B
  8
0
 10
-249.9999999999999
 20
9.999999999999998
 30
0.0
 11
-259.9999999999999
 21
9.999999999999998
 31
0.0
  0
LINE
  5
264
  8
0
 10
-220.0
 20
-9.999999999999998
 30
0.0
 11
-220.0
 21
-20.0
 31
0.0
  0
LINE
  5
265
  8
0
 10
-220.0
 20
-20.0
 30
0.0
 11
-210.0
 21
-20.0
 31
0.0
  0
LINE
  5
266
  8
0
 10
-210.0
 20
-20.0
 30
0.0
 11
-210.0
 21
-29.99999999999999
 31
0.0
  0
LINE
  5
267
  8
0
 10
-210.0
 20
-29.99999999999999
 30
0.0
 11
-190.0
 21
-29.99999999999999
 31
0.0
  0
LINE
  5
268
  8
0
 10
-220.0
 20
-9.999999999999998
 30
0.0
 11
-170.0
 21
-9.999999999999998
 31
0.0
  0
LINE
  5
26C
  8
0
 10
-180.0
 20
-29.99999999999999
 30
0.0
 11
-190.0
 21
-29.99999999999999
 31
0.0
  0
LINE
  5
26D
  8
0
 10
-160.0
 20
-9.999999999999998
 30
0.0
 11
-170.0
 21
-9.999999999999998
 31
0.0
  0
LINE
  5
26E
  8
0
 10
-160.0
 20
-9.999999999999998
 30
0.0
 11
-160.0
 21
-20.0
 31
0.0
  0
LINE
  5
26F
  8
0
 10
-160.0
 20
-20.0
 30
0.0
 11
-170.0
 21
-20.0
 31
0.0
  0
LINE
  5
270
  8
0
 10
-170.0
 20
-20.0
 30
0.0
 11
-170.0
 21
-29.99999999999999
 31
0.0
  0
LINE
  5
271
  8
0
 10
-170.0
 20
-29.99999999999999
 30
0.0
 11
-180.0
 21
-29.99999999999999
 31
0.0
  0
POLYLINE
  5
274
  8
0
 66
     1
 10
0.0
 20
0.0
 30
0.0
  0
VERTEX
  5
2F2
  8
0
 10
-199.9999999999999
 20
89.99999999999999
 30
0.0
  0
VERTEX
  5
2F3
  8
0
 10
-189.9999999999999
 20
89.99999999999999
 30
0.0
  0
VERTEX
  5
2F4
  8
0
 10
-179.9999999999999
 20
89.99999999999999
 30
0.0
  0
VERTEX
  5
2F5
  8
0
 10
-179.9999999999999
 20
79.99999999999999
 30
0.0
  0
VERTEX
  5
2F6
  8
0
 10
-169.9999999999999
 20
89.99999999999999
 30
0.0
  0
VERTEX
  5
2F7
  8
0
 10
-169.9999999999999
 20
100.0
 30
0.0
  0
VERTEX
  5
2F8
  8
0
 10
-279.9999999999999
 20
100.0
 30
0.0
  0
VERTEX
  5
2F9
  8
0
 10
-279.9999999999999
 20
89.99999999999999
 30
0.0
  0
VERTEX
  5
2FA
  8
0
 10
-249.9999999999999
 20
89.99999999999999
 30
0.0
  0
VERTEX
  5
2FB
  8
0
 10
-239.9999999999999
 20
89.99999999999999
 30
0.0
  0
SEQEND
  5
309
  8
0
  0
POLYLINE
  5
2A0
  8
0
 66
     1
 10
0.0
 20
0.0
 30
0.0
  0
VERTEX
  5
2FC
  8
0
 10
-59.99999999999999
 20
89.99999999999999
 30
0.0
  0
VERTEX
  5
2FD
  8
0
 10
-49.99999999999999
 20
89.99999999999999
 30
0.0
  0
VERTEX
  5
2FE
  8
0
 10
-39.99999999999999
 20
89.99999999999999
 30
0.0
  0
VERTEX
  5
2FF
  8
0
 10
-39.99999999999999
 20
79.99999999999999
 30
0.0
  0
VERTEX
  5
300
  8
0
 10
-29.99999999999999
 20
89.99999999999999
 30
0.0
  0
VERTEX
  5
301
  8
0
 10
-29.99999999999999
 20
100.0
 30
0.0
  0
VERTEX
  5
302
  8
0
 10
-69.99999999999999
 20
100.0
 30
0.0
  0
VERTEX
  5
303
  8
0
 10
-89.99999999999999
 20
100.0
 30
0.0
  0
VERTEX
  5
304
  8
0
 10
-110.0
 20
100.0
 30
0.0
  0
VERTEX
  5
305
  8
0
 10
-140.0
 20
100.0
 30
0.0
  0
VERTEX
  5
306
  8
0
 10
-140.0
 20
89.99999999999999
 30
0.0
  0
VERTEX
  5
307
  8
0
 10
-110.0
 20
89.99999999999999
 30
0.0
  0
VERTEX
  5
308
  8
0
 10
-89.99999999999999
 20
89.99999999999999
 30
0.0
  0
SEQEND
  5
30A
  8
0
  0
LINE
  5
2DB
  8
0
 10
-90.0
 20
60.0
 30
0.0
 11
-90.0
 21
57.0
 31
0.0
  0
LINE
  5
2E0
  8
0
 10
-90.0
 20
57.0
 30
0.0
 11
-90.0
 21
56.0
 31
0.0
  0
LINE
  5
2E3
  8
0
 10
-230.0
 20
56.0
 30
0.0
 11
-230.0
 21
60.0
 31
0.0
  0
LINE
  5
2E7
  8
0
 10
-90.0
 20
60.0
 30
0.0
 11
-90.0
 21
50.0
 31
0.0
  0
LINE
  5
2E8
  8
0
 10
-90.0
 20
50.0
 30
0.0
 11
-87.0
 21
50.0
 31
0.0
  0
LINE
  5
2EC
  8
0
 10
-90.0
 20
60.0
 30
0.0
 11
-87.0
 21
60.0
 31
0.0
  0
LINE
  5
2ED
  8
0
 10
-87.0
 20
60.0
 30
0.0
 11
-87.0
 21
50.0
 31
0.0
  0
LINE
  5
2EE
  8
0
 10
-227.0
 20
60.0
 30
0.0
 11
-230.0
 21
60.0
 31
0.0
  0
LINE
  5
2EF
  8
0
 10
-230.0
 20
59.99999999999999
 30
0.0
 11
-230.0
 21
49.99999999999999
 31
0.0
  0
LINE
  5
2F0
  8
0
 10
-230.0
 20
50.0
 30
0.0
 11
-227.0
 21
50.0
 31
0.0
  0
LINE
  5
2F1
  8
0
 10
-227.0
 20
60.0
 30
0.0
 11
-227.0
 21
50.0
 31
0.0
  0
ENDSEC
  0
EOF
