<?xml version="1.0" encoding="utf-8"?>
<!DOCTYPE eagle SYSTEM "eagle.dtd">
<eagle version="8.4.1">
<drawing>
<settings>
<setting alwaysvectorfont="no"/>
<setting verticaltext="up"/>
</settings>
<grid distance="0.1" unitdist="inch" unit="inch" style="lines" multiple="1" display="no" altdistance="0.01" altunitdist="inch" altunit="inch"/>
<layers>
<layer number="1" name="Top" color="4" fill="1" visible="no" active="no"/>
<layer number="2" name="Route2" color="1" fill="3" visible="no" active="no"/>
<layer number="3" name="Route3" color="4" fill="3" visible="no" active="no"/>
<layer number="4" name="Route4" color="1" fill="4" visible="no" active="no"/>
<layer number="5" name="Route5" color="4" fill="4" visible="no" active="no"/>
<layer number="6" name="Route6" color="1" fill="8" visible="no" active="no"/>
<layer number="7" name="Route7" color="4" fill="8" visible="no" active="no"/>
<layer number="8" name="Route8" color="1" fill="2" visible="no" active="no"/>
<layer number="9" name="Route9" color="4" fill="2" visible="no" active="no"/>
<layer number="10" name="Route10" color="1" fill="7" visible="no" active="no"/>
<layer number="11" name="Route11" color="4" fill="7" visible="no" active="no"/>
<layer number="12" name="Route12" color="1" fill="5" visible="no" active="no"/>
<layer number="13" name="Route13" color="4" fill="5" visible="no" active="no"/>
<layer number="14" name="Route14" color="1" fill="6" visible="no" active="no"/>
<layer number="15" name="Route15" color="4" fill="6" visible="no" active="no"/>
<layer number="16" name="Bottom" color="1" fill="1" visible="no" active="no"/>
<layer number="17" name="Pads" color="2" fill="1" visible="no" active="no"/>
<layer number="18" name="Vias" color="2" fill="1" visible="no" active="no"/>
<layer number="19" name="Unrouted" color="6" fill="1" visible="no" active="no"/>
<layer number="20" name="Dimension" color="15" fill="1" visible="no" active="no"/>
<layer number="21" name="tPlace" color="7" fill="1" visible="no" active="no"/>
<layer number="22" name="bPlace" color="7" fill="1" visible="no" active="no"/>
<layer number="23" name="tOrigins" color="15" fill="1" visible="no" active="no"/>
<layer number="24" name="bOrigins" color="15" fill="1" visible="no" active="no"/>
<layer number="25" name="tNames" color="7" fill="1" visible="no" active="no"/>
<layer number="26" name="bNames" color="7" fill="1" visible="no" active="no"/>
<layer number="27" name="tValues" color="7" fill="1" visible="no" active="no"/>
<layer number="28" name="bValues" color="7" fill="1" visible="no" active="no"/>
<layer number="29" name="tStop" color="7" fill="3" visible="no" active="no"/>
<layer number="30" name="bStop" color="7" fill="6" visible="no" active="no"/>
<layer number="31" name="tCream" color="7" fill="4" visible="no" active="no"/>
<layer number="32" name="bCream" color="7" fill="5" visible="no" active="no"/>
<layer number="33" name="tFinish" color="6" fill="3" visible="no" active="no"/>
<layer number="34" name="bFinish" color="6" fill="6" visible="no" active="no"/>
<layer number="35" name="tGlue" color="7" fill="4" visible="no" active="no"/>
<layer number="36" name="bGlue" color="7" fill="5" visible="no" active="no"/>
<layer number="37" name="tTest" color="7" fill="1" visible="no" active="no"/>
<layer number="38" name="bTest" color="7" fill="1" visible="no" active="no"/>
<layer number="39" name="tKeepout" color="4" fill="11" visible="no" active="no"/>
<layer number="40" name="bKeepout" color="1" fill="11" visible="no" active="no"/>
<layer number="41" name="tRestrict" color="4" fill="10" visible="no" active="no"/>
<layer number="42" name="bRestrict" color="1" fill="10" visible="no" active="no"/>
<layer number="43" name="vRestrict" color="2" fill="10" visible="no" active="no"/>
<layer number="44" name="Drills" color="7" fill="1" visible="no" active="no"/>
<layer number="45" name="Holes" color="7" fill="1" visible="no" active="no"/>
<layer number="46" name="Milling" color="3" fill="1" visible="no" active="no"/>
<layer number="47" name="Measures" color="7" fill="1" visible="no" active="no"/>
<layer number="48" name="Document" color="7" fill="1" visible="no" active="no"/>
<layer number="49" name="Reference" color="7" fill="1" visible="no" active="no"/>
<layer number="50" name="dxf" color="7" fill="1" visible="no" active="no"/>
<layer number="51" name="tDocu" color="7" fill="1" visible="no" active="no"/>
<layer number="52" name="bDocu" color="7" fill="1" visible="no" active="no"/>
<layer number="53" name="tGND_GNDA" color="7" fill="9" visible="no" active="no"/>
<layer number="54" name="bGND_GNDA" color="1" fill="9" visible="no" active="no"/>
<layer number="56" name="wert" color="7" fill="1" visible="no" active="no"/>
<layer number="88" name="SimResults" color="9" fill="1" visible="yes" active="yes"/>
<layer number="89" name="SimProbes" color="9" fill="1" visible="yes" active="yes"/>
<layer number="90" name="Modules" color="5" fill="1" visible="yes" active="yes"/>
<layer number="91" name="Nets" color="2" fill="1" visible="yes" active="yes"/>
<layer number="92" name="Busses" color="1" fill="1" visible="yes" active="yes"/>
<layer number="93" name="Pins" color="2" fill="1" visible="no" active="yes"/>
<layer number="94" name="Symbols" color="4" fill="1" visible="yes" active="yes"/>
<layer number="95" name="Names" color="7" fill="1" visible="yes" active="yes"/>
<layer number="96" name="Values" color="7" fill="1" visible="yes" active="yes"/>
<layer number="97" name="Info" color="7" fill="1" visible="yes" active="yes"/>
<layer number="98" name="Guide" color="6" fill="1" visible="yes" active="yes"/>
<layer number="100" name="Muster" color="7" fill="1" visible="no" active="no"/>
<layer number="101" name="Patch_Top" color="12" fill="4" visible="no" active="yes"/>
<layer number="102" name="Vscore" color="7" fill="1" visible="no" active="yes"/>
<layer number="103" name="tMap" color="7" fill="1" visible="yes" active="yes"/>
<layer number="104" name="Name" color="7" fill="1" visible="no" active="yes"/>
<layer number="105" name="tPlate" color="7" fill="1" visible="yes" active="yes"/>
<layer number="106" name="bPlate" color="7" fill="1" visible="yes" active="yes"/>
<layer number="107" name="Crop" color="7" fill="1" visible="yes" active="yes"/>
<layer number="116" name="Patch_BOT" color="9" fill="4" visible="no" active="yes"/>
<layer number="121" name="_tsilk" color="7" fill="1" visible="no" active="yes"/>
<layer number="122" name="_bsilk" color="7" fill="1" visible="no" active="yes"/>
<layer number="151" name="HeatSink" color="7" fill="1" visible="no" active="yes"/>
<layer number="200" name="200bmp" color="1" fill="10" visible="no" active="yes"/>
<layer number="201" name="201bmp" color="2" fill="10" visible="no" active="yes"/>
<layer number="202" name="202bmp" color="3" fill="10" visible="no" active="yes"/>
<layer number="203" name="203bmp" color="4" fill="10" visible="no" active="yes"/>
<layer number="204" name="204bmp" color="5" fill="10" visible="no" active="yes"/>
<layer number="205" name="205bmp" color="6" fill="10" visible="no" active="yes"/>
<layer number="206" name="206bmp" color="7" fill="10" visible="no" active="yes"/>
<layer number="207" name="207bmp" color="8" fill="10" visible="no" active="yes"/>
<layer number="208" name="208bmp" color="9" fill="10" visible="no" active="yes"/>
<layer number="250" name="Descript" color="3" fill="1" visible="no" active="no"/>
<layer number="251" name="SMDround" color="12" fill="11" visible="no" active="no"/>
<layer number="254" name="cooling" color="7" fill="1" visible="no" active="yes"/>
</layers>
<schematic xreflabel="%F%N/%S.%C%R" xrefpart="/%S.%C%R">
<libraries>
<library name="fab">
<packages>
<package name="SOIC8">
<description>&lt;B&gt;Wide Plastic Gull Wing Small Outline Package&lt;/B&gt;</description>
<wire x1="-2.6" y1="2.25" x2="-2.35" y2="2.5" width="0.1524" layer="21" curve="-90" cap="flat"/>
<wire x1="2.35" y1="2.5" x2="2.6" y2="2.25" width="0.1524" layer="21" curve="-90"/>
<wire x1="2.35" y1="-2.5" x2="2.6" y2="-2.25" width="0.1524" layer="21" curve="90" cap="flat"/>
<wire x1="-2.6" y1="-2.25" x2="-2.35" y2="-2.5" width="0.1524" layer="21" curve="90" cap="flat"/>
<wire x1="2.36" y1="-2.5" x2="-2.34" y2="-2.5" width="0.1524" layer="51"/>
<wire x1="-2.34" y1="2.5" x2="2.36" y2="2.5" width="0.1524" layer="51"/>
<wire x1="-2.21" y1="2.5" x2="-2.34" y2="2.5" width="0.1524" layer="21"/>
<wire x1="-1.59" y1="2.5" x2="-0.95" y2="2.5" width="0.1524" layer="21"/>
<wire x1="-0.32" y1="2.5" x2="0.32" y2="2.5" width="0.1524" layer="21"/>
<wire x1="0.95" y1="2.5" x2="1.59" y2="2.5" width="0.1524" layer="21"/>
<wire x1="2.21" y1="2.5" x2="2.36" y2="2.5" width="0.1524" layer="21"/>
<wire x1="2.2" y1="-2.5" x2="2.33" y2="-2.5" width="0.1524" layer="21"/>
<wire x1="1.59" y1="-2.5" x2="0.94" y2="-2.5" width="0.1524" layer="21"/>
<wire x1="0.32" y1="-2.5" x2="-0.33" y2="-2.5" width="0.1524" layer="21"/>
<wire x1="-0.95" y1="-2.5" x2="-1.59" y2="-2.5" width="0.1524" layer="21"/>
<wire x1="-2.21" y1="-2.5" x2="-2.34" y2="-2.5" width="0.1524" layer="21"/>
<wire x1="-2.6" y1="2.25" x2="-2.6" y2="-2.24" width="0.1524" layer="21"/>
<wire x1="2.6" y1="-2.25" x2="2.6" y2="2.25" width="0.1524" layer="21"/>
<circle x="-1.42" y="-1.115" radius="0.5" width="0.0508" layer="21"/>
<smd name="1" x="-1.905" y="-3.154" dx="0.5" dy="2.2" layer="1"/>
<smd name="2" x="-0.645" y="-3.154" dx="0.5" dy="2.2" layer="1"/>
<smd name="3" x="0.625" y="-3.154" dx="0.5" dy="2.2" layer="1"/>
<smd name="4" x="1.895" y="-3.154" dx="0.5" dy="2.2" layer="1"/>
<smd name="8" x="-1.905" y="3.154" dx="0.5" dy="2.2" layer="1"/>
<smd name="7" x="-0.635" y="3.154" dx="0.5" dy="2.2" layer="1"/>
<smd name="6" x="0.635" y="3.154" dx="0.5" dy="2.2" layer="1"/>
<smd name="5" x="1.905" y="3.154" dx="0.5" dy="2.2" layer="1"/>
<text x="-2.8575" y="-2.159" size="1.27" layer="25" ratio="10" rot="R90">&gt;NAME</text>
<text x="4.064" y="-2.159" size="1.27" layer="27" ratio="10" rot="R90">&gt;VALUE</text>
<rectangle x1="-2.08" y1="2.5" x2="-1.73" y2="3.4" layer="51"/>
<rectangle x1="-0.81" y1="2.5" x2="-0.46" y2="3.4" layer="51"/>
<rectangle x1="0.46" y1="2.5" x2="0.81" y2="3.4" layer="51"/>
<rectangle x1="1.73" y1="2.5" x2="2.08" y2="3.4" layer="51"/>
<rectangle x1="1.72" y1="-3.4" x2="2.07" y2="-2.5" layer="51"/>
<rectangle x1="0.45" y1="-3.4" x2="0.8" y2="-2.5" layer="51"/>
<rectangle x1="-0.82" y1="-3.4" x2="-0.47" y2="-2.5" layer="51"/>
<rectangle x1="-2.08" y1="-3.4" x2="-1.73" y2="-2.5" layer="51"/>
</package>
</packages>
<symbols>
<symbol name="ATTINY45">
<wire x1="-52.07" y1="7.493" x2="-52.07" y2="5.08" width="0.4064" layer="94"/>
<wire x1="-52.07" y1="5.08" x2="-52.07" y2="2.54" width="0.4064" layer="94"/>
<wire x1="-52.07" y1="2.54" x2="-52.07" y2="0" width="0.4064" layer="94"/>
<wire x1="-52.07" y1="0" x2="-52.07" y2="-2.54" width="0.4064" layer="94"/>
<wire x1="-52.07" y1="-2.54" x2="-52.07" y2="-5.08" width="0.4064" layer="94"/>
<wire x1="-52.07" y1="-5.08" x2="34.29" y2="-5.08" width="0.4064" layer="94"/>
<wire x1="34.29" y1="-5.08" x2="34.29" y2="-2.54" width="0.4064" layer="94"/>
<wire x1="34.29" y1="-2.54" x2="34.29" y2="0" width="0.4064" layer="94"/>
<wire x1="34.29" y1="0" x2="34.29" y2="2.54" width="0.4064" layer="94"/>
<wire x1="34.29" y1="2.54" x2="34.29" y2="5.08" width="0.4064" layer="94"/>
<wire x1="34.29" y1="5.08" x2="34.29" y2="7.493" width="0.4064" layer="94"/>
<wire x1="34.29" y1="7.493" x2="-52.07" y2="7.493" width="0.4064" layer="94"/>
<wire x1="-53.34" y1="5.08" x2="-52.07" y2="5.08" width="0.254" layer="94"/>
<wire x1="-53.34" y1="2.54" x2="-52.07" y2="2.54" width="0.254" layer="94"/>
<wire x1="-53.34" y1="0" x2="-52.07" y2="0" width="0.254" layer="94"/>
<wire x1="-53.34" y1="-2.54" x2="-52.07" y2="-2.54" width="0.254" layer="94"/>
<wire x1="34.29" y1="5.08" x2="35.56" y2="5.08" width="0.254" layer="94"/>
<wire x1="34.29" y1="2.54" x2="35.56" y2="2.54" width="0.254" layer="94"/>
<wire x1="34.29" y1="0" x2="35.56" y2="0" width="0.254" layer="94"/>
<wire x1="34.29" y1="-2.54" x2="35.56" y2="-2.54" width="0.254" layer="94"/>
<text x="5.08" y="-7.62" size="1.778" layer="95">&gt;NAME</text>
<text x="-31.75" y="-7.62" size="1.778" layer="96">ATtiny45</text>
<rectangle x1="-51.816" y1="5.969" x2="-50.546" y2="7.239" layer="94"/>
<pin name="GND" x="-53.34" y="-2.54" length="point"/>
<pin name="PB5/PCINT5/-RESET/ADC0/DW" x="-53.34" y="5.08" length="point"/>
<pin name="PB3/PCINT3/XTAL1/CLKI/-OC1B/ADC3" x="-53.34" y="2.54" length="point"/>
<pin name="PB4/PCINT4/XTAL2/CLKO/OC1B/ADC2" x="-53.34" y="0" length="point"/>
<pin name="VCC" x="35.56" y="5.08" length="point" rot="R180"/>
<pin name="SCK/USCK/SCL/ADC1/T0/INT0/PCINT2/PB2" x="35.56" y="2.54" length="point" rot="R180"/>
<pin name="MISO/DO/AIN1/OC0B/OC1A/PCINT1/PB1" x="35.56" y="0" length="point" rot="R180"/>
<pin name="MOSI/DI/SDA/AIN0/OC0A/-OC1A/AREF/PCINT0/PB0" x="35.56" y="-2.54" length="point" rot="R180"/>
</symbol>
</symbols>
<devicesets>
<deviceset name="ATTINY45">
<gates>
<gate name="G$1" symbol="ATTINY45" x="10.16" y="0"/>
</gates>
<devices>
<device name="SI" package="SOIC8">
<connects>
<connect gate="G$1" pin="GND" pad="4"/>
<connect gate="G$1" pin="MISO/DO/AIN1/OC0B/OC1A/PCINT1/PB1" pad="6"/>
<connect gate="G$1" pin="MOSI/DI/SDA/AIN0/OC0A/-OC1A/AREF/PCINT0/PB0" pad="5"/>
<connect gate="G$1" pin="PB3/PCINT3/XTAL1/CLKI/-OC1B/ADC3" pad="2"/>
<connect gate="G$1" pin="PB4/PCINT4/XTAL2/CLKO/OC1B/ADC2" pad="3"/>
<connect gate="G$1" pin="PB5/PCINT5/-RESET/ADC0/DW" pad="1"/>
<connect gate="G$1" pin="SCK/USCK/SCL/ADC1/T0/INT0/PCINT2/PB2" pad="7"/>
<connect gate="G$1" pin="VCC" pad="8"/>
</connects>
<technologies>
<technology name=""/>
</technologies>
</device>
</devices>
</deviceset>
</devicesets>
</library>
<library name="FAB_Hello">
<packages>
<package name="CSM-7X-DU">
<description>&lt;b&gt;SMD CRYSTAL&lt;/b&gt;&lt;p&gt;
Source: www.ecsxtal.com .. Crystal 3.6864MHz CSM_7X_DU.PDF</description>
<wire x1="-5.575" y1="2.3" x2="-2.725" y2="2.3" width="0.2032" layer="51"/>
<wire x1="-2.725" y1="2.3" x2="2.75" y2="2.3" width="0.2032" layer="51"/>
<wire x1="2.75" y1="2.3" x2="5.55" y2="2.3" width="0.2032" layer="51"/>
<wire x1="5.55" y1="2.3" x2="5.55" y2="-2.3" width="0.2032" layer="51"/>
<wire x1="5.55" y1="-2.3" x2="-2.75" y2="-2.3" width="0.2032" layer="51"/>
<wire x1="-2.75" y1="-2.3" x2="-5.575" y2="-2.3" width="0.2032" layer="51"/>
<wire x1="-5.575" y1="-2.3" x2="-5.575" y2="2.3" width="0.2032" layer="51"/>
<wire x1="-2.75" y1="-2.3" x2="-2.725" y2="2.3" width="0.2032" layer="51" curve="-180"/>
<wire x1="2.75" y1="2.3" x2="2.725" y2="-2.3" width="0.2032" layer="51" curve="-180"/>
<smd name="1" x="-4.75" y="0" dx="5.5" dy="2" layer="1"/>
<smd name="2" x="4.75" y="0" dx="5.5" dy="2" layer="1"/>
<text x="-7.6288" y="2.5334" size="1.27" layer="25">&gt;NAME</text>
<text x="-7.6288" y="-4.3114" size="1.27" layer="27">&gt;VALUE</text>
</package>
<package name="1206">
<description>&lt;b&gt;RESISTOR&lt;/b&gt;&lt;p&gt;
chip</description>
<wire x1="0.9525" y1="-0.8128" x2="-0.9652" y2="-0.8128" width="0.1524" layer="51"/>
<wire x1="0.9525" y1="0.8128" x2="-0.9652" y2="0.8128" width="0.1524" layer="51"/>
<wire x1="-2.3206" y1="0.983" x2="2.3206" y2="0.983" width="0.0508" layer="39"/>
<wire x1="2.3206" y1="0.983" x2="2.3206" y2="-0.983" width="0.0508" layer="39"/>
<wire x1="2.3206" y1="-0.983" x2="-2.3206" y2="-0.983" width="0.0508" layer="39"/>
<wire x1="-2.3206" y1="-0.983" x2="-2.3206" y2="0.983" width="0.0508" layer="39"/>
<smd name="2" x="1.422" y="0" dx="1.6" dy="1.803" layer="1"/>
<smd name="1" x="-1.422" y="0" dx="1.6" dy="1.803" layer="1"/>
<text x="-1.397" y="1.143" size="1.27" layer="25">&gt;NAME</text>
<text x="-1.397" y="-2.413" size="1.27" layer="27">&gt;VALUE</text>
<rectangle x1="-1.6891" y1="-0.8763" x2="-0.9525" y2="0.8763" layer="51"/>
<rectangle x1="0.9525" y1="-0.8763" x2="1.6891" y2="0.8763" layer="51"/>
<rectangle x1="-0.3" y1="-0.7" x2="0.3" y2="0.7" layer="35"/>
</package>
<package name="0402">
<description>&lt;b&gt;RESISTOR&lt;/b&gt;</description>
<wire x1="-0.245" y1="0.224" x2="0.245" y2="0.224" width="0.1524" layer="51"/>
<wire x1="0.245" y1="-0.224" x2="-0.245" y2="-0.224" width="0.1524" layer="51"/>
<wire x1="-1.092" y1="0.5338" x2="1.092" y2="0.5338" width="0.0508" layer="39"/>
<wire x1="1.092" y1="0.5338" x2="1.092" y2="-0.5338" width="0.0508" layer="39"/>
<wire x1="1.092" y1="-0.5338" x2="-1.092" y2="-0.5338" width="0.0508" layer="39"/>
<wire x1="-1.092" y1="-0.5338" x2="-1.092" y2="0.5338" width="0.0508" layer="39"/>
<smd name="1" x="-0.65" y="0" dx="0.7" dy="0.9" layer="1"/>
<smd name="2" x="0.65" y="0" dx="0.7" dy="0.9" layer="1"/>
<text x="-0.635" y="0.635" size="1.27" layer="25">&gt;NAME</text>
<text x="-0.635" y="-1.905" size="1.27" layer="27">&gt;VALUE</text>
<rectangle x1="-0.554" y1="-0.3048" x2="-0.254" y2="0.2951" layer="51"/>
<rectangle x1="0.2588" y1="-0.3048" x2="0.5588" y2="0.2951" layer="51"/>
<rectangle x1="-0.1999" y1="-0.4001" x2="0.1999" y2="0.4001" layer="35"/>
</package>
<package name="5MM">
<description>5 mm, round</description>
<wire x1="2.54" y1="-1.905" x2="2.54" y2="1.905" width="0.2032" layer="21"/>
<wire x1="2.54" y1="-1.905" x2="2.54" y2="1.905" width="0.254" layer="21" curve="-286.260205" cap="flat"/>
<wire x1="-1.143" y1="0" x2="0" y2="1.143" width="0.1524" layer="51" curve="-90" cap="flat"/>
<wire x1="0" y1="-1.143" x2="1.143" y2="0" width="0.1524" layer="51" curve="90" cap="flat"/>
<wire x1="-1.651" y1="0" x2="0" y2="1.651" width="0.1524" layer="51" curve="-90" cap="flat"/>
<wire x1="0" y1="-1.651" x2="1.651" y2="0" width="0.1524" layer="51" curve="90" cap="flat"/>
<wire x1="-2.159" y1="0" x2="0" y2="2.159" width="0.1524" layer="51" curve="-90" cap="flat"/>
<wire x1="0" y1="-2.159" x2="2.159" y2="0" width="0.1524" layer="51" curve="90" cap="flat"/>
<circle x="0" y="0" radius="2.54" width="0.1524" layer="21"/>
<pad name="IN" x="-1.27" y="0" drill="0.8128" diameter="1.4224"/>
<pad name="OUT" x="1.27" y="0" drill="0.8128" diameter="1.4224"/>
<text x="3.175" y="0.5334" size="1.27" layer="25" ratio="10">&gt;NAME</text>
<text x="3.2004" y="-1.8034" size="1.27" layer="27" ratio="10">&gt;VALUE</text>
</package>
<package name="0603">
<description>&lt;b&gt;CAPACITOR&lt;/b&gt;</description>
<wire x1="-1.473" y1="0.5766" x2="1.473" y2="0.5766" width="0.0508" layer="39"/>
<wire x1="1.473" y1="0.5766" x2="1.473" y2="-0.5766" width="0.0508" layer="39"/>
<wire x1="1.473" y1="-0.5766" x2="-1.473" y2="-0.5766" width="0.0508" layer="39"/>
<wire x1="-1.473" y1="-0.5766" x2="-1.473" y2="0.5766" width="0.0508" layer="39"/>
<wire x1="-0.356" y1="0.432" x2="0.356" y2="0.432" width="0.1016" layer="51"/>
<wire x1="-0.356" y1="-0.419" x2="0.356" y2="-0.419" width="0.1016" layer="51"/>
<smd name="1" x="-0.85" y="0" dx="1.1" dy="1" layer="1"/>
<smd name="2" x="0.85" y="0" dx="1.1" dy="1" layer="1"/>
<text x="-0.635" y="0.635" size="1.27" layer="25">&gt;NAME</text>
<text x="-0.635" y="-1.905" size="1.27" layer="27">&gt;VALUE</text>
<rectangle x1="-0.8382" y1="-0.4699" x2="-0.3381" y2="0.4801" layer="51"/>
<rectangle x1="0.3302" y1="-0.4699" x2="0.8303" y2="0.4801" layer="51"/>
<rectangle x1="-0.1999" y1="-0.3" x2="0.1999" y2="0.3" layer="35"/>
</package>
<package name="6MM_SWITCH">
<description>&lt;b&gt;OMRON SWITCH&lt;/b&gt;</description>
<wire x1="3.302" y1="-0.762" x2="3.048" y2="-0.762" width="0.1524" layer="21"/>
<wire x1="3.302" y1="-0.762" x2="3.302" y2="0.762" width="0.1524" layer="21"/>
<wire x1="3.048" y1="0.762" x2="3.302" y2="0.762" width="0.1524" layer="21"/>
<wire x1="3.048" y1="1.016" x2="3.048" y2="2.54" width="0.1524" layer="51"/>
<wire x1="-3.302" y1="0.762" x2="-3.048" y2="0.762" width="0.1524" layer="21"/>
<wire x1="-3.302" y1="0.762" x2="-3.302" y2="-0.762" width="0.1524" layer="21"/>
<wire x1="-3.048" y1="-0.762" x2="-3.302" y2="-0.762" width="0.1524" layer="21"/>
<wire x1="3.048" y1="2.54" x2="2.54" y2="3.048" width="0.1524" layer="51"/>
<wire x1="2.54" y1="-3.048" x2="3.048" y2="-2.54" width="0.1524" layer="51"/>
<wire x1="3.048" y1="-2.54" x2="3.048" y2="-1.016" width="0.1524" layer="51"/>
<wire x1="-2.54" y1="3.048" x2="-3.048" y2="2.54" width="0.1524" layer="51"/>
<wire x1="-3.048" y1="2.54" x2="-3.048" y2="1.016" width="0.1524" layer="51"/>
<wire x1="-2.54" y1="-3.048" x2="-3.048" y2="-2.54" width="0.1524" layer="51"/>
<wire x1="-3.048" y1="-2.54" x2="-3.048" y2="-1.016" width="0.1524" layer="51"/>
<wire x1="-1.27" y1="1.27" x2="-1.27" y2="-1.27" width="0.0508" layer="51"/>
<wire x1="1.27" y1="-1.27" x2="-1.27" y2="-1.27" width="0.0508" layer="51"/>
<wire x1="1.27" y1="-1.27" x2="1.27" y2="1.27" width="0.0508" layer="51"/>
<wire x1="-1.27" y1="1.27" x2="1.27" y2="1.27" width="0.0508" layer="51"/>
<wire x1="-1.27" y1="3.048" x2="-1.27" y2="2.794" width="0.0508" layer="21"/>
<wire x1="1.27" y1="2.794" x2="-1.27" y2="2.794" width="0.0508" layer="21"/>
<wire x1="1.27" y1="2.794" x2="1.27" y2="3.048" width="0.0508" layer="21"/>
<wire x1="1.143" y1="-2.794" x2="-1.27" y2="-2.794" width="0.0508" layer="21"/>
<wire x1="1.143" y1="-2.794" x2="1.143" y2="-3.048" width="0.0508" layer="21"/>
<wire x1="-1.27" y1="-2.794" x2="-1.27" y2="-3.048" width="0.0508" layer="21"/>
<wire x1="2.54" y1="-3.048" x2="2.159" y2="-3.048" width="0.1524" layer="51"/>
<wire x1="-2.54" y1="-3.048" x2="-2.159" y2="-3.048" width="0.1524" layer="51"/>
<wire x1="-2.159" y1="-3.048" x2="-1.27" y2="-3.048" width="0.1524" layer="21"/>
<wire x1="-2.54" y1="3.048" x2="-2.159" y2="3.048" width="0.1524" layer="51"/>
<wire x1="2.54" y1="3.048" x2="2.159" y2="3.048" width="0.1524" layer="51"/>
<wire x1="2.159" y1="3.048" x2="1.27" y2="3.048" width="0.1524" layer="21"/>
<wire x1="1.27" y1="3.048" x2="-1.27" y2="3.048" width="0.1524" layer="21"/>
<wire x1="-1.27" y1="3.048" x2="-2.159" y2="3.048" width="0.1524" layer="21"/>
<wire x1="-1.27" y1="-3.048" x2="1.143" y2="-3.048" width="0.1524" layer="21"/>
<wire x1="1.143" y1="-3.048" x2="2.159" y2="-3.048" width="0.1524" layer="21"/>
<wire x1="3.048" y1="-0.762" x2="3.048" y2="-1.016" width="0.1524" layer="21"/>
<wire x1="3.048" y1="0.762" x2="3.048" y2="1.016" width="0.1524" layer="21"/>
<wire x1="-3.048" y1="-0.762" x2="-3.048" y2="-1.016" width="0.1524" layer="21"/>
<wire x1="-3.048" y1="0.762" x2="-3.048" y2="1.016" width="0.1524" layer="21"/>
<wire x1="-1.27" y1="-2.159" x2="1.27" y2="-2.159" width="0.1524" layer="51"/>
<wire x1="1.27" y1="2.286" x2="-1.27" y2="2.286" width="0.1524" layer="51"/>
<wire x1="-2.413" y1="1.27" x2="-2.413" y2="0.508" width="0.1524" layer="51"/>
<wire x1="-2.413" y1="-0.508" x2="-2.413" y2="-1.27" width="0.1524" layer="51"/>
<wire x1="-2.413" y1="0.508" x2="-2.159" y2="-0.381" width="0.1524" layer="51"/>
<circle x="0" y="0" radius="1.778" width="0.1524" layer="21"/>
<circle x="-2.159" y="-2.159" radius="0.508" width="0.1524" layer="51"/>
<circle x="2.159" y="-2.032" radius="0.508" width="0.1524" layer="51"/>
<circle x="2.159" y="2.159" radius="0.508" width="0.1524" layer="51"/>
<circle x="-2.159" y="2.159" radius="0.508" width="0.1524" layer="51"/>
<circle x="0" y="0" radius="0.635" width="0.0508" layer="51"/>
<circle x="0" y="0" radius="0.254" width="0.1524" layer="21"/>
<smd name="1" x="-3.302" y="2.286" dx="2.286" dy="1.524" layer="1"/>
<smd name="2" x="3.302" y="2.286" dx="2.286" dy="1.524" layer="1"/>
<smd name="3" x="-3.302" y="-2.286" dx="2.286" dy="1.524" layer="1"/>
<smd name="4" x="3.302" y="-2.286" dx="2.286" dy="1.524" layer="1"/>
<text x="-3.048" y="3.683" size="1.27" layer="25" ratio="10">&gt;NAME</text>
<text x="-3.048" y="-5.08" size="1.27" layer="27" ratio="10">&gt;VALUE</text>
<text x="-4.318" y="1.651" size="1.27" layer="51" ratio="10">1</text>
<text x="3.556" y="1.524" size="1.27" layer="51" ratio="10">2</text>
<text x="-4.572" y="-2.794" size="1.27" layer="51" ratio="10">3</text>
<text x="3.556" y="-2.794" size="1.27" layer="51" ratio="10">4</text>
</package>
</packages>
<symbols>
<symbol name="GND-1">
<wire x1="-1.905" y1="0" x2="1.905" y2="0" width="0.254" layer="94"/>
<text x="-2.54" y="-2.54" size="1.778" layer="96">&gt;VALUE</text>
<pin name="GND" x="0" y="2.54" visible="off" length="short" direction="sup" rot="R270"/>
</symbol>
<symbol name="VCC">
<wire x1="1.27" y1="-1.905" x2="0" y2="0" width="0.254" layer="94"/>
<wire x1="0" y1="0" x2="-1.27" y2="-1.905" width="0.254" layer="94"/>
<text x="-2.54" y="-2.54" size="1.778" layer="96" rot="R90">&gt;VALUE</text>
<pin name="VCC" x="0" y="-2.54" visible="off" length="short" direction="sup" rot="R90"/>
</symbol>
<symbol name="Q">
<wire x1="1.016" y1="0" x2="2.54" y2="0" width="0.1524" layer="94"/>
<wire x1="-2.54" y1="0" x2="-1.016" y2="0" width="0.1524" layer="94"/>
<wire x1="-0.381" y1="1.524" x2="-0.381" y2="-1.524" width="0.254" layer="94"/>
<wire x1="-0.381" y1="-1.524" x2="0.381" y2="-1.524" width="0.254" layer="94"/>
<wire x1="0.381" y1="-1.524" x2="0.381" y2="1.524" width="0.254" layer="94"/>
<wire x1="0.381" y1="1.524" x2="-0.381" y2="1.524" width="0.254" layer="94"/>
<wire x1="1.016" y1="1.778" x2="1.016" y2="-1.778" width="0.254" layer="94"/>
<wire x1="-1.016" y1="1.778" x2="-1.016" y2="-1.778" width="0.254" layer="94"/>
<text x="2.54" y="1.016" size="1.778" layer="95">&gt;NAME</text>
<text x="2.54" y="-2.54" size="1.778" layer="96">&gt;VALUE</text>
<text x="-2.159" y="-1.143" size="0.8636" layer="93">1</text>
<text x="1.524" y="-1.143" size="0.8636" layer="93">2</text>
<pin name="2" x="2.54" y="0" visible="off" length="point" direction="pas" swaplevel="1" rot="R180"/>
<pin name="1" x="-2.54" y="0" visible="off" length="point" direction="pas" swaplevel="1"/>
</symbol>
<symbol name="CAP-NP">
<wire x1="-1.778" y1="1.524" x2="-1.778" y2="0" width="0.254" layer="94"/>
<wire x1="-1.778" y1="0" x2="-1.778" y2="-1.524" width="0.254" layer="94"/>
<wire x1="-0.762" y1="1.524" x2="-0.762" y2="0" width="0.254" layer="94"/>
<wire x1="-0.762" y1="0" x2="-0.762" y2="-1.524" width="0.254" layer="94"/>
<wire x1="-2.54" y1="0" x2="-1.778" y2="0" width="0.1524" layer="94"/>
<wire x1="-0.762" y1="0" x2="0" y2="0" width="0.1524" layer="94"/>
<text x="-3.81" y="2.54" size="1.778" layer="95">&gt;NAME</text>
<text x="-3.81" y="-3.81" size="1.778" layer="96">&gt;VALUE</text>
<pin name="1" x="-5.08" y="0" visible="off" length="short" direction="pas" swaplevel="1"/>
<pin name="2" x="2.54" y="0" visible="off" length="short" direction="pas" swaplevel="1" rot="R180"/>
</symbol>
<symbol name="RESISTOR">
<wire x1="-2.54" y1="0" x2="-2.159" y2="1.016" width="0.2032" layer="94"/>
<wire x1="-2.159" y1="1.016" x2="-1.524" y2="-1.016" width="0.2032" layer="94"/>
<wire x1="-1.524" y1="-1.016" x2="-0.889" y2="1.016" width="0.2032" layer="94"/>
<wire x1="-0.889" y1="1.016" x2="-0.254" y2="-1.016" width="0.2032" layer="94"/>
<wire x1="-0.254" y1="-1.016" x2="0.381" y2="1.016" width="0.2032" layer="94"/>
<wire x1="0.381" y1="1.016" x2="1.016" y2="-1.016" width="0.2032" layer="94"/>
<wire x1="1.016" y1="-1.016" x2="1.651" y2="1.016" width="0.2032" layer="94"/>
<wire x1="1.651" y1="1.016" x2="2.286" y2="-1.016" width="0.2032" layer="94"/>
<wire x1="2.286" y1="-1.016" x2="2.54" y2="0" width="0.2032" layer="94"/>
<text x="-3.81" y="1.4986" size="1.778" layer="95">&gt;NAME</text>
<text x="-3.81" y="-3.302" size="1.778" layer="96">&gt;VALUE</text>
<pin name="2" x="5.08" y="0" visible="off" length="short" direction="pas" swaplevel="1" rot="R180"/>
<pin name="1" x="-5.08" y="0" visible="off" length="short" direction="pas" swaplevel="1"/>
</symbol>
<symbol name="LED">
<wire x1="1.27" y1="2.54" x2="0" y2="0" width="0.254" layer="94"/>
<wire x1="0" y1="0" x2="-1.27" y2="2.54" width="0.254" layer="94"/>
<wire x1="1.27" y1="0" x2="0" y2="0" width="0.254" layer="94"/>
<wire x1="0" y1="0" x2="-1.27" y2="0" width="0.254" layer="94"/>
<wire x1="1.27" y1="2.54" x2="0" y2="2.54" width="0.254" layer="94"/>
<wire x1="0" y1="2.54" x2="-1.27" y2="2.54" width="0.254" layer="94"/>
<wire x1="0" y1="2.54" x2="0" y2="0" width="0.1524" layer="94"/>
<wire x1="-2.032" y1="1.778" x2="-3.429" y2="0.381" width="0.1524" layer="94"/>
<wire x1="-1.905" y1="0.635" x2="-3.302" y2="-0.762" width="0.1524" layer="94"/>
<text x="3.556" y="-2.032" size="1.778" layer="95" rot="R90">&gt;NAME</text>
<text x="5.715" y="-2.032" size="1.778" layer="96" rot="R90">&gt;VALUE</text>
<pin name="C" x="0" y="-2.54" visible="off" length="short" direction="pas" rot="R90"/>
<pin name="A" x="0" y="5.08" visible="off" length="short" direction="pas" rot="R270"/>
<polygon width="0.1524" layer="94">
<vertex x="-3.429" y="0.381"/>
<vertex x="-3.048" y="1.27"/>
<vertex x="-2.54" y="0.762"/>
</polygon>
<polygon width="0.1524" layer="94">
<vertex x="-3.302" y="-0.762"/>
<vertex x="-2.921" y="0.127"/>
<vertex x="-2.413" y="-0.381"/>
</polygon>
</symbol>
<symbol name="TS2">
<wire x1="0" y1="1.905" x2="0" y2="2.54" width="0.254" layer="94"/>
<wire x1="-4.445" y1="1.905" x2="-3.175" y2="1.905" width="0.254" layer="94"/>
<wire x1="-4.445" y1="-1.905" x2="-3.175" y2="-1.905" width="0.254" layer="94"/>
<wire x1="-4.445" y1="1.905" x2="-4.445" y2="0" width="0.254" layer="94"/>
<wire x1="-4.445" y1="0" x2="-4.445" y2="-1.905" width="0.254" layer="94"/>
<wire x1="-2.54" y1="0" x2="-1.905" y2="0" width="0.1524" layer="94"/>
<wire x1="-1.27" y1="0" x2="-0.635" y2="0" width="0.1524" layer="94"/>
<wire x1="-4.445" y1="0" x2="-3.175" y2="0" width="0.1524" layer="94"/>
<wire x1="2.54" y1="2.54" x2="0" y2="2.54" width="0.1524" layer="94"/>
<wire x1="2.54" y1="-2.54" x2="0" y2="-2.54" width="0.1524" layer="94"/>
<wire x1="0" y1="-2.54" x2="-1.27" y2="1.905" width="0.254" layer="94"/>
<circle x="0" y="-2.54" radius="0.127" width="0.4064" layer="94"/>
<circle x="0" y="2.54" radius="0.127" width="0.4064" layer="94"/>
<text x="-6.35" y="-2.54" size="1.778" layer="95" rot="R90">&gt;NAME</text>
<text x="-3.81" y="3.175" size="1.778" layer="96" rot="R90">&gt;VALUE</text>
<pin name="P" x="0" y="-5.08" visible="pad" length="short" direction="pas" swaplevel="2" rot="R90"/>
<pin name="S" x="0" y="5.08" visible="pad" length="short" direction="pas" swaplevel="1" rot="R270"/>
<pin name="S1" x="2.54" y="5.08" visible="pad" length="short" direction="pas" swaplevel="1" rot="R270"/>
<pin name="P1" x="2.54" y="-5.08" visible="pad" length="short" direction="pas" swaplevel="2" rot="R90"/>
</symbol>
</symbols>
<devicesets>
<deviceset name="GND" prefix="GND">
<description>&lt;b&gt;SUPPLY SYMBOL&lt;/b&gt;</description>
<gates>
<gate name="1" symbol="GND-1" x="0" y="0"/>
</gates>
<devices>
<device name="">
<technologies>
<technology name=""/>
</technologies>
</device>
</devices>
</deviceset>
<deviceset name="VCC" prefix="P+">
<description>&lt;b&gt;SUPPLY SYMBOL&lt;/b&gt;</description>
<gates>
<gate name="VCC" symbol="VCC" x="0" y="0"/>
</gates>
<devices>
<device name="">
<technologies>
<technology name=""/>
</technologies>
</device>
</devices>
</deviceset>
<deviceset name="CSM-7X-DU" prefix="Q">
<description>&lt;b&gt;SMD CRYSTAL&lt;/b&gt;&lt;p&gt;
Source: www.ecsxtal.com .. Crystal 3.6864MHz CSM_7X_DU.PDF</description>
<gates>
<gate name="P" symbol="Q" x="0" y="0"/>
</gates>
<devices>
<device name="" package="CSM-7X-DU">
<connects>
<connect gate="P" pin="1" pad="1"/>
<connect gate="P" pin="2" pad="2"/>
</connects>
<technologies>
<technology name="">
<attribute name="MF" value="" constant="no"/>
<attribute name="MPN" value="" constant="no"/>
<attribute name="OC_FARNELL" value="unknown" constant="no"/>
<attribute name="OC_NEWARK" value="unknown" constant="no"/>
</technology>
</technologies>
</device>
</devices>
</deviceset>
<deviceset name="UNPOLARIZED_CAPACITOR" prefix="C" uservalue="yes">
<description>unpolarized_capacitor</description>
<gates>
<gate name="1" symbol="CAP-NP" x="1.27" y="0"/>
</gates>
<devices>
<device name="1206" package="1206">
<connects>
<connect gate="1" pin="1" pad="1"/>
<connect gate="1" pin="2" pad="2"/>
</connects>
<technologies>
<technology name=""/>
</technologies>
</device>
</devices>
</deviceset>
<deviceset name="RESISTOR" prefix="R" uservalue="yes">
<gates>
<gate name="G$1" symbol="RESISTOR" x="0" y="0"/>
</gates>
<devices>
<device name="1206" package="1206">
<connects>
<connect gate="G$1" pin="1" pad="1"/>
<connect gate="G$1" pin="2" pad="2"/>
</connects>
<technologies>
<technology name=""/>
</technologies>
</device>
<device name="0402" package="0402">
<connects>
<connect gate="G$1" pin="1" pad="1"/>
<connect gate="G$1" pin="2" pad="2"/>
</connects>
<technologies>
<technology name=""/>
</technologies>
</device>
</devices>
</deviceset>
<deviceset name="LED" uservalue="yes">
<gates>
<gate name="G$1" symbol="LED" x="0" y="0"/>
</gates>
<devices>
<device name="1206" package="1206">
<connects>
<connect gate="G$1" pin="A" pad="1"/>
<connect gate="G$1" pin="C" pad="2"/>
</connects>
<technologies>
<technology name=""/>
</technologies>
</device>
<device name="0402" package="0402">
<connects>
<connect gate="G$1" pin="A" pad="1"/>
<connect gate="G$1" pin="C" pad="2"/>
</connects>
<technologies>
<technology name=""/>
</technologies>
</device>
<device name="5MM" package="5MM">
<connects>
<connect gate="G$1" pin="A" pad="IN"/>
<connect gate="G$1" pin="C" pad="OUT"/>
</connects>
<technologies>
<technology name=""/>
</technologies>
</device>
<device name="0603" package="0603">
<connects>
<connect gate="G$1" pin="A" pad="1"/>
<connect gate="G$1" pin="C" pad="2"/>
</connects>
<technologies>
<technology name=""/>
</technologies>
</device>
</devices>
</deviceset>
<deviceset name="6MM_SWITCH" prefix="S" uservalue="yes">
<description>&lt;b&gt;OMRON SWITCH&lt;/b&gt;</description>
<gates>
<gate name="2" symbol="TS2" x="0" y="0"/>
</gates>
<devices>
<device name="6MM_SWITCH" package="6MM_SWITCH">
<connects>
<connect gate="2" pin="P" pad="1"/>
<connect gate="2" pin="P1" pad="2"/>
<connect gate="2" pin="S" pad="3"/>
<connect gate="2" pin="S1" pad="4"/>
</connects>
<technologies>
<technology name=""/>
</technologies>
</device>
</devices>
</deviceset>
</devicesets>
</library>
<library name="flight_controller.lbr01_SparkFun">
<packages>
<package name="SMTSO-256-ET">
<circle x="0" y="0" radius="1.016" width="0.127" layer="51"/>
<wire x1="-2.286" y1="1.016" x2="-1.016" y2="2.286" width="1.016" layer="31" curve="-42.075022"/>
<wire x1="1.016" y1="2.286" x2="2.286" y2="1.016" width="1.016" layer="31" curve="-42.075022"/>
<wire x1="2.286" y1="-1.016" x2="1.016" y2="-2.286" width="1.016" layer="31" curve="-42.075022"/>
<wire x1="-1.016" y1="-2.286" x2="-2.286" y2="-1.016" width="1.016" layer="31" curve="-42.075022"/>
<pad name="P$1" x="0" y="0" drill="3.81" diameter="6.1976"/>
</package>
<package name="1X01_OFFSET">
<wire x1="-1.27" y1="0.635" x2="-1.27" y2="-0.635" width="0.2032" layer="21"/>
<wire x1="-1.27" y1="-0.635" x2="-0.635" y2="-1.27" width="0.2032" layer="21"/>
<wire x1="-0.635" y1="-1.27" x2="0.635" y2="-1.27" width="0.2032" layer="21"/>
<wire x1="0.635" y1="-1.27" x2="1.27" y2="-0.635" width="0.2032" layer="21"/>
<wire x1="1.27" y1="-0.635" x2="1.27" y2="0.635" width="0.2032" layer="21"/>
<rectangle x1="-0.254" y1="-0.254" x2="0.254" y2="0.254" layer="51"/>
<pad name="1" x="0" y="0" drill="1.016" diameter="1.8796" shape="offset" rot="R90"/>
<text x="1.1938" y="1.8288" size="1.27" layer="25">&gt;NAME</text>
<text x="-1.27" y="-3.175" size="1.27" layer="27">&gt;VALUE</text>
</package>
<package name="1X01_POGOPIN_HOLE_LARGE">
<circle x="0" y="0" radius="0.635" width="0.127" layer="51"/>
<pad name="1" x="0" y="0" drill="0.9" diameter="0.8128" rot="R90" thermals="no"/>
<hole x="0" y="0" drill="1.5494"/>
</package>
<package name="1X01">
<wire x1="1.27" y1="0.635" x2="0.635" y2="1.27" width="0.2032" layer="21"/>
<wire x1="0.635" y1="1.27" x2="-0.635" y2="1.27" width="0.2032" layer="21"/>
<wire x1="-0.635" y1="1.27" x2="-1.27" y2="0.635" width="0.2032" layer="21"/>
<wire x1="-1.27" y1="0.635" x2="-1.27" y2="-0.635" width="0.2032" layer="21"/>
<wire x1="-1.27" y1="-0.635" x2="-0.635" y2="-1.27" width="0.2032" layer="21"/>
<wire x1="-0.635" y1="-1.27" x2="0.635" y2="-1.27" width="0.2032" layer="21"/>
<wire x1="0.635" y1="-1.27" x2="1.27" y2="-0.635" width="0.2032" layer="21"/>
<wire x1="1.27" y1="-0.635" x2="1.27" y2="0.635" width="0.2032" layer="21"/>
<rectangle x1="-0.254" y1="-0.254" x2="0.254" y2="0.254" layer="51"/>
<pad name="1" x="0" y="0" drill="1.016" diameter="1.8796" rot="R90"/>
<text x="1.1938" y="1.8288" size="1.27" layer="25">&gt;NAME</text>
<text x="-1.27" y="-3.175" size="1.27" layer="27">&gt;VALUE</text>
</package>
<package name="1X01_2MM">
<pad name="1" x="0" y="0" drill="2" diameter="3.302" rot="R90"/>
<text x="-1.3462" y="1.8288" size="1.27" layer="25">&gt;NAME</text>
<text x="-1.27" y="-3.175" size="1.27" layer="27">&gt;VALUE</text>
</package>
<package name="1X01_LONGPAD">
<wire x1="-1.27" y1="0.635" x2="-1.27" y2="-0.635" width="0.2032" layer="21"/>
<wire x1="1.27" y1="0.635" x2="1.27" y2="-0.635" width="0.2032" layer="21"/>
<rectangle x1="-0.254" y1="-0.254" x2="0.254" y2="0.254" layer="51"/>
<pad name="1" x="0" y="0" drill="1.016" diameter="1.8796" shape="long" rot="R90"/>
<text x="-1.3462" y="1.8288" size="1.27" layer="25" ratio="10">&gt;NAME</text>
<text x="-1.27" y="-3.175" size="1.27" layer="27">&gt;VALUE</text>
</package>
<package name="LUXEON-PAD">
<smd name="P$1" x="0" y="0" dx="3.9" dy="2.4" layer="1" roundness="25"/>
<text x="-1.5" y="2" size="1.27" layer="25" ratio="10">&gt;NAME</text>
<text x="-1.5" y="-3" size="1.27" layer="27">&gt;VALUE</text>
</package>
<package name="PAD-1.5X4.5">
<smd name="P$1" x="0" y="0" dx="1.5" dy="2" layer="1"/>
</package>
<package name="1X01NS">
<pad name="1" x="0" y="0" drill="1.016" diameter="1.8796" rot="R90"/>
</package>
<package name="SMTRA-256-8-6">
<rectangle x1="-3.302" y1="0.762" x2="3.302" y2="2.032" layer="31"/>
<rectangle x1="-1.016" y1="0.508" x2="1.016" y2="0.762" layer="31"/>
<rectangle x1="-1.016" y1="-1.016" x2="1.016" y2="-0.762" layer="31"/>
<rectangle x1="-3.302" y1="-2.032" x2="3.302" y2="-0.762" layer="31"/>
<rectangle x1="-1.016" y1="-0.762" x2="1.016" y2="-0.508" layer="31"/>
<rectangle x1="2.794" y1="0.508" x2="3.302" y2="0.762" layer="31"/>
<rectangle x1="2.794" y1="-0.762" x2="3.302" y2="-0.508" layer="31"/>
<rectangle x1="-3.302" y1="-0.762" x2="-2.794" y2="-0.508" layer="31"/>
<rectangle x1="-3.302" y1="0.508" x2="-2.794" y2="0.762" layer="31"/>
<pad name="P$1" x="-1.9939" y="0" drill="1.3462"/>
<pad name="P$2" x="1.9939" y="0" drill="1.3462"/>
<smd name="P$3" x="0" y="0" dx="6.6548" dy="4.3434" layer="1" cream="no"/>
<text x="1.27" y="2.54" size="0.4064" layer="27">&gt;Value</text>
<text x="-2.54" y="2.54" size="0.4064" layer="25">&gt;Name</text>
</package>
</packages>
<symbols>
<symbol name="M01">
<wire x1="3.81" y1="-2.54" x2="-2.54" y2="-2.54" width="0.4064" layer="94"/>
<wire x1="1.27" y1="0" x2="2.54" y2="0" width="0.6096" layer="94"/>
<wire x1="-2.54" y1="2.54" x2="-2.54" y2="-2.54" width="0.4064" layer="94"/>
<wire x1="3.81" y1="-2.54" x2="3.81" y2="2.54" width="0.4064" layer="94"/>
<wire x1="-2.54" y1="2.54" x2="3.81" y2="2.54" width="0.4064" layer="94"/>
<pin name="1" x="7.62" y="0" visible="off" length="middle" direction="pas" swaplevel="1" rot="R180"/>
<text x="-2.54" y="-5.08" size="1.778" layer="96">&gt;VALUE</text>
<text x="-2.54" y="3.302" size="1.778" layer="95">&gt;NAME</text>
</symbol>
</symbols>
<devicesets>
<deviceset name="M01" prefix="JP">
<description>&lt;b&gt;Header 1&lt;/b&gt;
Standard 1-pin 0.1" header. Use with straight break away headers (SKU : PRT-00116), right angle break away headers (PRT-00553), swiss pins (PRT-00743), machine pins (PRT-00117), and female headers (PRT-00115).</description>
<gates>
<gate name="G$1" symbol="M01" x="0" y="0"/>
</gates>
<devices>
<device name="-SMTSO-256-ET" package="SMTSO-256-ET">
<connects>
<connect gate="G$1" pin="1" pad="P$1"/>
</connects>
<technologies>
<technology name=""/>
</technologies>
</device>
<device name="OFFSET" package="1X01_OFFSET">
<connects>
<connect gate="G$1" pin="1" pad="1"/>
</connects>
<technologies>
<technology name=""/>
</technologies>
</device>
<device name="POGOPIN_HOLE_LARGE" package="1X01_POGOPIN_HOLE_LARGE">
<connects>
<connect gate="G$1" pin="1" pad="1"/>
</connects>
<technologies>
<technology name=""/>
</technologies>
</device>
<device name="PTH" package="1X01">
<connects>
<connect gate="G$1" pin="1" pad="1"/>
</connects>
<technologies>
<technology name=""/>
</technologies>
</device>
<device name="PTH_2MM" package="1X01_2MM">
<connects>
<connect gate="G$1" pin="1" pad="1"/>
</connects>
<technologies>
<technology name=""/>
</technologies>
</device>
<device name="PTH_LONGPAD" package="1X01_LONGPAD">
<connects>
<connect gate="G$1" pin="1" pad="1"/>
</connects>
<technologies>
<technology name=""/>
</technologies>
</device>
<device name="SMD" package="LUXEON-PAD">
<connects>
<connect gate="G$1" pin="1" pad="P$1"/>
</connects>
<technologies>
<technology name=""/>
</technologies>
</device>
<device name="SMD-4.5X1.5" package="PAD-1.5X4.5">
<connects>
<connect gate="G$1" pin="1" pad="P$1"/>
</connects>
<technologies>
<technology name=""/>
</technologies>
</device>
<device name="SMDNS" package="1X01NS">
<connects>
<connect gate="G$1" pin="1" pad="1"/>
</connects>
<technologies>
<technology name=""/>
</technologies>
</device>
<device name="SMTRA-256-8-6" package="SMTRA-256-8-6">
<connects>
<connect gate="G$1" pin="1" pad="P$1"/>
</connects>
<technologies>
<technology name=""/>
</technologies>
</device>
</devices>
</deviceset>
</devicesets>
</library>
</libraries>
<attributes>
</attributes>
<variantdefs>
</variantdefs>
<classes>
<class number="0" name="default" width="0" drill="0">
</class>
</classes>
<parts>
<part name="U$1" library="fab" deviceset="ATTINY45" device="SI"/>
<part name="GND1" library="FAB_Hello" deviceset="GND" device=""/>
<part name="P+2" library="FAB_Hello" deviceset="VCC" device="" value="5V"/>
<part name="Q1" library="FAB_Hello" deviceset="CSM-7X-DU" device="" value="16MHz"/>
<part name="C1" library="FAB_Hello" deviceset="UNPOLARIZED_CAPACITOR" device="1206" value="22pF"/>
<part name="C2" library="FAB_Hello" deviceset="UNPOLARIZED_CAPACITOR" device="1206" value="22pF"/>
<part name="R1" library="FAB_Hello" deviceset="RESISTOR" device="1206" value="10K"/>
<part name="REDLED" library="FAB_Hello" deviceset="LED" device="1206"/>
<part name="R2" library="FAB_Hello" deviceset="RESISTOR" device="1206" value="499"/>
<part name="R3" library="FAB_Hello" deviceset="RESISTOR" device="1206" value="10K"/>
<part name="S1" library="FAB_Hello" deviceset="6MM_SWITCH" device="6MM_SWITCH"/>
<part name="PB2" library="flight_controller.lbr01_SparkFun" deviceset="M01" device="PTH_LONGPAD"/>
<part name="JP2" library="flight_controller.lbr01_SparkFun" deviceset="M01" device="PTH_LONGPAD"/>
<part name="JP1" library="flight_controller.lbr01_SparkFun" deviceset="M01" device="PTH_LONGPAD"/>
</parts>
<sheets>
<sheet>
<plain>
</plain>
<instances>
<instance part="U$1" gate="G$1" x="91.44" y="45.72"/>
<instance part="GND1" gate="1" x="10.16" y="33.02" rot="R270"/>
<instance part="P+2" gate="VCC" x="149.86" y="66.04"/>
<instance part="Q1" gate="P" x="38.1" y="88.9" rot="R90"/>
<instance part="C1" gate="1" x="25.4" y="99.06"/>
<instance part="C2" gate="1" x="25.4" y="78.74"/>
<instance part="R1" gate="G$1" x="22.86" y="58.42"/>
<instance part="REDLED" gate="G$1" x="144.78" y="43.18" rot="R90"/>
<instance part="R2" gate="G$1" x="160.02" y="43.18"/>
<instance part="R3" gate="G$1" x="91.44" y="12.7" rot="R180"/>
<instance part="S1" gate="2" x="137.16" y="15.24" rot="R270"/>
<instance part="PB2" gate="G$1" x="162.56" y="73.66" rot="R180"/>
<instance part="JP2" gate="G$1" x="134.62" y="96.52"/>
<instance part="JP1" gate="G$1" x="134.62" y="109.22"/>
</instances>
<busses>
</busses>
<nets>
<net name="GND" class="0">
<segment>
<pinref part="GND1" gate="1" pin="GND"/>
<pinref part="U$1" gate="G$1" pin="GND"/>
<wire x1="12.7" y1="33.02" x2="38.1" y2="40.64" width="0.1524" layer="91"/>
<wire x1="38.1" y1="40.64" x2="38.1" y2="43.18" width="0.1524" layer="91"/>
<label x="12.7" y="33.02" size="1.778" layer="95" rot="R90" xref="yes"/>
</segment>
<segment>
<pinref part="C2" gate="1" pin="1"/>
<pinref part="C1" gate="1" pin="1"/>
<wire x1="20.32" y1="78.74" x2="20.32" y2="88.9" width="0.1524" layer="91"/>
<wire x1="20.32" y1="88.9" x2="20.32" y2="99.06" width="0.1524" layer="91"/>
<wire x1="20.32" y1="88.9" x2="15.24" y2="88.9" width="0.1524" layer="91"/>
<junction x="20.32" y="88.9"/>
<label x="7.62" y="88.9" size="1.778" layer="95"/>
</segment>
<segment>
<pinref part="R2" gate="G$1" pin="2"/>
<wire x1="165.1" y1="43.18" x2="170.18" y2="43.18" width="0.1524" layer="91"/>
<label x="170.18" y="43.18" size="1.778" layer="95"/>
</segment>
<segment>
<wire x1="86.36" y1="12.7" x2="71.12" y2="12.7" width="0.1524" layer="91"/>
<label x="71.12" y="12.7" size="1.778" layer="95" rot="R180"/>
<pinref part="R3" gate="G$1" pin="2"/>
</segment>
<segment>
<pinref part="JP1" gate="G$1" pin="1"/>
<wire x1="142.24" y1="109.22" x2="165.1" y2="109.22" width="0.1524" layer="91"/>
<label x="165.1" y="109.22" size="1.778" layer="95" xref="yes"/>
</segment>
</net>
<net name="VCC" class="0">
<segment>
<pinref part="P+2" gate="VCC" pin="VCC"/>
<pinref part="U$1" gate="G$1" pin="VCC"/>
<wire x1="149.86" y1="63.5" x2="149.86" y2="50.8" width="0.1524" layer="91"/>
<wire x1="149.86" y1="50.8" x2="127" y2="50.8" width="0.1524" layer="91"/>
<label x="149.86" y="66.04" size="1.778" layer="95" rot="R90" xref="yes"/>
</segment>
<segment>
<pinref part="R1" gate="G$1" pin="1"/>
<wire x1="17.78" y1="58.42" x2="10.16" y2="58.42" width="0.1524" layer="91"/>
<label x="7.62" y="58.42" size="1.778" layer="95"/>
</segment>
<segment>
<pinref part="S1" gate="2" pin="S1"/>
<wire x1="142.24" y1="12.7" x2="157.48" y2="12.7" width="0.1524" layer="91"/>
<label x="157.48" y="12.7" size="1.778" layer="95"/>
</segment>
<segment>
<pinref part="JP2" gate="G$1" pin="1"/>
<wire x1="142.24" y1="96.52" x2="165.1" y2="96.52" width="0.1524" layer="91"/>
<label x="165.1" y="96.52" size="1.778" layer="95" xref="yes"/>
</segment>
</net>
<net name="XTAL1" class="0">
<segment>
<pinref part="Q1" gate="P" pin="2"/>
<wire x1="38.1" y1="91.44" x2="38.1" y2="99.06" width="0.1524" layer="91"/>
<wire x1="38.1" y1="99.06" x2="53.34" y2="99.06" width="0.1524" layer="91"/>
<label x="50.8" y="99.06" size="1.778" layer="95"/>
<wire x1="38.1" y1="99.06" x2="27.94" y2="99.06" width="0.1524" layer="91"/>
<junction x="38.1" y="99.06"/>
<pinref part="C1" gate="1" pin="2"/>
<wire x1="27.94" y1="99.06" x2="25.4" y2="99.06" width="0.1524" layer="91"/>
<junction x="27.94" y="99.06"/>
</segment>
<segment>
<pinref part="U$1" gate="G$1" pin="PB3/PCINT3/XTAL1/CLKI/-OC1B/ADC3"/>
<wire x1="38.1" y1="48.26" x2="30.48" y2="48.26" width="0.1524" layer="91"/>
<label x="27.94" y="48.26" size="1.778" layer="95"/>
</segment>
</net>
<net name="XTAL2" class="0">
<segment>
<pinref part="Q1" gate="P" pin="1"/>
<wire x1="38.1" y1="86.36" x2="38.1" y2="78.74" width="0.1524" layer="91"/>
<wire x1="38.1" y1="78.74" x2="48.26" y2="78.74" width="0.1524" layer="91"/>
<label x="48.26" y="78.74" size="1.778" layer="95"/>
<wire x1="38.1" y1="78.74" x2="27.94" y2="78.74" width="0.1524" layer="91"/>
<junction x="38.1" y="78.74"/>
<pinref part="C2" gate="1" pin="2"/>
<wire x1="27.94" y1="78.74" x2="25.4" y2="78.74" width="0.1524" layer="91"/>
<junction x="27.94" y="78.74"/>
</segment>
<segment>
<pinref part="U$1" gate="G$1" pin="PB4/PCINT4/XTAL2/CLKO/OC1B/ADC2"/>
<wire x1="38.1" y1="45.72" x2="30.48" y2="45.72" width="0.1524" layer="91"/>
<label x="27.94" y="45.72" size="1.778" layer="95"/>
</segment>
</net>
<net name="N$1" class="0">
<segment>
<pinref part="U$1" gate="G$1" pin="PB5/PCINT5/-RESET/ADC0/DW"/>
<wire x1="38.1" y1="50.8" x2="27.94" y2="50.8" width="0.1524" layer="91"/>
<wire x1="27.94" y1="50.8" x2="27.94" y2="58.42" width="0.1524" layer="91"/>
<pinref part="R1" gate="G$1" pin="2"/>
</segment>
</net>
<net name="N$2" class="0">
<segment>
<pinref part="U$1" gate="G$1" pin="MOSI/DI/SDA/AIN0/OC0A/-OC1A/AREF/PCINT0/PB0"/>
<pinref part="REDLED" gate="G$1" pin="A"/>
<wire x1="127" y1="43.18" x2="139.7" y2="43.18" width="0.1524" layer="91"/>
</segment>
</net>
<net name="N$3" class="0">
<segment>
<pinref part="REDLED" gate="G$1" pin="C"/>
<wire x1="147.32" y1="43.18" x2="154.94" y2="43.18" width="0.1524" layer="91"/>
<pinref part="R2" gate="G$1" pin="1"/>
</segment>
</net>
<net name="BUTTON" class="0">
<segment>
<pinref part="R3" gate="G$1" pin="1"/>
<pinref part="S1" gate="2" pin="P1"/>
<wire x1="96.52" y1="12.7" x2="114.3" y2="12.7" width="0.1524" layer="91"/>
<wire x1="114.3" y1="12.7" x2="132.08" y2="12.7" width="0.1524" layer="91"/>
<wire x1="114.3" y1="12.7" x2="114.3" y2="5.08" width="0.1524" layer="91"/>
<junction x="114.3" y="12.7"/>
<label x="114.3" y="2.54" size="1.778" layer="95"/>
</segment>
<segment>
<pinref part="U$1" gate="G$1" pin="MISO/DO/AIN1/OC0B/OC1A/PCINT1/PB1"/>
<wire x1="127" y1="45.72" x2="187.96" y2="45.72" width="0.1524" layer="91"/>
<label x="190.5" y="45.72" size="1.778" layer="95"/>
</segment>
</net>
<net name="N$4" class="0">
<segment>
<wire x1="154.94" y1="73.66" x2="154.94" y2="48.26" width="0.1524" layer="91"/>
<pinref part="U$1" gate="G$1" pin="SCK/USCK/SCL/ADC1/T0/INT0/PCINT2/PB2"/>
<wire x1="154.94" y1="48.26" x2="127" y2="48.26" width="0.1524" layer="91"/>
<pinref part="PB2" gate="G$1" pin="1"/>
</segment>
</net>
</nets>
</sheet>
</sheets>
</schematic>
</drawing>
</eagle>
