#TopHeader {
    padding-top: 20px;
    padding-left: ;
    padding-right: ;
    padding-bottom: 20px;
    color: gainsboro;
    background-color: darkgreen;
    font-size: 3rem;
}

h2 {
    color: dimgray;
    font-size: 2.5rem;
}

body {
    background-color: chartreuse;
    padding-bottom: 2rem;
    
}

footer {
    position:absolute;
    background-color: darkgreen;
    height: 2em;
    width: 100%;
    text-align: right;
}


.left{
    text-align: left;
    vertical-align: middle;
    padding: 10px;
}

.center{
    text-align: center;
    padding: 10px;
}


img{
    width: "60%";
    max-width: 400px;
    height: "60%";
    max-height: 300px;
    padding: 2px;
    border: 2px solid;
    border-color: black;
    background-color: darkgray;
    
}

h3 {
    font-weight: bold;
}