<?xml version="1.0" encoding="utf-8"?>
<!DOCTYPE eagle SYSTEM "eagle.dtd">
<eagle version="8.4.1">
<drawing>
<settings>
<setting alwaysvectorfont="no"/>
<setting verticaltext="up"/>
</settings>
<grid distance="1" unitdist="mic" unit="mic" style="lines" multiple="1" display="no" altdistance="0.01" altunitdist="inch" altunit="inch"/>
<layers>
<layer number="1" name="Top" color="4" fill="1" visible="yes" active="yes"/>
<layer number="2" name="Route2" color="1" fill="3" visible="no" active="yes"/>
<layer number="3" name="Route3" color="4" fill="3" visible="no" active="yes"/>
<layer number="4" name="Route4" color="1" fill="4" visible="no" active="yes"/>
<layer number="5" name="Route5" color="4" fill="4" visible="no" active="yes"/>
<layer number="6" name="Route6" color="1" fill="8" visible="no" active="yes"/>
<layer number="7" name="Route7" color="4" fill="8" visible="no" active="yes"/>
<layer number="8" name="Route8" color="1" fill="2" visible="no" active="yes"/>
<layer number="9" name="Route9" color="4" fill="2" visible="no" active="yes"/>
<layer number="10" name="Route10" color="1" fill="7" visible="no" active="yes"/>
<layer number="11" name="Route11" color="4" fill="7" visible="no" active="yes"/>
<layer number="12" name="Route12" color="1" fill="5" visible="no" active="yes"/>
<layer number="13" name="Route13" color="4" fill="5" visible="no" active="yes"/>
<layer number="14" name="Route14" color="1" fill="6" visible="no" active="yes"/>
<layer number="15" name="Route15" color="4" fill="6" visible="no" active="yes"/>
<layer number="16" name="Bottom" color="1" fill="1" visible="yes" active="yes"/>
<layer number="17" name="Pads" color="2" fill="1" visible="yes" active="yes"/>
<layer number="18" name="Vias" color="2" fill="1" visible="yes" active="yes"/>
<layer number="19" name="Unrouted" color="6" fill="1" visible="yes" active="yes"/>
<layer number="20" name="Dimension" color="24" fill="1" visible="yes" active="yes"/>
<layer number="21" name="tPlace" color="7" fill="1" visible="yes" active="yes"/>
<layer number="22" name="bPlace" color="7" fill="1" visible="yes" active="yes"/>
<layer number="23" name="tOrigins" color="15" fill="1" visible="yes" active="yes"/>
<layer number="24" name="bOrigins" color="15" fill="1" visible="yes" active="yes"/>
<layer number="25" name="tNames" color="7" fill="1" visible="yes" active="yes"/>
<layer number="26" name="bNames" color="7" fill="1" visible="yes" active="yes"/>
<layer number="27" name="tValues" color="7" fill="1" visible="yes" active="yes"/>
<layer number="28" name="bValues" color="7" fill="1" visible="yes" active="yes"/>
<layer number="29" name="tStop" color="7" fill="3" visible="no" active="yes"/>
<layer number="30" name="bStop" color="7" fill="6" visible="no" active="yes"/>
<layer number="31" name="tCream" color="7" fill="4" visible="no" active="yes"/>
<layer number="32" name="bCream" color="7" fill="5" visible="no" active="yes"/>
<layer number="33" name="tFinish" color="6" fill="3" visible="no" active="yes"/>
<layer number="34" name="bFinish" color="6" fill="6" visible="no" active="yes"/>
<layer number="35" name="tGlue" color="7" fill="4" visible="no" active="yes"/>
<layer number="36" name="bGlue" color="7" fill="5" visible="no" active="yes"/>
<layer number="37" name="tTest" color="7" fill="1" visible="no" active="yes"/>
<layer number="38" name="bTest" color="7" fill="1" visible="no" active="yes"/>
<layer number="39" name="tKeepout" color="4" fill="11" visible="yes" active="yes"/>
<layer number="40" name="bKeepout" color="1" fill="11" visible="yes" active="yes"/>
<layer number="41" name="tRestrict" color="4" fill="10" visible="yes" active="yes"/>
<layer number="42" name="bRestrict" color="1" fill="10" visible="yes" active="yes"/>
<layer number="43" name="vRestrict" color="2" fill="10" visible="yes" active="yes"/>
<layer number="44" name="Drills" color="7" fill="1" visible="no" active="yes"/>
<layer number="45" name="Holes" color="7" fill="1" visible="no" active="yes"/>
<layer number="46" name="Milling" color="3" fill="1" visible="no" active="yes"/>
<layer number="47" name="Measures" color="7" fill="1" visible="no" active="yes"/>
<layer number="48" name="Document" color="7" fill="1" visible="yes" active="yes"/>
<layer number="49" name="Reference" color="7" fill="1" visible="yes" active="yes"/>
<layer number="50" name="dxf" color="7" fill="1" visible="yes" active="yes"/>
<layer number="51" name="tDocu" color="7" fill="1" visible="yes" active="yes"/>
<layer number="52" name="bDocu" color="7" fill="1" visible="yes" active="yes"/>
<layer number="53" name="tGND_GNDA" color="7" fill="1" visible="yes" active="yes"/>
<layer number="54" name="bGND_GNDA" color="7" fill="1" visible="yes" active="yes"/>
<layer number="56" name="wert" color="7" fill="1" visible="yes" active="yes"/>
<layer number="57" name="tCAD" color="7" fill="1" visible="yes" active="yes"/>
<layer number="59" name="tCarbon" color="7" fill="1" visible="yes" active="yes"/>
<layer number="60" name="bCarbon" color="7" fill="1" visible="yes" active="yes"/>
<layer number="88" name="SimResults" color="9" fill="1" visible="yes" active="yes"/>
<layer number="89" name="SimProbes" color="9" fill="1" visible="yes" active="yes"/>
<layer number="90" name="Modules" color="5" fill="1" visible="yes" active="yes"/>
<layer number="91" name="Nets" color="2" fill="1" visible="yes" active="yes"/>
<layer number="92" name="Busses" color="1" fill="1" visible="yes" active="yes"/>
<layer number="93" name="Pins" color="2" fill="1" visible="yes" active="yes"/>
<layer number="94" name="Symbols" color="4" fill="1" visible="yes" active="yes"/>
<layer number="95" name="Names" color="7" fill="1" visible="yes" active="yes"/>
<layer number="96" name="Values" color="7" fill="1" visible="yes" active="yes"/>
<layer number="97" name="Info" color="7" fill="1" visible="yes" active="yes"/>
<layer number="98" name="Guide" color="6" fill="1" visible="yes" active="yes"/>
<layer number="99" name="SpiceOrder" color="7" fill="1" visible="yes" active="yes"/>
<layer number="100" name="Muster" color="7" fill="1" visible="yes" active="yes"/>
<layer number="101" name="Patch_Top" color="7" fill="1" visible="yes" active="yes"/>
<layer number="102" name="Vscore" color="7" fill="1" visible="yes" active="yes"/>
<layer number="103" name="tMap" color="7" fill="1" visible="yes" active="yes"/>
<layer number="104" name="Name" color="7" fill="1" visible="yes" active="yes"/>
<layer number="105" name="tPlate" color="7" fill="1" visible="yes" active="yes"/>
<layer number="106" name="bPlate" color="7" fill="1" visible="yes" active="yes"/>
<layer number="107" name="Crop" color="7" fill="1" visible="yes" active="yes"/>
<layer number="108" name="tplace-old" color="7" fill="1" visible="yes" active="yes"/>
<layer number="109" name="ref-old" color="7" fill="1" visible="yes" active="yes"/>
<layer number="110" name="fp0" color="7" fill="1" visible="yes" active="yes"/>
<layer number="111" name="LPC17xx" color="7" fill="1" visible="yes" active="yes"/>
<layer number="112" name="tSilk" color="7" fill="1" visible="yes" active="yes"/>
<layer number="113" name="IDFDebug" color="7" fill="1" visible="yes" active="yes"/>
<layer number="116" name="Patch_BOT" color="7" fill="1" visible="yes" active="yes"/>
<layer number="118" name="Rect_Pads" color="7" fill="1" visible="yes" active="yes"/>
<layer number="121" name="_tsilk" color="7" fill="1" visible="yes" active="yes"/>
<layer number="122" name="_bsilk" color="7" fill="1" visible="yes" active="yes"/>
<layer number="123" name="tTestmark" color="7" fill="1" visible="yes" active="yes"/>
<layer number="124" name="bTestmark" color="7" fill="1" visible="yes" active="yes"/>
<layer number="125" name="_tNames" color="7" fill="1" visible="yes" active="yes"/>
<layer number="126" name="_bNames" color="7" fill="1" visible="yes" active="yes"/>
<layer number="127" name="_tValues" color="7" fill="1" visible="yes" active="yes"/>
<layer number="128" name="_bValues" color="7" fill="1" visible="yes" active="yes"/>
<layer number="129" name="Mask" color="7" fill="1" visible="yes" active="yes"/>
<layer number="131" name="tAdjust" color="7" fill="1" visible="yes" active="yes"/>
<layer number="132" name="bAdjust" color="7" fill="1" visible="yes" active="yes"/>
<layer number="144" name="Drill_legend" color="7" fill="1" visible="yes" active="yes"/>
<layer number="150" name="Notes" color="7" fill="1" visible="yes" active="yes"/>
<layer number="151" name="HeatSink" color="7" fill="1" visible="yes" active="yes"/>
<layer number="152" name="_bDocu" color="7" fill="1" visible="yes" active="yes"/>
<layer number="153" name="FabDoc1" color="7" fill="1" visible="yes" active="yes"/>
<layer number="154" name="FabDoc2" color="7" fill="1" visible="yes" active="yes"/>
<layer number="155" name="FabDoc3" color="7" fill="1" visible="yes" active="yes"/>
<layer number="199" name="Contour" color="7" fill="1" visible="yes" active="yes"/>
<layer number="200" name="200bmp" color="7" fill="1" visible="yes" active="yes"/>
<layer number="201" name="201bmp" color="7" fill="1" visible="yes" active="yes"/>
<layer number="202" name="202bmp" color="7" fill="1" visible="yes" active="yes"/>
<layer number="203" name="203bmp" color="7" fill="1" visible="yes" active="yes"/>
<layer number="204" name="204bmp" color="7" fill="1" visible="yes" active="yes"/>
<layer number="205" name="205bmp" color="7" fill="1" visible="yes" active="yes"/>
<layer number="206" name="206bmp" color="7" fill="1" visible="yes" active="yes"/>
<layer number="207" name="207bmp" color="7" fill="1" visible="yes" active="yes"/>
<layer number="208" name="208bmp" color="7" fill="1" visible="yes" active="yes"/>
<layer number="209" name="209bmp" color="7" fill="1" visible="yes" active="yes"/>
<layer number="210" name="210bmp" color="7" fill="1" visible="yes" active="yes"/>
<layer number="211" name="211bmp" color="7" fill="1" visible="yes" active="yes"/>
<layer number="212" name="212bmp" color="7" fill="1" visible="yes" active="yes"/>
<layer number="213" name="213bmp" color="7" fill="1" visible="yes" active="yes"/>
<layer number="214" name="214bmp" color="7" fill="1" visible="yes" active="yes"/>
<layer number="215" name="215bmp" color="7" fill="1" visible="yes" active="yes"/>
<layer number="216" name="216bmp" color="7" fill="1" visible="yes" active="yes"/>
<layer number="217" name="217bmp" color="7" fill="1" visible="yes" active="yes"/>
<layer number="218" name="218bmp" color="7" fill="1" visible="yes" active="yes"/>
<layer number="219" name="219bmp" color="7" fill="1" visible="yes" active="yes"/>
<layer number="220" name="220bmp" color="7" fill="1" visible="yes" active="yes"/>
<layer number="221" name="221bmp" color="7" fill="1" visible="yes" active="yes"/>
<layer number="222" name="222bmp" color="7" fill="1" visible="yes" active="yes"/>
<layer number="223" name="223bmp" color="7" fill="1" visible="yes" active="yes"/>
<layer number="224" name="224bmp" color="7" fill="1" visible="yes" active="yes"/>
<layer number="225" name="225bmp" color="7" fill="1" visible="yes" active="yes"/>
<layer number="226" name="226bmp" color="7" fill="1" visible="yes" active="yes"/>
<layer number="227" name="227bmp" color="7" fill="1" visible="yes" active="yes"/>
<layer number="228" name="228bmp" color="7" fill="1" visible="yes" active="yes"/>
<layer number="229" name="229bmp" color="7" fill="1" visible="yes" active="yes"/>
<layer number="230" name="230bmp" color="7" fill="1" visible="yes" active="yes"/>
<layer number="231" name="231bmp" color="7" fill="1" visible="yes" active="yes"/>
<layer number="248" name="Housing" color="7" fill="1" visible="yes" active="yes"/>
<layer number="249" name="Edge" color="7" fill="1" visible="yes" active="yes"/>
<layer number="250" name="Descript" color="7" fill="1" visible="yes" active="yes"/>
<layer number="251" name="SMDround" color="7" fill="1" visible="yes" active="yes"/>
<layer number="254" name="cooling" color="7" fill="1" visible="yes" active="yes"/>
<layer number="255" name="routoute" color="7" fill="1" visible="yes" active="yes"/>
</layers>
<library>
<packages>
<package name="02P">
<description>&lt;b&gt;AMP QUICK CONNECTOR&lt;/b&gt;</description>
<wire x1="-2.286" y1="2.54" x2="-2.286" y2="1.778" width="0.1524" layer="21"/>
<wire x1="-2.286" y1="1.778" x2="-0.381" y2="1.778" width="0.1524" layer="21"/>
<wire x1="-0.381" y1="1.778" x2="-0.254" y2="1.651" width="0.1524" layer="21"/>
<wire x1="-0.254" y1="1.651" x2="0" y2="1.397" width="0.1524" layer="21"/>
<wire x1="0" y1="1.397" x2="0.254" y2="1.651" width="0.1524" layer="21"/>
<wire x1="0.254" y1="1.651" x2="0.381" y2="1.778" width="0.1524" layer="21"/>
<wire x1="-0.254" y1="-2.159" x2="-0.254" y2="-2.286" width="0.1524" layer="21"/>
<wire x1="-0.254" y1="-2.286" x2="-2.286" y2="-2.286" width="0.1524" layer="21"/>
<wire x1="0.254" y1="-2.159" x2="-0.254" y2="-2.159" width="0.1524" layer="21"/>
<wire x1="0.254" y1="-2.159" x2="0.254" y2="-2.286" width="0.1524" layer="21"/>
<wire x1="2.286" y1="-2.286" x2="0.254" y2="-2.286" width="0.1524" layer="21"/>
<wire x1="0.381" y1="1.778" x2="2.286" y2="1.778" width="0.1524" layer="21"/>
<wire x1="2.286" y1="1.778" x2="2.286" y2="2.54" width="0.1524" layer="21"/>
<wire x1="-2.286" y1="1.778" x2="-2.286" y2="-1.524" width="0.1524" layer="21"/>
<wire x1="-2.286" y1="-1.778" x2="-2.286" y2="-2.286" width="0.1524" layer="21"/>
<wire x1="-2.286" y1="-1.778" x2="-1.905" y2="-1.778" width="0.1524" layer="21"/>
<wire x1="2.286" y1="-1.778" x2="2.286" y2="-2.286" width="0.1524" layer="21"/>
<wire x1="2.286" y1="-1.778" x2="1.905" y2="-1.778" width="0.1524" layer="21"/>
<wire x1="2.286" y1="1.778" x2="2.286" y2="-1.524" width="0.1524" layer="21"/>
<wire x1="1.905" y1="-1.778" x2="1.905" y2="-1.524" width="0.1524" layer="21"/>
<wire x1="0.635" y1="-1.27" x2="1.905" y2="-1.27" width="0.1524" layer="21"/>
<wire x1="-1.905" y1="-1.778" x2="-1.905" y2="-1.524" width="0.1524" layer="21"/>
<wire x1="-1.905" y1="-1.27" x2="-0.635" y2="-1.27" width="0.1524" layer="21"/>
<wire x1="-0.635" y1="-1.778" x2="0.635" y2="-1.778" width="0.1524" layer="21"/>
<wire x1="-0.635" y1="-1.778" x2="-0.635" y2="-1.524" width="0.1524" layer="21"/>
<wire x1="-0.635" y1="-1.524" x2="-0.635" y2="-1.27" width="0.1524" layer="21"/>
<wire x1="0.635" y1="-1.778" x2="0.635" y2="-1.524" width="0.1524" layer="21"/>
<wire x1="0.635" y1="-1.524" x2="0.635" y2="-1.27" width="0.1524" layer="21"/>
<wire x1="0.254" y1="-1.524" x2="0.635" y2="-1.524" width="0.1524" layer="21"/>
<wire x1="0.254" y1="-1.524" x2="0.254" y2="1.651" width="0.1524" layer="21"/>
<wire x1="-0.635" y1="-1.524" x2="-0.254" y2="-1.524" width="0.1524" layer="21"/>
<wire x1="-0.254" y1="-1.524" x2="0.254" y2="-1.524" width="0.1524" layer="21"/>
<wire x1="-0.254" y1="-1.524" x2="-0.254" y2="1.651" width="0.1524" layer="21"/>
<wire x1="1.905" y1="-1.524" x2="2.286" y2="-1.524" width="0.1524" layer="21"/>
<wire x1="1.905" y1="-1.524" x2="1.905" y2="-1.27" width="0.1524" layer="21"/>
<wire x1="2.286" y1="-1.524" x2="2.286" y2="-1.778" width="0.1524" layer="21"/>
<wire x1="-1.905" y1="-1.524" x2="-2.286" y2="-1.524" width="0.1524" layer="21"/>
<wire x1="-1.905" y1="-1.524" x2="-1.905" y2="-1.27" width="0.1524" layer="21"/>
<wire x1="-2.286" y1="-1.524" x2="-2.286" y2="-1.778" width="0.1524" layer="21"/>
<wire x1="-2.286" y1="2.54" x2="-1.524" y2="2.54" width="0.1524" layer="21"/>
<wire x1="-1.524" y1="2.54" x2="-1.524" y2="2.667" width="0.1524" layer="21"/>
<wire x1="-1.016" y1="2.54" x2="-1.016" y2="2.667" width="0.1524" layer="21"/>
<wire x1="-1.016" y1="2.667" x2="-1.524" y2="2.667" width="0.1524" layer="21"/>
<wire x1="1.016" y1="2.54" x2="1.016" y2="2.667" width="0.1524" layer="21"/>
<wire x1="1.524" y1="2.54" x2="2.286" y2="2.54" width="0.1524" layer="21"/>
<wire x1="1.524" y1="2.54" x2="1.524" y2="2.667" width="0.1524" layer="21"/>
<wire x1="1.524" y1="2.667" x2="1.016" y2="2.667" width="0.1524" layer="21"/>
<wire x1="0.254" y1="2.413" x2="0.254" y2="2.54" width="0.1524" layer="21"/>
<wire x1="0.254" y1="2.54" x2="1.016" y2="2.54" width="0.1524" layer="21"/>
<wire x1="0.254" y1="2.413" x2="-0.254" y2="2.413" width="0.1524" layer="21"/>
<wire x1="-0.254" y1="2.413" x2="-0.254" y2="2.54" width="0.1524" layer="21"/>
<wire x1="-0.254" y1="2.54" x2="-1.016" y2="2.54" width="0.1524" layer="21"/>
<rectangle x1="-1.6002" y1="-0.3302" x2="-0.9398" y2="0.3302" layer="51"/>
<rectangle x1="0.9398" y1="-0.3302" x2="1.6002" y2="0.3302" layer="51"/>
<pad name="1" x="-1.27" y="0" drill="0.9144" shape="long" rot="R90"/>
<pad name="2" x="1.27" y="0" drill="0.9144" shape="long" rot="R90"/>
<text x="-0.762" y="0.9398" size="0.9906" layer="21" ratio="12" rot="R90">1</text>
<text x="-2.286" y="2.9464" size="1.27" layer="25" ratio="10">&gt;NAME</text>
<text x="-2.286" y="-3.8354" size="1.27" layer="27" ratio="10">&gt;VALUE</text>
</package>
<package name="05P">
<description>&lt;b&gt;AMP QUICK CONNECTOR&lt;/b&gt;</description>
<wire x1="-4.191" y1="1.778" x2="-4.064" y2="1.651" width="0.1524" layer="21"/>
<wire x1="-4.064" y1="1.651" x2="-3.81" y2="1.397" width="0.1524" layer="21"/>
<wire x1="-3.81" y1="1.397" x2="-3.556" y2="1.651" width="0.1524" layer="21"/>
<wire x1="-3.556" y1="1.651" x2="-3.429" y2="1.778" width="0.1524" layer="21"/>
<wire x1="-4.064" y1="-2.159" x2="-4.064" y2="-2.286" width="0.1524" layer="21"/>
<wire x1="-4.064" y1="-2.286" x2="-6.096" y2="-2.286" width="0.1524" layer="21"/>
<wire x1="-3.556" y1="-2.159" x2="-4.064" y2="-2.159" width="0.1524" layer="21"/>
<wire x1="-3.556" y1="-2.159" x2="-3.556" y2="-2.286" width="0.1524" layer="21"/>
<wire x1="-6.096" y1="2.54" x2="-6.096" y2="1.778" width="0.1524" layer="21"/>
<wire x1="-6.096" y1="1.778" x2="-6.096" y2="-1.524" width="0.1524" layer="21"/>
<wire x1="-6.096" y1="-1.778" x2="-6.096" y2="-2.286" width="0.1524" layer="21"/>
<wire x1="-6.096" y1="-1.778" x2="-5.715" y2="-1.778" width="0.1524" layer="21"/>
<wire x1="-5.715" y1="-1.778" x2="-5.715" y2="-1.524" width="0.1524" layer="21"/>
<wire x1="-5.715" y1="-1.27" x2="-4.445" y2="-1.27" width="0.1524" layer="21"/>
<wire x1="-4.445" y1="-1.778" x2="-4.445" y2="-1.524" width="0.1524" layer="21"/>
<wire x1="-4.445" y1="-1.524" x2="-4.445" y2="-1.27" width="0.1524" layer="21"/>
<wire x1="-3.175" y1="-1.778" x2="-3.175" y2="-1.524" width="0.1524" layer="21"/>
<wire x1="-3.175" y1="-1.524" x2="-3.175" y2="-1.27" width="0.1524" layer="21"/>
<wire x1="-4.445" y1="-1.524" x2="-4.064" y2="-1.524" width="0.1524" layer="21"/>
<wire x1="-4.064" y1="-1.524" x2="-3.556" y2="-1.524" width="0.1524" layer="21"/>
<wire x1="-3.556" y1="-1.524" x2="-3.175" y2="-1.524" width="0.1524" layer="21"/>
<wire x1="-5.715" y1="-1.524" x2="-6.096" y2="-1.524" width="0.1524" layer="21"/>
<wire x1="-5.715" y1="-1.524" x2="-5.715" y2="-1.27" width="0.1524" layer="21"/>
<wire x1="-6.096" y1="-1.524" x2="-6.096" y2="-1.778" width="0.1524" layer="21"/>
<wire x1="-6.096" y1="2.54" x2="-5.334" y2="2.54" width="0.1524" layer="21"/>
<wire x1="-5.334" y1="2.54" x2="-5.334" y2="2.667" width="0.1524" layer="21"/>
<wire x1="-4.826" y1="2.54" x2="-4.826" y2="2.667" width="0.1524" layer="21"/>
<wire x1="-4.826" y1="2.667" x2="-5.334" y2="2.667" width="0.1524" layer="21"/>
<wire x1="-2.794" y1="2.54" x2="-2.794" y2="2.667" width="0.1524" layer="21"/>
<wire x1="-2.286" y1="2.54" x2="-2.286" y2="2.667" width="0.1524" layer="21"/>
<wire x1="-3.556" y1="2.413" x2="-3.556" y2="2.54" width="0.1524" layer="21"/>
<wire x1="-4.064" y1="2.413" x2="-4.064" y2="2.54" width="0.1524" layer="21"/>
<wire x1="-1.016" y1="-2.159" x2="-1.524" y2="-2.159" width="0.1524" layer="21"/>
<wire x1="-1.016" y1="-2.159" x2="-1.016" y2="-2.286" width="0.1524" layer="21"/>
<wire x1="1.016" y1="-2.286" x2="-1.016" y2="-2.286" width="0.1524" layer="21"/>
<wire x1="1.016" y1="1.778" x2="1.016" y2="-1.524" width="0.1524" layer="21"/>
<wire x1="0.635" y1="-1.778" x2="0.635" y2="-1.524" width="0.1524" layer="21"/>
<wire x1="-0.635" y1="-1.27" x2="0.635" y2="-1.27" width="0.1524" layer="21"/>
<wire x1="-1.905" y1="-1.778" x2="-1.905" y2="-1.524" width="0.1524" layer="21"/>
<wire x1="-1.905" y1="-1.524" x2="-1.905" y2="-1.27" width="0.1524" layer="21"/>
<wire x1="-0.635" y1="-1.778" x2="-0.635" y2="-1.524" width="0.1524" layer="21"/>
<wire x1="-0.635" y1="-1.524" x2="-0.635" y2="-1.27" width="0.1524" layer="21"/>
<wire x1="-1.905" y1="-1.524" x2="-1.524" y2="-1.524" width="0.1524" layer="21"/>
<wire x1="-1.524" y1="-1.524" x2="-1.016" y2="-1.524" width="0.1524" layer="21"/>
<wire x1="-1.016" y1="-1.524" x2="-0.635" y2="-1.524" width="0.1524" layer="21"/>
<wire x1="0.635" y1="-1.524" x2="1.016" y2="-1.524" width="0.1524" layer="21"/>
<wire x1="0.635" y1="-1.524" x2="0.635" y2="-1.27" width="0.1524" layer="21"/>
<wire x1="-0.254" y1="2.54" x2="-0.254" y2="2.667" width="0.1524" layer="21"/>
<wire x1="0.254" y1="2.54" x2="1.016" y2="2.54" width="0.1524" layer="21"/>
<wire x1="0.254" y1="2.54" x2="0.254" y2="2.667" width="0.1524" layer="21"/>
<wire x1="0.254" y1="2.667" x2="-0.254" y2="2.667" width="0.1524" layer="21"/>
<wire x1="-1.016" y1="2.413" x2="-1.016" y2="2.54" width="0.1524" layer="21"/>
<wire x1="-1.016" y1="2.54" x2="-0.254" y2="2.54" width="0.1524" layer="21"/>
<wire x1="-1.016" y1="2.413" x2="-1.524" y2="2.413" width="0.1524" layer="21"/>
<wire x1="-1.524" y1="2.413" x2="-1.524" y2="2.54" width="0.1524" layer="21"/>
<wire x1="-2.286" y1="2.54" x2="-1.524" y2="2.54" width="0.1524" layer="21"/>
<wire x1="-2.286" y1="2.667" x2="-2.794" y2="2.667" width="0.1524" layer="21"/>
<wire x1="-3.556" y1="2.54" x2="-2.794" y2="2.54" width="0.1524" layer="21"/>
<wire x1="-4.064" y1="2.413" x2="-3.556" y2="2.413" width="0.1524" layer="21"/>
<wire x1="-4.064" y1="2.54" x2="-4.826" y2="2.54" width="0.1524" layer="21"/>
<wire x1="-4.191" y1="1.778" x2="-6.096" y2="1.778" width="0.1524" layer="21"/>
<wire x1="-3.429" y1="1.778" x2="-1.524" y2="1.778" width="0.1524" layer="21"/>
<wire x1="-1.524" y1="1.778" x2="-1.016" y2="1.778" width="0.1524" layer="21"/>
<wire x1="-3.556" y1="1.651" x2="-3.556" y2="-1.524" width="0.1524" layer="21"/>
<wire x1="-4.064" y1="1.651" x2="-4.064" y2="-1.524" width="0.1524" layer="21"/>
<wire x1="-1.524" y1="1.778" x2="-1.524" y2="-1.524" width="0.1524" layer="21"/>
<wire x1="-1.016" y1="1.778" x2="-1.016" y2="-1.524" width="0.1524" layer="21"/>
<wire x1="-3.175" y1="-1.27" x2="-1.905" y2="-1.27" width="0.1524" layer="21"/>
<wire x1="-3.175" y1="-1.778" x2="-4.445" y2="-1.778" width="0.1524" layer="21"/>
<wire x1="-3.556" y1="-2.286" x2="-1.524" y2="-2.286" width="0.1524" layer="21"/>
<wire x1="-1.905" y1="-1.778" x2="-0.635" y2="-1.778" width="0.1524" layer="21"/>
<wire x1="-1.524" y1="-2.159" x2="-1.524" y2="-2.286" width="0.1524" layer="21"/>
<wire x1="1.524" y1="1.778" x2="1.524" y2="-1.524" width="0.1524" layer="21"/>
<wire x1="1.905" y1="-1.778" x2="1.905" y2="-1.524" width="0.1524" layer="21"/>
<wire x1="1.905" y1="-1.524" x2="1.524" y2="-1.524" width="0.1524" layer="21"/>
<wire x1="1.905" y1="-1.524" x2="1.905" y2="-1.27" width="0.1524" layer="21"/>
<wire x1="2.286" y1="2.54" x2="2.286" y2="2.667" width="0.1524" layer="21"/>
<wire x1="2.794" y1="2.54" x2="2.794" y2="2.667" width="0.1524" layer="21"/>
<wire x1="3.81" y1="1.397" x2="4.064" y2="1.651" width="0.1524" layer="21"/>
<wire x1="4.064" y1="1.651" x2="4.191" y2="1.778" width="0.1524" layer="21"/>
<wire x1="4.064" y1="-2.159" x2="3.556" y2="-2.159" width="0.1524" layer="21"/>
<wire x1="4.064" y1="-2.159" x2="4.064" y2="-2.286" width="0.1524" layer="21"/>
<wire x1="6.096" y1="-2.286" x2="4.064" y2="-2.286" width="0.1524" layer="21"/>
<wire x1="4.191" y1="1.778" x2="6.096" y2="1.778" width="0.1524" layer="21"/>
<wire x1="6.096" y1="1.778" x2="6.096" y2="2.54" width="0.1524" layer="21"/>
<wire x1="6.096" y1="-1.778" x2="6.096" y2="-2.286" width="0.1524" layer="21"/>
<wire x1="6.096" y1="-1.778" x2="5.715" y2="-1.778" width="0.1524" layer="21"/>
<wire x1="6.096" y1="1.778" x2="6.096" y2="-1.524" width="0.1524" layer="21"/>
<wire x1="5.715" y1="-1.778" x2="5.715" y2="-1.524" width="0.1524" layer="21"/>
<wire x1="4.445" y1="-1.27" x2="5.715" y2="-1.27" width="0.1524" layer="21"/>
<wire x1="3.175" y1="-1.778" x2="3.175" y2="-1.524" width="0.1524" layer="21"/>
<wire x1="3.175" y1="-1.524" x2="3.175" y2="-1.27" width="0.1524" layer="21"/>
<wire x1="4.445" y1="-1.778" x2="4.445" y2="-1.524" width="0.1524" layer="21"/>
<wire x1="4.445" y1="-1.524" x2="4.445" y2="-1.27" width="0.1524" layer="21"/>
<wire x1="3.175" y1="-1.524" x2="3.556" y2="-1.524" width="0.1524" layer="21"/>
<wire x1="3.556" y1="-1.524" x2="4.064" y2="-1.524" width="0.1524" layer="21"/>
<wire x1="4.064" y1="-1.524" x2="4.445" y2="-1.524" width="0.1524" layer="21"/>
<wire x1="5.715" y1="-1.524" x2="6.096" y2="-1.524" width="0.1524" layer="21"/>
<wire x1="5.715" y1="-1.524" x2="5.715" y2="-1.27" width="0.1524" layer="21"/>
<wire x1="6.096" y1="-1.524" x2="6.096" y2="-1.778" width="0.1524" layer="21"/>
<wire x1="4.826" y1="2.54" x2="4.826" y2="2.667" width="0.1524" layer="21"/>
<wire x1="5.334" y1="2.54" x2="6.096" y2="2.54" width="0.1524" layer="21"/>
<wire x1="5.334" y1="2.54" x2="5.334" y2="2.667" width="0.1524" layer="21"/>
<wire x1="5.334" y1="2.667" x2="4.826" y2="2.667" width="0.1524" layer="21"/>
<wire x1="4.064" y1="2.413" x2="4.064" y2="2.54" width="0.1524" layer="21"/>
<wire x1="4.064" y1="2.54" x2="4.826" y2="2.54" width="0.1524" layer="21"/>
<wire x1="4.064" y1="2.413" x2="3.556" y2="2.413" width="0.1524" layer="21"/>
<wire x1="3.556" y1="2.413" x2="3.556" y2="2.54" width="0.1524" layer="21"/>
<wire x1="3.429" y1="1.778" x2="3.556" y2="1.651" width="0.1524" layer="21"/>
<wire x1="3.556" y1="1.651" x2="3.81" y2="1.397" width="0.1524" layer="21"/>
<wire x1="2.794" y1="2.54" x2="3.556" y2="2.54" width="0.1524" layer="21"/>
<wire x1="2.794" y1="2.667" x2="2.286" y2="2.667" width="0.1524" layer="21"/>
<wire x1="1.524" y1="2.54" x2="2.286" y2="2.54" width="0.1524" layer="21"/>
<wire x1="3.556" y1="1.651" x2="3.556" y2="-1.524" width="0.1524" layer="21"/>
<wire x1="4.064" y1="1.651" x2="4.064" y2="-1.524" width="0.1524" layer="21"/>
<wire x1="1.524" y1="-2.286" x2="3.556" y2="-2.286" width="0.1524" layer="21"/>
<wire x1="3.175" y1="-1.778" x2="4.445" y2="-1.778" width="0.1524" layer="21"/>
<wire x1="3.556" y1="-2.159" x2="3.556" y2="-2.286" width="0.1524" layer="21"/>
<wire x1="-1.016" y1="1.778" x2="1.016" y2="1.778" width="0.1524" layer="21"/>
<wire x1="1.524" y1="1.778" x2="3.429" y2="1.778" width="0.1524" layer="21"/>
<wire x1="1.016" y1="-2.159" x2="1.016" y2="-2.286" width="0.1524" layer="21"/>
<wire x1="1.524" y1="-2.159" x2="1.524" y2="-2.286" width="0.1524" layer="21"/>
<wire x1="1.524" y1="-2.159" x2="1.016" y2="-2.159" width="0.1524" layer="21"/>
<wire x1="1.905" y1="-1.778" x2="0.635" y2="-1.778" width="0.1524" layer="21"/>
<wire x1="1.524" y1="-1.524" x2="1.016" y2="-1.524" width="0.1524" layer="21"/>
<wire x1="1.524" y1="1.778" x2="1.016" y2="1.778" width="0.1524" layer="21"/>
<wire x1="1.524" y1="2.413" x2="1.016" y2="2.413" width="0.1524" layer="21"/>
<wire x1="1.016" y1="2.54" x2="1.016" y2="2.413" width="0.1524" layer="21"/>
<wire x1="1.524" y1="2.54" x2="1.524" y2="2.413" width="0.1524" layer="21"/>
<wire x1="1.905" y1="-1.27" x2="3.175" y2="-1.27" width="0.1524" layer="21"/>
<rectangle x1="-5.4102" y1="-0.3302" x2="-4.7498" y2="0.3302" layer="51"/>
<rectangle x1="-2.8702" y1="-0.3302" x2="-2.2098" y2="0.3302" layer="51"/>
<rectangle x1="-0.3302" y1="-0.3302" x2="0.3302" y2="0.3302" layer="51"/>
<rectangle x1="2.2098" y1="-0.3302" x2="2.8702" y2="0.3302" layer="51"/>
<rectangle x1="4.7498" y1="-0.3302" x2="5.4102" y2="0.3302" layer="51"/>
<pad name="1" x="-5.08" y="0" drill="0.9144" shape="long" rot="R90"/>
<pad name="2" x="-2.54" y="0" drill="0.9144" shape="long" rot="R90"/>
<pad name="3" x="0" y="0" drill="0.9144" shape="long" rot="R90"/>
<pad name="4" x="2.54" y="0" drill="0.9144" shape="long" rot="R90"/>
<pad name="5" x="5.08" y="0" drill="0.9144" shape="long" rot="R90"/>
<text x="-4.572" y="0.9398" size="0.9906" layer="21" ratio="12" rot="R90">1</text>
<text x="-6.096" y="2.9464" size="1.27" layer="25" ratio="10">&gt;NAME</text>
<text x="-6.096" y="-3.8354" size="1.27" layer="27" ratio="10">&gt;VALUE</text>
</package>
</packages>
<symbols>
<symbol name="M02">
<wire x1="3.81" y1="-2.54" x2="-2.54" y2="-2.54" width="0.4064" layer="94"/>
<wire x1="1.27" y1="2.54" x2="2.54" y2="2.54" width="0.6096" layer="94"/>
<wire x1="1.27" y1="0" x2="2.54" y2="0" width="0.6096" layer="94"/>
<wire x1="-2.54" y1="5.08" x2="-2.54" y2="-2.54" width="0.4064" layer="94"/>
<wire x1="3.81" y1="-2.54" x2="3.81" y2="5.08" width="0.4064" layer="94"/>
<wire x1="-2.54" y1="5.08" x2="3.81" y2="5.08" width="0.4064" layer="94"/>
<pin name="1" x="7.62" y="0" visible="pad" length="middle" direction="pas" swaplevel="1" rot="R180"/>
<pin name="2" x="7.62" y="2.54" visible="pad" length="middle" direction="pas" swaplevel="1" rot="R180"/>
<text x="-2.54" y="-5.08" size="1.778" layer="96">&gt;VALUE</text>
<text x="-2.54" y="5.842" size="1.778" layer="95">&gt;NAME</text>
</symbol>
<symbol name="M05">
<wire x1="3.81" y1="-7.62" x2="-2.54" y2="-7.62" width="0.4064" layer="94"/>
<wire x1="1.27" y1="0" x2="2.54" y2="0" width="0.6096" layer="94"/>
<wire x1="1.27" y1="-2.54" x2="2.54" y2="-2.54" width="0.6096" layer="94"/>
<wire x1="1.27" y1="-5.08" x2="2.54" y2="-5.08" width="0.6096" layer="94"/>
<wire x1="-2.54" y1="7.62" x2="-2.54" y2="-7.62" width="0.4064" layer="94"/>
<wire x1="3.81" y1="-7.62" x2="3.81" y2="7.62" width="0.4064" layer="94"/>
<wire x1="-2.54" y1="7.62" x2="3.81" y2="7.62" width="0.4064" layer="94"/>
<wire x1="1.27" y1="5.08" x2="2.54" y2="5.08" width="0.6096" layer="94"/>
<wire x1="1.27" y1="2.54" x2="2.54" y2="2.54" width="0.6096" layer="94"/>
<pin name="1" x="7.62" y="-5.08" visible="pad" length="middle" direction="pas" swaplevel="1" rot="R180"/>
<pin name="2" x="7.62" y="-2.54" visible="pad" length="middle" direction="pas" swaplevel="1" rot="R180"/>
<pin name="3" x="7.62" y="0" visible="pad" length="middle" direction="pas" swaplevel="1" rot="R180"/>
<pin name="4" x="7.62" y="2.54" visible="pad" length="middle" direction="pas" swaplevel="1" rot="R180"/>
<pin name="5" x="7.62" y="5.08" visible="pad" length="middle" direction="pas" swaplevel="1" rot="R180"/>
<text x="-2.54" y="-10.16" size="1.778" layer="96">&gt;VALUE</text>
<text x="-2.54" y="8.382" size="1.778" layer="95">&gt;NAME</text>
</symbol>
</symbols>
<devicesets>
<deviceset name="M02" prefix="SL" uservalue="yes">
<description>&lt;b&gt;AMP QUICK CONNECTOR&lt;/b&gt;</description>
<gates>
<gate name="G$1" symbol="M02" x="-2.54" y="0"/>
</gates>
<devices>
<device name="" package="02P">
<connects>
<connect gate="G$1" pin="1" pad="1"/>
<connect gate="G$1" pin="2" pad="2"/>
</connects>
<technologies>
<technology name="">
<attribute name="MF" value="" constant="no"/>
<attribute name="MPN" value="" constant="no"/>
<attribute name="OC_FARNELL" value="unknown" constant="no"/>
<attribute name="OC_NEWARK" value="unknown" constant="no"/>
</technology>
</technologies>
</device>
</devices>
</deviceset>
<deviceset name="M05" prefix="SL" uservalue="yes">
<description>&lt;b&gt;AMP QUICK CONNECTOR&lt;/b&gt;</description>
<gates>
<gate name="G$1" symbol="M05" x="-2.54" y="0"/>
</gates>
<devices>
<device name="" package="05P">
<connects>
<connect gate="G$1" pin="1" pad="1"/>
<connect gate="G$1" pin="2" pad="2"/>
<connect gate="G$1" pin="3" pad="3"/>
<connect gate="G$1" pin="4" pad="4"/>
<connect gate="G$1" pin="5" pad="5"/>
</connects>
<technologies>
<technology name="">
<attribute name="MF" value="" constant="no"/>
<attribute name="MPN" value="" constant="no"/>
<attribute name="OC_FARNELL" value="unknown" constant="no"/>
<attribute name="OC_NEWARK" value="unknown" constant="no"/>
</technology>
</technologies>
</device>
</devices>
</deviceset>
</devicesets>
</library>
</drawing>
</eagle>
